(footprint "Broadcom_APDS-9160-003" (version 20221018) (generator pcbnew)
  (layer "F.Cu")
  (descr "Broadcom DFN, 8 Pin (https://docs.broadcom.com/docs/APDS-9160-003-DS)")
  (tags "proximity sensor avago")
  (attr smd)
  (fp_text reference "REF**" (at 0.5 -2) (layer "F.SilkS")
      (effects (font (size 1 1) (thickness 0.15)))
    (tstamp 0f7d5c94-aea0-406a-8885-98d88ce2d9ff)
  )
  (fp_text value "Broadcom_APDS-9160-003" (at 0 2.65) (layer "F.Fab")
      (effects (font (size 1 1) (thickness 0.15)))
    (tstamp 2c95f28a-5eb2-451c-9a44-7de48ff9c4a3)
  )
  (fp_text user "${REFERENCE}" (at 0 0) (layer "F.Fab")
      (effects (font (size 0.5 0.5) (thickness 0.08)))
    (tstamp 2e7affe9-a25e-461f-8479-924f493566b9)
  )
  (fp_line (start -1.4 -0.9) (end -1.4 1.15)
    (stroke (width 0.12) (type solid)) (layer "F.SilkS") (tstamp 10aee9fb-86f5-44d5-96a3-db00a4900f28))
  (fp_line (start -1.4 1.15) (end 1.4 1.15)
    (stroke (width 0.12) (type default)) (layer "F.SilkS") (tstamp 58aeaf05-e650-4a45-b88f-206ef93bc902))
  (fp_line (start 1.4 -1.15) (end -1.2 -1.15)
    (stroke (width 0.12) (type default)) (layer "F.SilkS") (tstamp 72fddeac-7a11-42a8-838a-a8537124ff33))
  (fp_line (start 1.4 -1.15) (end 1.4 1.15)
    (stroke (width 0.12) (type solid)) (layer "F.SilkS") (tstamp f6bda030-60a2-4bfa-9eef-bb687a68ed58))
  (fp_poly
    (pts
      (xy -1.4 -1.1)
      (xy -1.4 -1.3)
      (xy -1.6 -1.1)
    )

    (stroke (width 0.1) (type solid)) (fill solid) (layer "F.SilkS") (tstamp ac4e08dd-910a-4c93-9406-e665b2ad4e8e))
  (fp_line (start -1.53 -1.28) (end 1.53 -1.28)
    (stroke (width 0.05) (type solid)) (layer "F.CrtYd") (tstamp c5176ef0-5d1f-40d7-8fe3-a556e724976b))
  (fp_line (start -1.53 1.28) (end -1.53 -1.28)
    (stroke (width 0.05) (type solid)) (layer "F.CrtYd") (tstamp 27a36b8c-322a-473b-a12e-0e89431484a2))
  (fp_line (start 1.53 -1.28) (end 1.53 1.28)
    (stroke (width 0.05) (type solid)) (layer "F.CrtYd") (tstamp 946f9739-fa75-434f-b323-fb040b17d25a))
  (fp_line (start 1.53 1.28) (end -1.53 1.28)
    (stroke (width 0.05) (type solid)) (layer "F.CrtYd") (tstamp 83786e52-3d09-45fb-a017-c2c0c6a4d1e1))
  (fp_line (start -1.275 -0.5125) (end -1.275 1.025)
    (stroke (width 0.1) (type solid)) (layer "F.Fab") (tstamp 71c6f82d-95da-4a3e-adf8-7d91179e1275))
  (fp_line (start -1.275 -0.5125) (end -0.6375 -1.025)
    (stroke (width 0.1) (type default)) (layer "F.Fab") (tstamp d03a91b6-92ae-4ad9-8b9e-44367206a00f))
  (fp_line (start -1.275 1.025) (end 1.275 1.025)
    (stroke (width 0.1) (type solid)) (layer "F.Fab") (tstamp f25d5053-8c33-40a9-86fb-86ca0aa1b5da))
  (fp_line (start 1.275 -1.025) (end -0.6375 -1.025)
    (stroke (width 0.1) (type solid)) (layer "F.Fab") (tstamp e181e597-36a8-45bc-8333-5066e50ac6f9))
  (fp_line (start 1.275 1.025) (end 1.275 -1.025)
    (stroke (width 0.1) (type solid)) (layer "F.Fab") (tstamp 2633edae-95cf-434d-8724-3f631877ec57))
  (pad "1" smd roundrect (at -0.915 -0.69) (size 0.4 0.35) (layers "F.Cu" "F.Paste" "F.Mask") (roundrect_rratio 0.25) (tstamp 899696a4-5b44-45dc-9429-b046a986a976))
  (pad "2" smd roundrect (at -0.305 -0.69) (size 0.4 0.35) (layers "F.Cu" "F.Paste" "F.Mask") (roundrect_rratio 0.25) (tstamp a39337d8-d682-4a26-bc4a-7e9c8436cece))
  (pad "3" smd roundrect (at 0.305 -0.69) (size 0.4 0.35) (layers "F.Cu" "F.Paste" "F.Mask") (roundrect_rratio 0.25) (tstamp 8c1a5da7-20cd-443c-bebd-6ba4d69527eb))
  (pad "4" smd roundrect (at 0.915 -0.69) (size 0.4 0.35) (layers "F.Cu" "F.Paste" "F.Mask") (roundrect_rratio 0.25) (tstamp 35672214-8e15-41c9-8ed2-7c7c78121ddf))
  (pad "5" smd roundrect (at 0.915 0.69) (size 0.4 0.35) (layers "F.Cu" "F.Paste" "F.Mask") (roundrect_rratio 0.25) (tstamp 8e30bc20-e6bd-4edc-8578-c40a2f9bffe5))
  (pad "6" smd roundrect (at 0.305 0.69) (size 0.4 0.35) (layers "F.Cu" "F.Paste" "F.Mask") (roundrect_rratio 0.25) (tstamp d5d0a9a5-269b-46d6-91f4-417a82b62b8e))
  (pad "7" smd roundrect (at -0.305 0.69) (size 0.4 0.35) (layers "F.Cu" "F.Paste" "F.Mask") (roundrect_rratio 0.25) (tstamp fd0b6c4e-0487-4643-861e-59f46feb89c7))
  (pad "8" smd roundrect (at -0.915 0.69) (size 0.4 0.35) (layers "F.Cu" "F.Paste" "F.Mask") (roundrect_rratio 0.25) (tstamp daa4bab7-9af7-4ccf-9b77-a800987e1784))
  (model "${KICAD7_3DMODEL_DIR}/OptoDevice.3dshapes/Broadcom_APDS-9160-003.wrl"
    (offset (xyz 0 0 0))
    (scale (xyz 1 1 1))
    (rotate (xyz 0 0 0))
  )
)
