(footprint "Sharp_GP2S700HCP" (version 20221018) (generator pcbnew)
  (layer "F.Cu")
  (descr "Sharp GP2S700HCP, light-direction upwards, see: https://www.sharpsde.com/fileadmin/products/Optoelectronics/Isolation%20Devices/Specs_Photointerrupter/GP2S700HCP_03Oct05_DS_D3-A02201FEN.pdf")
  (tags "refective opto couple photo coupler")
  (attr smd)
  (fp_text reference "REF**" (at 3.295 0 90) (layer "F.SilkS")
      (effects (font (size 1 1) (thickness 0.15)))
    (tstamp 92e468a0-41bd-4ce1-ad1f-26e4f5d7c0d1)
  )
  (fp_text value "Sharp_GP2S700HCP" (at -3.205 0 90 unlocked) (layer "F.Fab")
      (effects (font (size 1 1) (thickness 0.15)))
    (tstamp bb101d6b-bffb-4371-9b5d-384cba6e62b7)
  )
  (fp_text user "${REFERENCE}" (at 0 0) (layer "F.Fab")
      (effects (font (size 0.75 0.75) (thickness 0.15)))
    (tstamp d552c8f1-da07-41d6-b89b-7065dc0b7850)
  )
  (fp_line (start -2.1 -0.44) (end -2.1 0.44)
    (stroke (width 0.12) (type default)) (layer "F.SilkS") (tstamp 5fe65a99-2b5e-4729-b7ea-ce890e8dcd0c))
  (fp_line (start -1.11 -1.96) (end -2.19 -1.96)
    (stroke (width 0.12) (type default)) (layer "F.SilkS") (tstamp 99256c9c-2161-4528-b57d-0daf4d212ed2))
  (fp_line (start -0.75 -1.6) (end 0.75 -1.6)
    (stroke (width 0.12) (type default)) (layer "F.SilkS") (tstamp 735eb39c-0434-46ce-9aee-fd81c4176e82))
  (fp_line (start -0.75 1.6) (end 0.75 1.6)
    (stroke (width 0.12) (type default)) (layer "F.SilkS") (tstamp 9db08b31-f9ed-4dfb-8449-7a15ad988c6c))
  (fp_line (start -2.5 -2) (end 2.5 -2)
    (stroke (width 0.05) (type default)) (layer "F.CrtYd") (tstamp e6b26ac9-1d2f-4032-b092-458334afc3f0))
  (fp_line (start -2.5 2) (end -2.5 -2)
    (stroke (width 0.05) (type default)) (layer "F.CrtYd") (tstamp 4d54bbd7-ac8b-4f59-b697-82e2ade5c6b7))
  (fp_line (start -2.5 2) (end 2.5 2)
    (stroke (width 0.05) (type default)) (layer "F.CrtYd") (tstamp 91c20f46-5565-48d4-a510-e5165222f56d))
  (fp_line (start 2.5 -2) (end 2.5 2)
    (stroke (width 0.05) (type default)) (layer "F.CrtYd") (tstamp 717ab557-0dcc-4ab0-8a6f-c225e4784f0c))
  (fp_line (start -2 -1.5) (end 2 -1.5)
    (stroke (width 0.1) (type default)) (layer "F.Fab") (tstamp 62e82c0e-94ef-42b3-847b-db9bf7f13582))
  (fp_line (start -2 1.5) (end -2 -1.5)
    (stroke (width 0.1) (type default)) (layer "F.Fab") (tstamp f6f6f9d5-c1d7-4a01-8c0c-3bc1893a3695))
  (fp_line (start -2 1.5) (end 2 1.5)
    (stroke (width 0.1) (type default)) (layer "F.Fab") (tstamp 90fe10fa-062e-4ab3-830d-647f7ae1ac2b))
  (fp_line (start 2 -1.5) (end 2 1.5)
    (stroke (width 0.1) (type default)) (layer "F.Fab") (tstamp f2c389b3-f045-4990-b88c-77dc7aaad6e4))
  (pad "1" smd roundrect (at -1.65 -1.2) (size 1.2 1.1) (layers "F.Cu" "F.Paste" "F.Mask") (roundrect_rratio 0.1363636364)
    (thermal_bridge_angle 45) (tstamp fdc567e6-f998-4fdb-b381-5f87921cb23a))
  (pad "2" smd roundrect (at -1.65 1.2) (size 1.2 1.1) (layers "F.Cu" "F.Paste" "F.Mask") (roundrect_rratio 0.1363636364)
    (thermal_bridge_angle 45) (tstamp 612a8dea-d392-472e-baae-939463ccaea4))
  (pad "3" smd roundrect (at 1.65 1.2) (size 1.2 1.1) (layers "F.Cu" "F.Paste" "F.Mask") (roundrect_rratio 0.1363636364)
    (thermal_bridge_angle 45) (tstamp a07f4220-e5bd-44d3-8c00-01ec4ce1b984))
  (pad "4" smd roundrect (at 1.65 -1.2) (size 1.2 1.1) (layers "F.Cu" "F.Paste" "F.Mask") (roundrect_rratio 0.1363636364)
    (thermal_bridge_angle 45) (tstamp a19934a0-5b42-4246-b1da-3c78e3854362))
  (zone (net 0) (net_name "") (layer "F.Cu") (tstamp 057b3d20-b758-444d-9a3a-2b0ef32d79ed) (name "keepout to avoid short circuit") (hatch edge 0.5)
    (connect_pads (clearance 0))
    (min_thickness 0.25) (filled_areas_thickness no)
    (keepout (tracks not_allowed) (vias not_allowed) (pads not_allowed) (copperpour not_allowed) (footprints not_allowed))
    (fill (thermal_gap 0.5) (thermal_bridge_width 0.5))
    (polygon
      (pts
        (xy -2.25 -0.65)
        (xy -1.05 -0.65)
        (xy -1.05 -1.75)
        (xy 1.05 -1.75)
        (xy 1.05 -0.65)
        (xy 2.25 -0.65)
        (xy 2.25 0.65)
        (xy 1.05 0.65)
        (xy 1.05 1.75)
        (xy -1.05 1.75)
        (xy -1.05 0.65)
        (xy -2.25 0.65)
      )
    )
  )
  (model "${KICAD7_3DMODEL_DIR}/OptoDevice.3dshapes/Sharp_GP2S700HCP.wrl"
    (offset (xyz 0 0 0))
    (scale (xyz 1 1 1))
    (rotate (xyz 0 0 0))
  )
)
