(footprint HTSSOP-20-1EP_4.4x6.5mm_P0.65mm_EP3.4x6.5mm_Mask2.4x3.7mm (version 20221018) (generator kicad-footprint-generator)
  (layer F.Cu)
  (descr "HTSSOP, 20 Pin (http://www.ti.com/lit/ds/symlink/bq24006.pdf), generated with kicad-footprint-generator ipc_gullwing_generator.py")
  (tags "HTSSOP SO")
  (attr smd)
  (fp_text reference REF** (at 0 -4.2) (layer F.SilkS)
    (effects (font (size 1 1) (thickness 0.15)))
  )
  (fp_text value HTSSOP-20-1EP_4.4x6.5mm_P0.65mm_EP3.4x6.5mm_Mask2.4x3.7mm (at 0 4.2) (layer F.Fab)
    (effects (font (size 1 1) (thickness 0.15)))
  )
  (fp_line (start -3.9 -3.5) (end -3.9 3.5)
    (stroke (width 0.05) (type solid)) (layer F.CrtYd))
  (fp_line (start -3.9 3.5) (end 3.9 3.5)
    (stroke (width 0.05) (type solid)) (layer F.CrtYd))
  (fp_line (start 3.9 3.5) (end 3.9 -3.5)
    (stroke (width 0.05) (type solid)) (layer F.CrtYd))
  (fp_line (start 3.9 -3.5) (end -3.9 -3.5)
    (stroke (width 0.05) (type solid)) (layer F.CrtYd))
  (fp_line (start 0 3.51) (end 2.2 3.51)
    (stroke (width 0.12) (type solid)) (layer F.SilkS))
  (fp_line (start 0 3.51) (end -2.2 3.51)
    (stroke (width 0.12) (type solid)) (layer F.SilkS))
  (fp_line (start 0 -3.51) (end 2.2 -3.51)
    (stroke (width 0.12) (type solid)) (layer F.SilkS))
  (fp_line (start 0 -3.51) (end -2.2 -3.51)
    (stroke (width 0.12) (type solid)) (layer F.SilkS))
  (fp_line (start -1.2 -3.25) (end 2.2 -3.25)
    (stroke (width 0.1) (type solid)) (layer F.Fab))
  (fp_line (start 2.2 -3.25) (end 2.2 3.25)
    (stroke (width 0.1) (type solid)) (layer F.Fab))
  (fp_line (start 2.2 3.25) (end -2.2 3.25)
    (stroke (width 0.1) (type solid)) (layer F.Fab))
  (fp_line (start -2.2 3.25) (end -2.2 -2.25)
    (stroke (width 0.1) (type solid)) (layer F.Fab))
  (fp_line (start -2.2 -2.25) (end -1.2 -3.25)
    (stroke (width 0.1) (type solid)) (layer F.Fab))
  (pad 1 smd roundrect (at -2.8625 -2.925) (size 1.575 0.4) (layers F.Cu F.Mask F.Paste) (roundrect_rratio 0.25))
  (pad 2 smd roundrect (at -2.8625 -2.275) (size 1.575 0.4) (layers F.Cu F.Mask F.Paste) (roundrect_rratio 0.25))
  (pad 3 smd roundrect (at -2.8625 -1.625) (size 1.575 0.4) (layers F.Cu F.Mask F.Paste) (roundrect_rratio 0.25))
  (pad 4 smd roundrect (at -2.8625 -0.975) (size 1.575 0.4) (layers F.Cu F.Mask F.Paste) (roundrect_rratio 0.25))
  (pad 5 smd roundrect (at -2.8625 -0.325) (size 1.575 0.4) (layers F.Cu F.Mask F.Paste) (roundrect_rratio 0.25))
  (pad 6 smd roundrect (at -2.8625 0.325) (size 1.575 0.4) (layers F.Cu F.Mask F.Paste) (roundrect_rratio 0.25))
  (pad 7 smd roundrect (at -2.8625 0.975) (size 1.575 0.4) (layers F.Cu F.Mask F.Paste) (roundrect_rratio 0.25))
  (pad 8 smd roundrect (at -2.8625 1.625) (size 1.575 0.4) (layers F.Cu F.Mask F.Paste) (roundrect_rratio 0.25))
  (pad 9 smd roundrect (at -2.8625 2.275) (size 1.575 0.4) (layers F.Cu F.Mask F.Paste) (roundrect_rratio 0.25))
  (pad 10 smd roundrect (at -2.8625 2.925) (size 1.575 0.4) (layers F.Cu F.Mask F.Paste) (roundrect_rratio 0.25))
  (pad 11 smd roundrect (at 2.8625 2.925) (size 1.575 0.4) (layers F.Cu F.Mask F.Paste) (roundrect_rratio 0.25))
  (pad 12 smd roundrect (at 2.8625 2.275) (size 1.575 0.4) (layers F.Cu F.Mask F.Paste) (roundrect_rratio 0.25))
  (pad 13 smd roundrect (at 2.8625 1.625) (size 1.575 0.4) (layers F.Cu F.Mask F.Paste) (roundrect_rratio 0.25))
  (pad 14 smd roundrect (at 2.8625 0.975) (size 1.575 0.4) (layers F.Cu F.Mask F.Paste) (roundrect_rratio 0.25))
  (pad 15 smd roundrect (at 2.8625 0.325) (size 1.575 0.4) (layers F.Cu F.Mask F.Paste) (roundrect_rratio 0.25))
  (pad 16 smd roundrect (at 2.8625 -0.325) (size 1.575 0.4) (layers F.Cu F.Mask F.Paste) (roundrect_rratio 0.25))
  (pad 17 smd roundrect (at 2.8625 -0.975) (size 1.575 0.4) (layers F.Cu F.Mask F.Paste) (roundrect_rratio 0.25))
  (pad 18 smd roundrect (at 2.8625 -1.625) (size 1.575 0.4) (layers F.Cu F.Mask F.Paste) (roundrect_rratio 0.25))
  (pad 19 smd roundrect (at 2.8625 -2.275) (size 1.575 0.4) (layers F.Cu F.Mask F.Paste) (roundrect_rratio 0.25))
  (pad 20 smd roundrect (at 2.8625 -2.925) (size 1.575 0.4) (layers F.Cu F.Mask F.Paste) (roundrect_rratio 0.25))
  (pad "" smd rect (at 0 0) (size 2.4 3.7) (layers F.Mask))
  (pad 21 smd rect (at 0 0) (size 3.4 6.5) (property pad_prop_heatsink) (layers F.Cu)
    (zone_connect 2))
  (pad "" smd roundrect (at 0 -0.925) (size 1.93 1.49) (layers F.Paste) (roundrect_rratio 0.167785))
  (pad "" smd roundrect (at 0 0.925) (size 1.93 1.49) (layers F.Paste) (roundrect_rratio 0.167785))
  (fp_poly (pts (xy -2.925 -3.385) (xy -3.105 -3.637) (xy -2.745 -3.637) (xy -2.925 -3.385))
    (stroke (width 0.12) (type solid)) (fill solid) (layer F.SilkS))
  (fp_text user ${REFERENCE} (at 0 0) (layer F.Fab)
    (effects (font (size 1 1) (thickness 0.15)))
  )
  (model ${KICAD7_3DMODEL_DIR}/Package_SO.3dshapes/HTSSOP-20-1EP_4.4x6.5mm_P0.65mm_EP3.4x6.5mm_Mask2.4x3.7mm.wrl
    (offset (xyz 0 0 0))
    (scale (xyz 1 1 1))
    (rotate (xyz 0 0 0))
  )
)
