(footprint SO-20-1EP_7.52x12.825mm_P1.27mm_EP6.045x12.09mm_Mask3.56x4.47mm_ThermalVias (version 20221018) (generator kicad-footprint-generator)
  (layer F.Cu)
  (descr "SO, 20 Pin (http://www.ti.com/lit/ds/symlink/opa569.pdf, http://www.ti.com/lit/an/slma004b/slma004b.pdf), generated with kicad-footprint-generator ipc_gullwing_generator.py")
  (tags "SO SO")
  (attr smd)
  (fp_text reference REF** (at 0 -7.36) (layer F.SilkS)
    (effects (font (size 1 1) (thickness 0.15)))
  )
  (fp_text value SO-20-1EP_7.52x12.825mm_P1.27mm_EP6.045x12.09mm_Mask3.56x4.47mm_ThermalVias (at 0 7.36) (layer F.Fab)
    (effects (font (size 1 1) (thickness 0.15)))
  )
  (fp_line (start -5.93 -6.66) (end -5.93 6.66)
    (stroke (width 0.05) (type solid)) (layer F.CrtYd))
  (fp_line (start -5.93 6.66) (end 5.93 6.66)
    (stroke (width 0.05) (type solid)) (layer F.CrtYd))
  (fp_line (start 5.93 6.66) (end 5.93 -6.66)
    (stroke (width 0.05) (type solid)) (layer F.CrtYd))
  (fp_line (start 5.93 -6.66) (end -5.93 -6.66)
    (stroke (width 0.05) (type solid)) (layer F.CrtYd))
  (fp_line (start 0 6.5225) (end 3.87 6.5225)
    (stroke (width 0.12) (type solid)) (layer F.SilkS))
  (fp_line (start 3.87 6.5225) (end 3.87 6.275)
    (stroke (width 0.12) (type solid)) (layer F.SilkS))
  (fp_line (start 0 6.5225) (end -3.87 6.5225)
    (stroke (width 0.12) (type solid)) (layer F.SilkS))
  (fp_line (start -3.87 6.5225) (end -3.87 6.275)
    (stroke (width 0.12) (type solid)) (layer F.SilkS))
  (fp_line (start 0 -6.5225) (end 3.87 -6.5225)
    (stroke (width 0.12) (type solid)) (layer F.SilkS))
  (fp_line (start 3.87 -6.5225) (end 3.87 -6.275)
    (stroke (width 0.12) (type solid)) (layer F.SilkS))
  (fp_line (start 0 -6.5225) (end -3.87 -6.5225)
    (stroke (width 0.12) (type solid)) (layer F.SilkS))
  (fp_line (start -3.87 -6.5225) (end -3.87 -6.275)
    (stroke (width 0.12) (type solid)) (layer F.SilkS))
  (fp_line (start -2.76 -6.4125) (end 3.76 -6.4125)
    (stroke (width 0.1) (type solid)) (layer F.Fab))
  (fp_line (start 3.76 -6.4125) (end 3.76 6.4125)
    (stroke (width 0.1) (type solid)) (layer F.Fab))
  (fp_line (start 3.76 6.4125) (end -3.76 6.4125)
    (stroke (width 0.1) (type solid)) (layer F.Fab))
  (fp_line (start -3.76 6.4125) (end -3.76 -5.4125)
    (stroke (width 0.1) (type solid)) (layer F.Fab))
  (fp_line (start -3.76 -5.4125) (end -2.76 -6.4125)
    (stroke (width 0.1) (type solid)) (layer F.Fab))
  (pad 1 smd roundrect (at -4.675 -5.715) (size 2 0.6) (layers F.Cu F.Mask F.Paste) (roundrect_rratio 0.25))
  (pad 2 smd roundrect (at -4.675 -4.445) (size 2 0.6) (layers F.Cu F.Mask F.Paste) (roundrect_rratio 0.25))
  (pad 3 smd roundrect (at -4.675 -3.175) (size 2 0.6) (layers F.Cu F.Mask F.Paste) (roundrect_rratio 0.25))
  (pad 4 smd roundrect (at -4.675 -1.905) (size 2 0.6) (layers F.Cu F.Mask F.Paste) (roundrect_rratio 0.25))
  (pad 5 smd roundrect (at -4.675 -0.635) (size 2 0.6) (layers F.Cu F.Mask F.Paste) (roundrect_rratio 0.25))
  (pad 6 smd roundrect (at -4.675 0.635) (size 2 0.6) (layers F.Cu F.Mask F.Paste) (roundrect_rratio 0.25))
  (pad 7 smd roundrect (at -4.675 1.905) (size 2 0.6) (layers F.Cu F.Mask F.Paste) (roundrect_rratio 0.25))
  (pad 8 smd roundrect (at -4.675 3.175) (size 2 0.6) (layers F.Cu F.Mask F.Paste) (roundrect_rratio 0.25))
  (pad 9 smd roundrect (at -4.675 4.445) (size 2 0.6) (layers F.Cu F.Mask F.Paste) (roundrect_rratio 0.25))
  (pad 10 smd roundrect (at -4.675 5.715) (size 2 0.6) (layers F.Cu F.Mask F.Paste) (roundrect_rratio 0.25))
  (pad 11 smd roundrect (at 4.675 5.715) (size 2 0.6) (layers F.Cu F.Mask F.Paste) (roundrect_rratio 0.25))
  (pad 12 smd roundrect (at 4.675 4.445) (size 2 0.6) (layers F.Cu F.Mask F.Paste) (roundrect_rratio 0.25))
  (pad 13 smd roundrect (at 4.675 3.175) (size 2 0.6) (layers F.Cu F.Mask F.Paste) (roundrect_rratio 0.25))
  (pad 14 smd roundrect (at 4.675 1.905) (size 2 0.6) (layers F.Cu F.Mask F.Paste) (roundrect_rratio 0.25))
  (pad 15 smd roundrect (at 4.675 0.635) (size 2 0.6) (layers F.Cu F.Mask F.Paste) (roundrect_rratio 0.25))
  (pad 16 smd roundrect (at 4.675 -0.635) (size 2 0.6) (layers F.Cu F.Mask F.Paste) (roundrect_rratio 0.25))
  (pad 17 smd roundrect (at 4.675 -1.905) (size 2 0.6) (layers F.Cu F.Mask F.Paste) (roundrect_rratio 0.25))
  (pad 18 smd roundrect (at 4.675 -3.175) (size 2 0.6) (layers F.Cu F.Mask F.Paste) (roundrect_rratio 0.25))
  (pad 19 smd roundrect (at 4.675 -4.445) (size 2 0.6) (layers F.Cu F.Mask F.Paste) (roundrect_rratio 0.25))
  (pad 20 smd roundrect (at 4.675 -5.715) (size 2 0.6) (layers F.Cu F.Mask F.Paste) (roundrect_rratio 0.25))
  (pad "" smd rect (at 0 0) (size 3.56 4.47) (layers F.Mask))
  (pad 21 smd rect (at 0 0) (size 6.045 12.09) (property pad_prop_heatsink) (layers F.Cu)
    (zone_connect 2))
  (pad 21 thru_hole circle (at -0.66 -1.7325) (size 0.49 0.49) (drill 0.33) (property pad_prop_heatsink) (layers *.Cu))
  (pad 21 thru_hole circle (at 0 -1.7325) (size 0.49 0.49) (drill 0.33) (property pad_prop_heatsink) (layers *.Cu))
  (pad 21 thru_hole circle (at 0.66 -1.7325) (size 0.49 0.49) (drill 0.33) (property pad_prop_heatsink) (layers *.Cu))
  (pad 21 thru_hole circle (at -0.66 -1.2375) (size 0.49 0.49) (drill 0.33) (property pad_prop_heatsink) (layers *.Cu))
  (pad 21 thru_hole circle (at 0 -1.2375) (size 0.49 0.49) (drill 0.33) (property pad_prop_heatsink) (layers *.Cu))
  (pad 21 thru_hole circle (at 0.66 -1.2375) (size 0.49 0.49) (drill 0.33) (property pad_prop_heatsink) (layers *.Cu))
  (pad 21 thru_hole circle (at -0.66 -0.7425) (size 0.49 0.49) (drill 0.33) (property pad_prop_heatsink) (layers *.Cu))
  (pad 21 thru_hole circle (at 0 -0.7425) (size 0.49 0.49) (drill 0.33) (property pad_prop_heatsink) (layers *.Cu))
  (pad 21 thru_hole circle (at 0.66 -0.7425) (size 0.49 0.49) (drill 0.33) (property pad_prop_heatsink) (layers *.Cu))
  (pad 21 thru_hole circle (at -0.66 -0.2475) (size 0.49 0.49) (drill 0.33) (property pad_prop_heatsink) (layers *.Cu))
  (pad 21 thru_hole circle (at 0 -0.2475) (size 0.49 0.49) (drill 0.33) (property pad_prop_heatsink) (layers *.Cu))
  (pad 21 thru_hole circle (at 0.66 -0.2475) (size 0.49 0.49) (drill 0.33) (property pad_prop_heatsink) (layers *.Cu))
  (pad 21 thru_hole circle (at -0.66 0.2475) (size 0.49 0.49) (drill 0.33) (property pad_prop_heatsink) (layers *.Cu))
  (pad 21 thru_hole circle (at 0 0.2475) (size 0.49 0.49) (drill 0.33) (property pad_prop_heatsink) (layers *.Cu))
  (pad 21 thru_hole circle (at 0.66 0.2475) (size 0.49 0.49) (drill 0.33) (property pad_prop_heatsink) (layers *.Cu))
  (pad 21 thru_hole circle (at -0.66 0.7425) (size 0.49 0.49) (drill 0.33) (property pad_prop_heatsink) (layers *.Cu))
  (pad 21 thru_hole circle (at 0 0.7425) (size 0.49 0.49) (drill 0.33) (property pad_prop_heatsink) (layers *.Cu))
  (pad 21 thru_hole circle (at 0.66 0.7425) (size 0.49 0.49) (drill 0.33) (property pad_prop_heatsink) (layers *.Cu))
  (pad 21 thru_hole circle (at -0.66 1.2375) (size 0.49 0.49) (drill 0.33) (property pad_prop_heatsink) (layers *.Cu))
  (pad 21 thru_hole circle (at 0 1.2375) (size 0.49 0.49) (drill 0.33) (property pad_prop_heatsink) (layers *.Cu))
  (pad 21 thru_hole circle (at 0.66 1.2375) (size 0.49 0.49) (drill 0.33) (property pad_prop_heatsink) (layers *.Cu))
  (pad 21 thru_hole circle (at -0.66 1.7325) (size 0.49 0.49) (drill 0.33) (property pad_prop_heatsink) (layers *.Cu))
  (pad 21 thru_hole circle (at 0 1.7325) (size 0.49 0.49) (drill 0.33) (property pad_prop_heatsink) (layers *.Cu))
  (pad 21 thru_hole circle (at 0.66 1.7325) (size 0.49 0.49) (drill 0.33) (property pad_prop_heatsink) (layers *.Cu))
  (pad 21 smd rect (at 0 0) (size 1.81 3.955) (property pad_prop_heatsink) (layers B.Cu)
    (zone_connect 2))
  (pad "" smd roundrect (at -0.89 -1.115) (size 1.54 1.94) (layers F.Paste) (roundrect_rratio 0.162338))
  (pad "" smd roundrect (at -0.89 1.115) (size 1.54 1.94) (layers F.Paste) (roundrect_rratio 0.162338))
  (pad "" smd roundrect (at 0.89 -1.115) (size 1.54 1.94) (layers F.Paste) (roundrect_rratio 0.162338))
  (pad "" smd roundrect (at 0.89 1.115) (size 1.54 1.94) (layers F.Paste) (roundrect_rratio 0.162338))
  (fp_poly (pts (xy -4.7175 -6.275) (xy -4.9575 -6.611) (xy -4.4775 -6.611) (xy -4.7175 -6.275))
    (stroke (width 0.12) (type solid)) (fill solid) (layer F.SilkS))
  (fp_text user ${REFERENCE} (at 0 0) (layer F.Fab)
    (effects (font (size 1 1) (thickness 0.15)))
  )
  (model ${KICAD7_3DMODEL_DIR}/Package_SO.3dshapes/SO-20-1EP_7.52x12.825mm_P1.27mm_EP6.045x12.09mm_Mask3.56x4.47mm.wrl
    (offset (xyz 0 0 0))
    (scale (xyz 1 1 1))
    (rotate (xyz 0 0 0))
  )
)
