(footprint SOIC-8_5.23x5.23mm_P1.27mm (version 20221018) (generator kicad-footprint-generator)
  (layer F.Cu)
  (descr "SOIC, 8 Pin (http://www.winbond.com/resource-files/w25q32jv%20revg%2003272018%20plus.pdf#page=68), generated with kicad-footprint-generator ipc_gullwing_generator.py")
  (tags "SOIC SO")
  (attr smd)
  (fp_text reference REF** (at 0 -3.56) (layer F.SilkS)
    (effects (font (size 1 1) (thickness 0.15)))
  )
  (fp_text value SOIC-8_5.23x5.23mm_P1.27mm (at 0 3.56) (layer F.Fab)
    (effects (font (size 1 1) (thickness 0.15)))
  )
  (fp_line (start -4.65 -2.86) (end -4.65 2.86)
    (stroke (width 0.05) (type solid)) (layer F.CrtYd))
  (fp_line (start -4.65 2.86) (end 4.65 2.86)
    (stroke (width 0.05) (type solid)) (layer F.CrtYd))
  (fp_line (start 4.65 2.86) (end 4.65 -2.86)
    (stroke (width 0.05) (type solid)) (layer F.CrtYd))
  (fp_line (start 4.65 -2.86) (end -4.65 -2.86)
    (stroke (width 0.05) (type solid)) (layer F.CrtYd))
  (fp_line (start 0 2.725) (end 2.725 2.725)
    (stroke (width 0.12) (type solid)) (layer F.SilkS))
  (fp_line (start 2.725 2.725) (end 2.725 2.465)
    (stroke (width 0.12) (type solid)) (layer F.SilkS))
  (fp_line (start 0 2.725) (end -2.725 2.725)
    (stroke (width 0.12) (type solid)) (layer F.SilkS))
  (fp_line (start -2.725 2.725) (end -2.725 2.465)
    (stroke (width 0.12) (type solid)) (layer F.SilkS))
  (fp_line (start 0 -2.725) (end 2.725 -2.725)
    (stroke (width 0.12) (type solid)) (layer F.SilkS))
  (fp_line (start 2.725 -2.725) (end 2.725 -2.465)
    (stroke (width 0.12) (type solid)) (layer F.SilkS))
  (fp_line (start 0 -2.725) (end -2.725 -2.725)
    (stroke (width 0.12) (type solid)) (layer F.SilkS))
  (fp_line (start -2.725 -2.725) (end -2.725 -2.465)
    (stroke (width 0.12) (type solid)) (layer F.SilkS))
  (fp_line (start -1.615 -2.615) (end 2.615 -2.615)
    (stroke (width 0.1) (type solid)) (layer F.Fab))
  (fp_line (start 2.615 -2.615) (end 2.615 2.615)
    (stroke (width 0.1) (type solid)) (layer F.Fab))
  (fp_line (start 2.615 2.615) (end -2.615 2.615)
    (stroke (width 0.1) (type solid)) (layer F.Fab))
  (fp_line (start -2.615 2.615) (end -2.615 -1.615)
    (stroke (width 0.1) (type solid)) (layer F.Fab))
  (fp_line (start -2.615 -1.615) (end -1.615 -2.615)
    (stroke (width 0.1) (type solid)) (layer F.Fab))
  (pad 1 smd roundrect (at -3.6 -1.905) (size 1.6 0.6) (layers F.Cu F.Mask F.Paste) (roundrect_rratio 0.25))
  (pad 2 smd roundrect (at -3.6 -0.635) (size 1.6 0.6) (layers F.Cu F.Mask F.Paste) (roundrect_rratio 0.25))
  (pad 3 smd roundrect (at -3.6 0.635) (size 1.6 0.6) (layers F.Cu F.Mask F.Paste) (roundrect_rratio 0.25))
  (pad 4 smd roundrect (at -3.6 1.905) (size 1.6 0.6) (layers F.Cu F.Mask F.Paste) (roundrect_rratio 0.25))
  (pad 5 smd roundrect (at 3.6 1.905) (size 1.6 0.6) (layers F.Cu F.Mask F.Paste) (roundrect_rratio 0.25))
  (pad 6 smd roundrect (at 3.6 0.635) (size 1.6 0.6) (layers F.Cu F.Mask F.Paste) (roundrect_rratio 0.25))
  (pad 7 smd roundrect (at 3.6 -0.635) (size 1.6 0.6) (layers F.Cu F.Mask F.Paste) (roundrect_rratio 0.25))
  (pad 8 smd roundrect (at 3.6 -1.905) (size 1.6 0.6) (layers F.Cu F.Mask F.Paste) (roundrect_rratio 0.25))
  (fp_poly (pts (xy -3.5075 -2.465) (xy -3.7475 -2.801) (xy -3.2675 -2.801) (xy -3.5075 -2.465))
    (stroke (width 0.12) (type solid)) (fill solid) (layer F.SilkS))
  (fp_text user ${REFERENCE} (at 0 0) (layer F.Fab)
    (effects (font (size 1 1) (thickness 0.15)))
  )
  (model ${KICAD7_3DMODEL_DIR}/Package_SO.3dshapes/SOIC-8_5.23x5.23mm_P1.27mm.wrl
    (offset (xyz 0 0 0))
    (scale (xyz 1 1 1))
    (rotate (xyz 0 0 0))
  )
)
