(footprint SOIC-20W_7.5x15.4mm_P1.27mm (version 20221018) (generator kicad-footprint-generator)
  (layer F.Cu)
  (descr "SOIC, 20 Pin (JEDEC MS-013AD, https://www.analog.com/media/en/package-pcb-resources/package/pkg_pdf/soic_wide-rw/RI_20_1.pdf), generated with kicad-footprint-generator ipc_gullwing_generator.py")
  (tags "SOIC SO")
  (attr smd)
  (fp_text reference REF** (at 0 -8.65) (layer F.SilkS)
    (effects (font (size 1 1) (thickness 0.15)))
  )
  (fp_text value SOIC-20W_7.5x15.4mm_P1.27mm (at 0 8.65) (layer F.Fab)
    (effects (font (size 1 1) (thickness 0.15)))
  )
  (fp_line (start -5.88 -7.95) (end -5.88 7.95)
    (stroke (width 0.05) (type solid)) (layer F.CrtYd))
  (fp_line (start -5.88 7.95) (end 5.88 7.95)
    (stroke (width 0.05) (type solid)) (layer F.CrtYd))
  (fp_line (start 5.88 7.95) (end 5.88 -7.95)
    (stroke (width 0.05) (type solid)) (layer F.CrtYd))
  (fp_line (start 5.88 -7.95) (end -5.88 -7.95)
    (stroke (width 0.05) (type solid)) (layer F.CrtYd))
  (fp_line (start 0 7.8125) (end 3.855 7.8125)
    (stroke (width 0.12) (type solid)) (layer F.SilkS))
  (fp_line (start 3.855 7.8125) (end 3.855 6.275)
    (stroke (width 0.12) (type solid)) (layer F.SilkS))
  (fp_line (start 0 7.8125) (end -3.855 7.8125)
    (stroke (width 0.12) (type solid)) (layer F.SilkS))
  (fp_line (start -3.855 7.8125) (end -3.855 6.275)
    (stroke (width 0.12) (type solid)) (layer F.SilkS))
  (fp_line (start 0 -7.8125) (end 3.855 -7.8125)
    (stroke (width 0.12) (type solid)) (layer F.SilkS))
  (fp_line (start 3.855 -7.8125) (end 3.855 -6.275)
    (stroke (width 0.12) (type solid)) (layer F.SilkS))
  (fp_line (start 0 -7.8125) (end -3.855 -7.8125)
    (stroke (width 0.12) (type solid)) (layer F.SilkS))
  (fp_line (start -3.855 -7.8125) (end -3.855 -6.275)
    (stroke (width 0.12) (type solid)) (layer F.SilkS))
  (fp_line (start -2.745 -7.7025) (end 3.745 -7.7025)
    (stroke (width 0.1) (type solid)) (layer F.Fab))
  (fp_line (start 3.745 -7.7025) (end 3.745 7.7025)
    (stroke (width 0.1) (type solid)) (layer F.Fab))
  (fp_line (start 3.745 7.7025) (end -3.745 7.7025)
    (stroke (width 0.1) (type solid)) (layer F.Fab))
  (fp_line (start -3.745 7.7025) (end -3.745 -6.7025)
    (stroke (width 0.1) (type solid)) (layer F.Fab))
  (fp_line (start -3.745 -6.7025) (end -2.745 -7.7025)
    (stroke (width 0.1) (type solid)) (layer F.Fab))
  (pad 1 smd roundrect (at -4.625 -5.715) (size 2 0.6) (layers F.Cu F.Mask F.Paste) (roundrect_rratio 0.25))
  (pad 2 smd roundrect (at -4.625 -4.445) (size 2 0.6) (layers F.Cu F.Mask F.Paste) (roundrect_rratio 0.25))
  (pad 3 smd roundrect (at -4.625 -3.175) (size 2 0.6) (layers F.Cu F.Mask F.Paste) (roundrect_rratio 0.25))
  (pad 4 smd roundrect (at -4.625 -1.905) (size 2 0.6) (layers F.Cu F.Mask F.Paste) (roundrect_rratio 0.25))
  (pad 5 smd roundrect (at -4.625 -0.635) (size 2 0.6) (layers F.Cu F.Mask F.Paste) (roundrect_rratio 0.25))
  (pad 6 smd roundrect (at -4.625 0.635) (size 2 0.6) (layers F.Cu F.Mask F.Paste) (roundrect_rratio 0.25))
  (pad 7 smd roundrect (at -4.625 1.905) (size 2 0.6) (layers F.Cu F.Mask F.Paste) (roundrect_rratio 0.25))
  (pad 8 smd roundrect (at -4.625 3.175) (size 2 0.6) (layers F.Cu F.Mask F.Paste) (roundrect_rratio 0.25))
  (pad 9 smd roundrect (at -4.625 4.445) (size 2 0.6) (layers F.Cu F.Mask F.Paste) (roundrect_rratio 0.25))
  (pad 10 smd roundrect (at -4.625 5.715) (size 2 0.6) (layers F.Cu F.Mask F.Paste) (roundrect_rratio 0.25))
  (pad 11 smd roundrect (at 4.625 5.715) (size 2 0.6) (layers F.Cu F.Mask F.Paste) (roundrect_rratio 0.25))
  (pad 12 smd roundrect (at 4.625 4.445) (size 2 0.6) (layers F.Cu F.Mask F.Paste) (roundrect_rratio 0.25))
  (pad 13 smd roundrect (at 4.625 3.175) (size 2 0.6) (layers F.Cu F.Mask F.Paste) (roundrect_rratio 0.25))
  (pad 14 smd roundrect (at 4.625 1.905) (size 2 0.6) (layers F.Cu F.Mask F.Paste) (roundrect_rratio 0.25))
  (pad 15 smd roundrect (at 4.625 0.635) (size 2 0.6) (layers F.Cu F.Mask F.Paste) (roundrect_rratio 0.25))
  (pad 16 smd roundrect (at 4.625 -0.635) (size 2 0.6) (layers F.Cu F.Mask F.Paste) (roundrect_rratio 0.25))
  (pad 17 smd roundrect (at 4.625 -1.905) (size 2 0.6) (layers F.Cu F.Mask F.Paste) (roundrect_rratio 0.25))
  (pad 18 smd roundrect (at 4.625 -3.175) (size 2 0.6) (layers F.Cu F.Mask F.Paste) (roundrect_rratio 0.25))
  (pad 19 smd roundrect (at 4.625 -4.445) (size 2 0.6) (layers F.Cu F.Mask F.Paste) (roundrect_rratio 0.25))
  (pad 20 smd roundrect (at 4.625 -5.715) (size 2 0.6) (layers F.Cu F.Mask F.Paste) (roundrect_rratio 0.25))
  (fp_poly (pts (xy -4.685 -6.275) (xy -4.925 -6.611) (xy -4.445 -6.611) (xy -4.685 -6.275))
    (stroke (width 0.12) (type solid)) (fill solid) (layer F.SilkS))
  (fp_text user ${REFERENCE} (at 0 0) (layer F.Fab)
    (effects (font (size 1 1) (thickness 0.15)))
  )
  (model ${KICAD7_3DMODEL_DIR}/Package_SO.3dshapes/SOIC-20W_7.5x15.4mm_P1.27mm.wrl
    (offset (xyz 0 0 0))
    (scale (xyz 1 1 1))
    (rotate (xyz 0 0 0))
  )
)
