(footprint SOP-16_4.4x10.4mm_P1.27mm (version 20221018) (generator kicad-footprint-generator)
  (layer F.Cu)
  (descr "SOP, 16 Pin (https://www.vishay.com/docs/83513/tcmd1000.pdf), generated with kicad-footprint-generator ipc_gullwing_generator.py")
  (tags "SOP SO")
  (attr smd)
  (fp_text reference REF** (at 0 -6.15) (layer F.SilkS)
    (effects (font (size 1 1) (thickness 0.15)))
  )
  (fp_text value SOP-16_4.4x10.4mm_P1.27mm (at 0 6.15) (layer F.Fab)
    (effects (font (size 1 1) (thickness 0.15)))
  )
  (fp_line (start -4.25 -5.45) (end -4.25 5.45)
    (stroke (width 0.05) (type solid)) (layer F.CrtYd))
  (fp_line (start -4.25 5.45) (end 4.25 5.45)
    (stroke (width 0.05) (type solid)) (layer F.CrtYd))
  (fp_line (start 4.25 5.45) (end 4.25 -5.45)
    (stroke (width 0.05) (type solid)) (layer F.CrtYd))
  (fp_line (start 4.25 -5.45) (end -4.25 -5.45)
    (stroke (width 0.05) (type solid)) (layer F.CrtYd))
  (fp_line (start 0 5.31) (end 2.31 5.31)
    (stroke (width 0.12) (type solid)) (layer F.SilkS))
  (fp_line (start 2.31 5.31) (end 2.31 5.03)
    (stroke (width 0.12) (type solid)) (layer F.SilkS))
  (fp_line (start 0 5.31) (end -2.31 5.31)
    (stroke (width 0.12) (type solid)) (layer F.SilkS))
  (fp_line (start -2.31 5.31) (end -2.31 5.03)
    (stroke (width 0.12) (type solid)) (layer F.SilkS))
  (fp_line (start 0 -5.31) (end 2.31 -5.31)
    (stroke (width 0.12) (type solid)) (layer F.SilkS))
  (fp_line (start 2.31 -5.31) (end 2.31 -5.03)
    (stroke (width 0.12) (type solid)) (layer F.SilkS))
  (fp_line (start 0 -5.31) (end -2.31 -5.31)
    (stroke (width 0.12) (type solid)) (layer F.SilkS))
  (fp_line (start -2.31 -5.31) (end -2.31 -5.03)
    (stroke (width 0.12) (type solid)) (layer F.SilkS))
  (fp_line (start -1.2 -5.2) (end 2.2 -5.2)
    (stroke (width 0.1) (type solid)) (layer F.Fab))
  (fp_line (start 2.2 -5.2) (end 2.2 5.2)
    (stroke (width 0.1) (type solid)) (layer F.Fab))
  (fp_line (start 2.2 5.2) (end -2.2 5.2)
    (stroke (width 0.1) (type solid)) (layer F.Fab))
  (fp_line (start -2.2 5.2) (end -2.2 -4.2)
    (stroke (width 0.1) (type solid)) (layer F.Fab))
  (fp_line (start -2.2 -4.2) (end -1.2 -5.2)
    (stroke (width 0.1) (type solid)) (layer F.Fab))
  (pad 1 smd roundrect (at -3.0875 -4.445) (size 1.825 0.65) (layers F.Cu F.Mask F.Paste) (roundrect_rratio 0.25))
  (pad 2 smd roundrect (at -3.0875 -3.175) (size 1.825 0.65) (layers F.Cu F.Mask F.Paste) (roundrect_rratio 0.25))
  (pad 3 smd roundrect (at -3.0875 -1.905) (size 1.825 0.65) (layers F.Cu F.Mask F.Paste) (roundrect_rratio 0.25))
  (pad 4 smd roundrect (at -3.0875 -0.635) (size 1.825 0.65) (layers F.Cu F.Mask F.Paste) (roundrect_rratio 0.25))
  (pad 5 smd roundrect (at -3.0875 0.635) (size 1.825 0.65) (layers F.Cu F.Mask F.Paste) (roundrect_rratio 0.25))
  (pad 6 smd roundrect (at -3.0875 1.905) (size 1.825 0.65) (layers F.Cu F.Mask F.Paste) (roundrect_rratio 0.25))
  (pad 7 smd roundrect (at -3.0875 3.175) (size 1.825 0.65) (layers F.Cu F.Mask F.Paste) (roundrect_rratio 0.25))
  (pad 8 smd roundrect (at -3.0875 4.445) (size 1.825 0.65) (layers F.Cu F.Mask F.Paste) (roundrect_rratio 0.25))
  (pad 9 smd roundrect (at 3.0875 4.445) (size 1.825 0.65) (layers F.Cu F.Mask F.Paste) (roundrect_rratio 0.25))
  (pad 10 smd roundrect (at 3.0875 3.175) (size 1.825 0.65) (layers F.Cu F.Mask F.Paste) (roundrect_rratio 0.25))
  (pad 11 smd roundrect (at 3.0875 1.905) (size 1.825 0.65) (layers F.Cu F.Mask F.Paste) (roundrect_rratio 0.25))
  (pad 12 smd roundrect (at 3.0875 0.635) (size 1.825 0.65) (layers F.Cu F.Mask F.Paste) (roundrect_rratio 0.25))
  (pad 13 smd roundrect (at 3.0875 -0.635) (size 1.825 0.65) (layers F.Cu F.Mask F.Paste) (roundrect_rratio 0.25))
  (pad 14 smd roundrect (at 3.0875 -1.905) (size 1.825 0.65) (layers F.Cu F.Mask F.Paste) (roundrect_rratio 0.25))
  (pad 15 smd roundrect (at 3.0875 -3.175) (size 1.825 0.65) (layers F.Cu F.Mask F.Paste) (roundrect_rratio 0.25))
  (pad 16 smd roundrect (at 3.0875 -4.445) (size 1.825 0.65) (layers F.Cu F.Mask F.Paste) (roundrect_rratio 0.25))
  (fp_poly (pts (xy -3.1 -5.03) (xy -3.365 -5.401) (xy -2.835 -5.401) (xy -3.1 -5.03))
    (stroke (width 0.12) (type solid)) (fill solid) (layer F.SilkS))
  (fp_text user ${REFERENCE} (at 0 0) (layer F.Fab)
    (effects (font (size 1 1) (thickness 0.15)))
  )
  (model ${KICAD7_3DMODEL_DIR}/Package_SO.3dshapes/SOP-16_4.4x10.4mm_P1.27mm.wrl
    (offset (xyz 0 0 0))
    (scale (xyz 1 1 1))
    (rotate (xyz 0 0 0))
  )
)
