(footprint TSOP-I-32_11.8x8mm_P0.5mm (version 20221018) (generator kicad-footprint-generator)
  (layer F.Cu)
  (descr "TSOP-I, 32 Pin (http://www.issi.com/WW/pdf/61-64C5128AL.pdf), generated with kicad-footprint-generator ipc_gullwing_generator.py")
  (tags "TSOP-I SO")
  (attr smd)
  (fp_text reference REF** (at 0 -4.95) (layer F.SilkS)
    (effects (font (size 1 1) (thickness 0.15)))
  )
  (fp_text value TSOP-I-32_11.8x8mm_P0.5mm (at 0 4.95) (layer F.Fab)
    (effects (font (size 1 1) (thickness 0.15)))
  )
  (fp_line (start -7.45 -4.25) (end -7.45 4.25)
    (stroke (width 0.05) (type solid)) (layer F.CrtYd))
  (fp_line (start -7.45 4.25) (end 7.45 4.25)
    (stroke (width 0.05) (type solid)) (layer F.CrtYd))
  (fp_line (start 7.45 4.25) (end 7.45 -4.25)
    (stroke (width 0.05) (type solid)) (layer F.CrtYd))
  (fp_line (start 7.45 -4.25) (end -7.45 -4.25)
    (stroke (width 0.05) (type solid)) (layer F.CrtYd))
  (fp_line (start 0 4.16) (end 5.9 4.16)
    (stroke (width 0.12) (type solid)) (layer F.SilkS))
  (fp_line (start 0 4.16) (end -5.9 4.16)
    (stroke (width 0.12) (type solid)) (layer F.SilkS))
  (fp_line (start 0 -4.16) (end 5.9 -4.16)
    (stroke (width 0.12) (type solid)) (layer F.SilkS))
  (fp_line (start 0 -4.16) (end -5.9 -4.16)
    (stroke (width 0.12) (type solid)) (layer F.SilkS))
  (fp_line (start -4.9 -4) (end 5.9 -4)
    (stroke (width 0.1) (type solid)) (layer F.Fab))
  (fp_line (start 5.9 -4) (end 5.9 4)
    (stroke (width 0.1) (type solid)) (layer F.Fab))
  (fp_line (start 5.9 4) (end -5.9 4)
    (stroke (width 0.1) (type solid)) (layer F.Fab))
  (fp_line (start -5.9 4) (end -5.9 -3)
    (stroke (width 0.1) (type solid)) (layer F.Fab))
  (fp_line (start -5.9 -3) (end -4.9 -4)
    (stroke (width 0.1) (type solid)) (layer F.Fab))
  (pad 1 smd roundrect (at -6.425 -3.75) (size 1.55 0.3) (layers F.Cu F.Mask F.Paste) (roundrect_rratio 0.25))
  (pad 2 smd roundrect (at -6.425 -3.25) (size 1.55 0.3) (layers F.Cu F.Mask F.Paste) (roundrect_rratio 0.25))
  (pad 3 smd roundrect (at -6.425 -2.75) (size 1.55 0.3) (layers F.Cu F.Mask F.Paste) (roundrect_rratio 0.25))
  (pad 4 smd roundrect (at -6.425 -2.25) (size 1.55 0.3) (layers F.Cu F.Mask F.Paste) (roundrect_rratio 0.25))
  (pad 5 smd roundrect (at -6.425 -1.75) (size 1.55 0.3) (layers F.Cu F.Mask F.Paste) (roundrect_rratio 0.25))
  (pad 6 smd roundrect (at -6.425 -1.25) (size 1.55 0.3) (layers F.Cu F.Mask F.Paste) (roundrect_rratio 0.25))
  (pad 7 smd roundrect (at -6.425 -0.75) (size 1.55 0.3) (layers F.Cu F.Mask F.Paste) (roundrect_rratio 0.25))
  (pad 8 smd roundrect (at -6.425 -0.25) (size 1.55 0.3) (layers F.Cu F.Mask F.Paste) (roundrect_rratio 0.25))
  (pad 9 smd roundrect (at -6.425 0.25) (size 1.55 0.3) (layers F.Cu F.Mask F.Paste) (roundrect_rratio 0.25))
  (pad 10 smd roundrect (at -6.425 0.75) (size 1.55 0.3) (layers F.Cu F.Mask F.Paste) (roundrect_rratio 0.25))
  (pad 11 smd roundrect (at -6.425 1.25) (size 1.55 0.3) (layers F.Cu F.Mask F.Paste) (roundrect_rratio 0.25))
  (pad 12 smd roundrect (at -6.425 1.75) (size 1.55 0.3) (layers F.Cu F.Mask F.Paste) (roundrect_rratio 0.25))
  (pad 13 smd roundrect (at -6.425 2.25) (size 1.55 0.3) (layers F.Cu F.Mask F.Paste) (roundrect_rratio 0.25))
  (pad 14 smd roundrect (at -6.425 2.75) (size 1.55 0.3) (layers F.Cu F.Mask F.Paste) (roundrect_rratio 0.25))
  (pad 15 smd roundrect (at -6.425 3.25) (size 1.55 0.3) (layers F.Cu F.Mask F.Paste) (roundrect_rratio 0.25))
  (pad 16 smd roundrect (at -6.425 3.75) (size 1.55 0.3) (layers F.Cu F.Mask F.Paste) (roundrect_rratio 0.25))
  (pad 17 smd roundrect (at 6.425 3.75) (size 1.55 0.3) (layers F.Cu F.Mask F.Paste) (roundrect_rratio 0.25))
  (pad 18 smd roundrect (at 6.425 3.25) (size 1.55 0.3) (layers F.Cu F.Mask F.Paste) (roundrect_rratio 0.25))
  (pad 19 smd roundrect (at 6.425 2.75) (size 1.55 0.3) (layers F.Cu F.Mask F.Paste) (roundrect_rratio 0.25))
  (pad 20 smd roundrect (at 6.425 2.25) (size 1.55 0.3) (layers F.Cu F.Mask F.Paste) (roundrect_rratio 0.25))
  (pad 21 smd roundrect (at 6.425 1.75) (size 1.55 0.3) (layers F.Cu F.Mask F.Paste) (roundrect_rratio 0.25))
  (pad 22 smd roundrect (at 6.425 1.25) (size 1.55 0.3) (layers F.Cu F.Mask F.Paste) (roundrect_rratio 0.25))
  (pad 23 smd roundrect (at 6.425 0.75) (size 1.55 0.3) (layers F.Cu F.Mask F.Paste) (roundrect_rratio 0.25))
  (pad 24 smd roundrect (at 6.425 0.25) (size 1.55 0.3) (layers F.Cu F.Mask F.Paste) (roundrect_rratio 0.25))
  (pad 25 smd roundrect (at 6.425 -0.25) (size 1.55 0.3) (layers F.Cu F.Mask F.Paste) (roundrect_rratio 0.25))
  (pad 26 smd roundrect (at 6.425 -0.75) (size 1.55 0.3) (layers F.Cu F.Mask F.Paste) (roundrect_rratio 0.25))
  (pad 27 smd roundrect (at 6.425 -1.25) (size 1.55 0.3) (layers F.Cu F.Mask F.Paste) (roundrect_rratio 0.25))
  (pad 28 smd roundrect (at 6.425 -1.75) (size 1.55 0.3) (layers F.Cu F.Mask F.Paste) (roundrect_rratio 0.25))
  (pad 29 smd roundrect (at 6.425 -2.25) (size 1.55 0.3) (layers F.Cu F.Mask F.Paste) (roundrect_rratio 0.25))
  (pad 30 smd roundrect (at 6.425 -2.75) (size 1.55 0.3) (layers F.Cu F.Mask F.Paste) (roundrect_rratio 0.25))
  (pad 31 smd roundrect (at 6.425 -3.25) (size 1.55 0.3) (layers F.Cu F.Mask F.Paste) (roundrect_rratio 0.25))
  (pad 32 smd roundrect (at 6.425 -3.75) (size 1.55 0.3) (layers F.Cu F.Mask F.Paste) (roundrect_rratio 0.25))
  (fp_poly (pts (xy -6.55 -4.16) (xy -6.73 -4.412) (xy -6.37 -4.412) (xy -6.55 -4.16))
    (stroke (width 0.12) (type solid)) (fill solid) (layer F.SilkS))
  (fp_text user ${REFERENCE} (at 0 0) (layer F.Fab)
    (effects (font (size 1 1) (thickness 0.15)))
  )
  (model ${KICAD7_3DMODEL_DIR}/Package_SO.3dshapes/TSOP-I-32_11.8x8mm_P0.5mm.wrl
    (offset (xyz 0 0 0))
    (scale (xyz 1 1 1))
    (rotate (xyz 0 0 0))
  )
)
