(footprint TSSOP-28_8x9.7mm_P0.65mm (version 20221018) (generator kicad-footprint-generator)
  (layer F.Cu)
  (descr "TSSOP, 28 Pin (JEDEC MO-153 Var GA https://www.jedec.org/document_search?search_api_views_fulltext=MO-153), generated with kicad-footprint-generator ipc_gullwing_generator.py")
  (tags "TSSOP SO")
  (attr smd)
  (fp_text reference REF** (at 0 -5.8) (layer F.SilkS)
    (effects (font (size 1 1) (thickness 0.15)))
  )
  (fp_text value TSSOP-28_8x9.7mm_P0.65mm (at 0 5.8) (layer F.Fab)
    (effects (font (size 1 1) (thickness 0.15)))
  )
  (fp_line (start -5.65 -5.1) (end -5.65 5.1)
    (stroke (width 0.05) (type solid)) (layer F.CrtYd))
  (fp_line (start -5.65 5.1) (end 5.65 5.1)
    (stroke (width 0.05) (type solid)) (layer F.CrtYd))
  (fp_line (start 5.65 5.1) (end 5.65 -5.1)
    (stroke (width 0.05) (type solid)) (layer F.CrtYd))
  (fp_line (start 5.65 -5.1) (end -5.65 -5.1)
    (stroke (width 0.05) (type solid)) (layer F.CrtYd))
  (fp_line (start 0 4.96) (end 4.11 4.96)
    (stroke (width 0.12) (type solid)) (layer F.SilkS))
  (fp_line (start 4.11 4.96) (end 4.11 4.685)
    (stroke (width 0.12) (type solid)) (layer F.SilkS))
  (fp_line (start 0 4.96) (end -4.11 4.96)
    (stroke (width 0.12) (type solid)) (layer F.SilkS))
  (fp_line (start -4.11 4.96) (end -4.11 4.685)
    (stroke (width 0.12) (type solid)) (layer F.SilkS))
  (fp_line (start 0 -4.96) (end 4.11 -4.96)
    (stroke (width 0.12) (type solid)) (layer F.SilkS))
  (fp_line (start 4.11 -4.96) (end 4.11 -4.685)
    (stroke (width 0.12) (type solid)) (layer F.SilkS))
  (fp_line (start 0 -4.96) (end -4.11 -4.96)
    (stroke (width 0.12) (type solid)) (layer F.SilkS))
  (fp_line (start -4.11 -4.96) (end -4.11 -4.685)
    (stroke (width 0.12) (type solid)) (layer F.SilkS))
  (fp_line (start -3 -4.85) (end 4 -4.85)
    (stroke (width 0.1) (type solid)) (layer F.Fab))
  (fp_line (start 4 -4.85) (end 4 4.85)
    (stroke (width 0.1) (type solid)) (layer F.Fab))
  (fp_line (start 4 4.85) (end -4 4.85)
    (stroke (width 0.1) (type solid)) (layer F.Fab))
  (fp_line (start -4 4.85) (end -4 -3.85)
    (stroke (width 0.1) (type solid)) (layer F.Fab))
  (fp_line (start -4 -3.85) (end -3 -4.85)
    (stroke (width 0.1) (type solid)) (layer F.Fab))
  (pad 1 smd roundrect (at -4.6625 -4.225) (size 1.475 0.4) (layers F.Cu F.Mask F.Paste) (roundrect_rratio 0.25))
  (pad 2 smd roundrect (at -4.6625 -3.575) (size 1.475 0.4) (layers F.Cu F.Mask F.Paste) (roundrect_rratio 0.25))
  (pad 3 smd roundrect (at -4.6625 -2.925) (size 1.475 0.4) (layers F.Cu F.Mask F.Paste) (roundrect_rratio 0.25))
  (pad 4 smd roundrect (at -4.6625 -2.275) (size 1.475 0.4) (layers F.Cu F.Mask F.Paste) (roundrect_rratio 0.25))
  (pad 5 smd roundrect (at -4.6625 -1.625) (size 1.475 0.4) (layers F.Cu F.Mask F.Paste) (roundrect_rratio 0.25))
  (pad 6 smd roundrect (at -4.6625 -0.975) (size 1.475 0.4) (layers F.Cu F.Mask F.Paste) (roundrect_rratio 0.25))
  (pad 7 smd roundrect (at -4.6625 -0.325) (size 1.475 0.4) (layers F.Cu F.Mask F.Paste) (roundrect_rratio 0.25))
  (pad 8 smd roundrect (at -4.6625 0.325) (size 1.475 0.4) (layers F.Cu F.Mask F.Paste) (roundrect_rratio 0.25))
  (pad 9 smd roundrect (at -4.6625 0.975) (size 1.475 0.4) (layers F.Cu F.Mask F.Paste) (roundrect_rratio 0.25))
  (pad 10 smd roundrect (at -4.6625 1.625) (size 1.475 0.4) (layers F.Cu F.Mask F.Paste) (roundrect_rratio 0.25))
  (pad 11 smd roundrect (at -4.6625 2.275) (size 1.475 0.4) (layers F.Cu F.Mask F.Paste) (roundrect_rratio 0.25))
  (pad 12 smd roundrect (at -4.6625 2.925) (size 1.475 0.4) (layers F.Cu F.Mask F.Paste) (roundrect_rratio 0.25))
  (pad 13 smd roundrect (at -4.6625 3.575) (size 1.475 0.4) (layers F.Cu F.Mask F.Paste) (roundrect_rratio 0.25))
  (pad 14 smd roundrect (at -4.6625 4.225) (size 1.475 0.4) (layers F.Cu F.Mask F.Paste) (roundrect_rratio 0.25))
  (pad 15 smd roundrect (at 4.6625 4.225) (size 1.475 0.4) (layers F.Cu F.Mask F.Paste) (roundrect_rratio 0.25))
  (pad 16 smd roundrect (at 4.6625 3.575) (size 1.475 0.4) (layers F.Cu F.Mask F.Paste) (roundrect_rratio 0.25))
  (pad 17 smd roundrect (at 4.6625 2.925) (size 1.475 0.4) (layers F.Cu F.Mask F.Paste) (roundrect_rratio 0.25))
  (pad 18 smd roundrect (at 4.6625 2.275) (size 1.475 0.4) (layers F.Cu F.Mask F.Paste) (roundrect_rratio 0.25))
  (pad 19 smd roundrect (at 4.6625 1.625) (size 1.475 0.4) (layers F.Cu F.Mask F.Paste) (roundrect_rratio 0.25))
  (pad 20 smd roundrect (at 4.6625 0.975) (size 1.475 0.4) (layers F.Cu F.Mask F.Paste) (roundrect_rratio 0.25))
  (pad 21 smd roundrect (at 4.6625 0.325) (size 1.475 0.4) (layers F.Cu F.Mask F.Paste) (roundrect_rratio 0.25))
  (pad 22 smd roundrect (at 4.6625 -0.325) (size 1.475 0.4) (layers F.Cu F.Mask F.Paste) (roundrect_rratio 0.25))
  (pad 23 smd roundrect (at 4.6625 -0.975) (size 1.475 0.4) (layers F.Cu F.Mask F.Paste) (roundrect_rratio 0.25))
  (pad 24 smd roundrect (at 4.6625 -1.625) (size 1.475 0.4) (layers F.Cu F.Mask F.Paste) (roundrect_rratio 0.25))
  (pad 25 smd roundrect (at 4.6625 -2.275) (size 1.475 0.4) (layers F.Cu F.Mask F.Paste) (roundrect_rratio 0.25))
  (pad 26 smd roundrect (at 4.6625 -2.925) (size 1.475 0.4) (layers F.Cu F.Mask F.Paste) (roundrect_rratio 0.25))
  (pad 27 smd roundrect (at 4.6625 -3.575) (size 1.475 0.4) (layers F.Cu F.Mask F.Paste) (roundrect_rratio 0.25))
  (pad 28 smd roundrect (at 4.6625 -4.225) (size 1.475 0.4) (layers F.Cu F.Mask F.Paste) (roundrect_rratio 0.25))
  (fp_poly (pts (xy -4.7 -4.685) (xy -4.88 -4.937) (xy -4.52 -4.937) (xy -4.7 -4.685))
    (stroke (width 0.12) (type solid)) (fill solid) (layer F.SilkS))
  (fp_text user ${REFERENCE} (at 0 0) (layer F.Fab)
    (effects (font (size 1 1) (thickness 0.15)))
  )
  (model ${KICAD7_3DMODEL_DIR}/Package_SO.3dshapes/TSSOP-28_8x9.7mm_P0.65mm.wrl
    (offset (xyz 0 0 0))
    (scale (xyz 1 1 1))
    (rotate (xyz 0 0 0))
  )
)
