(footprint LQFP-44_10x10mm_P0.8mm (version 20221018) (generator kicad-footprint-generator)
  (layer F.Cu)
  (descr "LQFP, 44 Pin (https://www.nxp.com/files-static/shared/doc/package_info/98ASS23225W.pdf?&fsrch=1), generated with kicad-footprint-generator ipc_gullwing_generator.py")
  (tags "LQFP QFP")
  (attr smd)
  (fp_text reference REF** (at 0 -7.35) (layer F.SilkS)
    (effects (font (size 1 1) (thickness 0.15)))
  )
  (fp_text value LQFP-44_10x10mm_P0.8mm (at 0 7.35) (layer F.Fab)
    (effects (font (size 1 1) (thickness 0.15)))
  )
  (fp_line (start 0 -6.65) (end -4.52 -6.65)
    (stroke (width 0.05) (type solid)) (layer F.CrtYd))
  (fp_line (start -4.52 -6.65) (end -4.52 -5.25)
    (stroke (width 0.05) (type solid)) (layer F.CrtYd))
  (fp_line (start -4.52 -5.25) (end -5.25 -5.25)
    (stroke (width 0.05) (type solid)) (layer F.CrtYd))
  (fp_line (start -5.25 -5.25) (end -5.25 -4.52)
    (stroke (width 0.05) (type solid)) (layer F.CrtYd))
  (fp_line (start -5.25 -4.52) (end -6.65 -4.52)
    (stroke (width 0.05) (type solid)) (layer F.CrtYd))
  (fp_line (start -6.65 -4.52) (end -6.65 0)
    (stroke (width 0.05) (type solid)) (layer F.CrtYd))
  (fp_line (start 0 -6.65) (end 4.52 -6.65)
    (stroke (width 0.05) (type solid)) (layer F.CrtYd))
  (fp_line (start 4.52 -6.65) (end 4.52 -5.25)
    (stroke (width 0.05) (type solid)) (layer F.CrtYd))
  (fp_line (start 4.52 -5.25) (end 5.25 -5.25)
    (stroke (width 0.05) (type solid)) (layer F.CrtYd))
  (fp_line (start 5.25 -5.25) (end 5.25 -4.52)
    (stroke (width 0.05) (type solid)) (layer F.CrtYd))
  (fp_line (start 5.25 -4.52) (end 6.65 -4.52)
    (stroke (width 0.05) (type solid)) (layer F.CrtYd))
  (fp_line (start 6.65 -4.52) (end 6.65 0)
    (stroke (width 0.05) (type solid)) (layer F.CrtYd))
  (fp_line (start 0 6.65) (end -4.52 6.65)
    (stroke (width 0.05) (type solid)) (layer F.CrtYd))
  (fp_line (start -4.52 6.65) (end -4.52 5.25)
    (stroke (width 0.05) (type solid)) (layer F.CrtYd))
  (fp_line (start -4.52 5.25) (end -5.25 5.25)
    (stroke (width 0.05) (type solid)) (layer F.CrtYd))
  (fp_line (start -5.25 5.25) (end -5.25 4.52)
    (stroke (width 0.05) (type solid)) (layer F.CrtYd))
  (fp_line (start -5.25 4.52) (end -6.65 4.52)
    (stroke (width 0.05) (type solid)) (layer F.CrtYd))
  (fp_line (start -6.65 4.52) (end -6.65 0)
    (stroke (width 0.05) (type solid)) (layer F.CrtYd))
  (fp_line (start 0 6.65) (end 4.52 6.65)
    (stroke (width 0.05) (type solid)) (layer F.CrtYd))
  (fp_line (start 4.52 6.65) (end 4.52 5.25)
    (stroke (width 0.05) (type solid)) (layer F.CrtYd))
  (fp_line (start 4.52 5.25) (end 5.25 5.25)
    (stroke (width 0.05) (type solid)) (layer F.CrtYd))
  (fp_line (start 5.25 5.25) (end 5.25 4.52)
    (stroke (width 0.05) (type solid)) (layer F.CrtYd))
  (fp_line (start 5.25 4.52) (end 6.65 4.52)
    (stroke (width 0.05) (type solid)) (layer F.CrtYd))
  (fp_line (start 6.65 4.52) (end 6.65 0)
    (stroke (width 0.05) (type solid)) (layer F.CrtYd))
  (fp_line (start 4.535 5.11) (end 5.11 5.11)
    (stroke (width 0.12) (type solid)) (layer F.SilkS))
  (fp_line (start 5.11 5.11) (end 5.11 4.535)
    (stroke (width 0.12) (type solid)) (layer F.SilkS))
  (fp_line (start -4.535 5.11) (end -5.11 5.11)
    (stroke (width 0.12) (type solid)) (layer F.SilkS))
  (fp_line (start -5.11 5.11) (end -5.11 4.535)
    (stroke (width 0.12) (type solid)) (layer F.SilkS))
  (fp_line (start 4.535 -5.11) (end 5.11 -5.11)
    (stroke (width 0.12) (type solid)) (layer F.SilkS))
  (fp_line (start 5.11 -5.11) (end 5.11 -4.535)
    (stroke (width 0.12) (type solid)) (layer F.SilkS))
  (fp_line (start -4.535 -5.11) (end -5.11 -5.11)
    (stroke (width 0.12) (type solid)) (layer F.SilkS))
  (fp_line (start -5.11 -5.11) (end -5.11 -4.535)
    (stroke (width 0.12) (type solid)) (layer F.SilkS))
  (fp_line (start -4 -5) (end 5 -5)
    (stroke (width 0.1) (type solid)) (layer F.Fab))
  (fp_line (start 5 -5) (end 5 5)
    (stroke (width 0.1) (type solid)) (layer F.Fab))
  (fp_line (start 5 5) (end -5 5)
    (stroke (width 0.1) (type solid)) (layer F.Fab))
  (fp_line (start -5 5) (end -5 -4)
    (stroke (width 0.1) (type solid)) (layer F.Fab))
  (fp_line (start -5 -4) (end -4 -5)
    (stroke (width 0.1) (type solid)) (layer F.Fab))
  (pad 1 smd roundrect (at -5.6625 -4) (size 1.475 0.55) (layers F.Cu F.Mask F.Paste) (roundrect_rratio 0.25))
  (pad 2 smd roundrect (at -5.6625 -3.2) (size 1.475 0.55) (layers F.Cu F.Mask F.Paste) (roundrect_rratio 0.25))
  (pad 3 smd roundrect (at -5.6625 -2.4) (size 1.475 0.55) (layers F.Cu F.Mask F.Paste) (roundrect_rratio 0.25))
  (pad 4 smd roundrect (at -5.6625 -1.6) (size 1.475 0.55) (layers F.Cu F.Mask F.Paste) (roundrect_rratio 0.25))
  (pad 5 smd roundrect (at -5.6625 -0.8) (size 1.475 0.55) (layers F.Cu F.Mask F.Paste) (roundrect_rratio 0.25))
  (pad 6 smd roundrect (at -5.6625 0) (size 1.475 0.55) (layers F.Cu F.Mask F.Paste) (roundrect_rratio 0.25))
  (pad 7 smd roundrect (at -5.6625 0.8) (size 1.475 0.55) (layers F.Cu F.Mask F.Paste) (roundrect_rratio 0.25))
  (pad 8 smd roundrect (at -5.6625 1.6) (size 1.475 0.55) (layers F.Cu F.Mask F.Paste) (roundrect_rratio 0.25))
  (pad 9 smd roundrect (at -5.6625 2.4) (size 1.475 0.55) (layers F.Cu F.Mask F.Paste) (roundrect_rratio 0.25))
  (pad 10 smd roundrect (at -5.6625 3.2) (size 1.475 0.55) (layers F.Cu F.Mask F.Paste) (roundrect_rratio 0.25))
  (pad 11 smd roundrect (at -5.6625 4) (size 1.475 0.55) (layers F.Cu F.Mask F.Paste) (roundrect_rratio 0.25))
  (pad 12 smd roundrect (at -4 5.6625) (size 0.55 1.475) (layers F.Cu F.Mask F.Paste) (roundrect_rratio 0.25))
  (pad 13 smd roundrect (at -3.2 5.6625) (size 0.55 1.475) (layers F.Cu F.Mask F.Paste) (roundrect_rratio 0.25))
  (pad 14 smd roundrect (at -2.4 5.6625) (size 0.55 1.475) (layers F.Cu F.Mask F.Paste) (roundrect_rratio 0.25))
  (pad 15 smd roundrect (at -1.6 5.6625) (size 0.55 1.475) (layers F.Cu F.Mask F.Paste) (roundrect_rratio 0.25))
  (pad 16 smd roundrect (at -0.8 5.6625) (size 0.55 1.475) (layers F.Cu F.Mask F.Paste) (roundrect_rratio 0.25))
  (pad 17 smd roundrect (at 0 5.6625) (size 0.55 1.475) (layers F.Cu F.Mask F.Paste) (roundrect_rratio 0.25))
  (pad 18 smd roundrect (at 0.8 5.6625) (size 0.55 1.475) (layers F.Cu F.Mask F.Paste) (roundrect_rratio 0.25))
  (pad 19 smd roundrect (at 1.6 5.6625) (size 0.55 1.475) (layers F.Cu F.Mask F.Paste) (roundrect_rratio 0.25))
  (pad 20 smd roundrect (at 2.4 5.6625) (size 0.55 1.475) (layers F.Cu F.Mask F.Paste) (roundrect_rratio 0.25))
  (pad 21 smd roundrect (at 3.2 5.6625) (size 0.55 1.475) (layers F.Cu F.Mask F.Paste) (roundrect_rratio 0.25))
  (pad 22 smd roundrect (at 4 5.6625) (size 0.55 1.475) (layers F.Cu F.Mask F.Paste) (roundrect_rratio 0.25))
  (pad 23 smd roundrect (at 5.6625 4) (size 1.475 0.55) (layers F.Cu F.Mask F.Paste) (roundrect_rratio 0.25))
  (pad 24 smd roundrect (at 5.6625 3.2) (size 1.475 0.55) (layers F.Cu F.Mask F.Paste) (roundrect_rratio 0.25))
  (pad 25 smd roundrect (at 5.6625 2.4) (size 1.475 0.55) (layers F.Cu F.Mask F.Paste) (roundrect_rratio 0.25))
  (pad 26 smd roundrect (at 5.6625 1.6) (size 1.475 0.55) (layers F.Cu F.Mask F.Paste) (roundrect_rratio 0.25))
  (pad 27 smd roundrect (at 5.6625 0.8) (size 1.475 0.55) (layers F.Cu F.Mask F.Paste) (roundrect_rratio 0.25))
  (pad 28 smd roundrect (at 5.6625 0) (size 1.475 0.55) (layers F.Cu F.Mask F.Paste) (roundrect_rratio 0.25))
  (pad 29 smd roundrect (at 5.6625 -0.8) (size 1.475 0.55) (layers F.Cu F.Mask F.Paste) (roundrect_rratio 0.25))
  (pad 30 smd roundrect (at 5.6625 -1.6) (size 1.475 0.55) (layers F.Cu F.Mask F.Paste) (roundrect_rratio 0.25))
  (pad 31 smd roundrect (at 5.6625 -2.4) (size 1.475 0.55) (layers F.Cu F.Mask F.Paste) (roundrect_rratio 0.25))
  (pad 32 smd roundrect (at 5.6625 -3.2) (size 1.475 0.55) (layers F.Cu F.Mask F.Paste) (roundrect_rratio 0.25))
  (pad 33 smd roundrect (at 5.6625 -4) (size 1.475 0.55) (layers F.Cu F.Mask F.Paste) (roundrect_rratio 0.25))
  (pad 34 smd roundrect (at 4 -5.6625) (size 0.55 1.475) (layers F.Cu F.Mask F.Paste) (roundrect_rratio 0.25))
  (pad 35 smd roundrect (at 3.2 -5.6625) (size 0.55 1.475) (layers F.Cu F.Mask F.Paste) (roundrect_rratio 0.25))
  (pad 36 smd roundrect (at 2.4 -5.6625) (size 0.55 1.475) (layers F.Cu F.Mask F.Paste) (roundrect_rratio 0.25))
  (pad 37 smd roundrect (at 1.6 -5.6625) (size 0.55 1.475) (layers F.Cu F.Mask F.Paste) (roundrect_rratio 0.25))
  (pad 38 smd roundrect (at 0.8 -5.6625) (size 0.55 1.475) (layers F.Cu F.Mask F.Paste) (roundrect_rratio 0.25))
  (pad 39 smd roundrect (at 0 -5.6625) (size 0.55 1.475) (layers F.Cu F.Mask F.Paste) (roundrect_rratio 0.25))
  (pad 40 smd roundrect (at -0.8 -5.6625) (size 0.55 1.475) (layers F.Cu F.Mask F.Paste) (roundrect_rratio 0.25))
  (pad 41 smd roundrect (at -1.6 -5.6625) (size 0.55 1.475) (layers F.Cu F.Mask F.Paste) (roundrect_rratio 0.25))
  (pad 42 smd roundrect (at -2.4 -5.6625) (size 0.55 1.475) (layers F.Cu F.Mask F.Paste) (roundrect_rratio 0.25))
  (pad 43 smd roundrect (at -3.2 -5.6625) (size 0.55 1.475) (layers F.Cu F.Mask F.Paste) (roundrect_rratio 0.25))
  (pad 44 smd roundrect (at -4 -5.6625) (size 0.55 1.475) (layers F.Cu F.Mask F.Paste) (roundrect_rratio 0.25))
  (fp_poly (pts (xy -5.7 -4.535) (xy -5.9795 -4.9263) (xy -5.4205 -4.9263) (xy -5.7 -4.535))
    (stroke (width 0.12) (type solid)) (fill solid) (layer F.SilkS))
  (fp_text user ${REFERENCE} (at 0 0) (layer F.Fab)
    (effects (font (size 1 1) (thickness 0.15)))
  )
  (model ${KICAD7_3DMODEL_DIR}/Package_QFP.3dshapes/LQFP-44_10x10mm_P0.8mm.wrl
    (offset (xyz 0 0 0))
    (scale (xyz 1 1 1))
    (rotate (xyz 0 0 0))
  )
)
