(footprint PQFP-168_28x28mm_P0.65mm (version 20221018) (generator kicad-footprint-generator)
  (layer F.Cu)
  (descr "PQFP, 168 Pin (https://www.renesas.cn/cn/zh/document/psc/package-drawing-qfp-168pin-prqp0168jb), generated with kicad-footprint-generator ipc_gullwing_generator.py")
  (tags "PQFP QFP")
  (attr smd)
  (fp_text reference REF** (at 0 -17) (layer F.SilkS)
    (effects (font (size 1 1) (thickness 0.15)))
  )
  (fp_text value PQFP-168_28x28mm_P0.65mm (at 0 17) (layer F.Fab)
    (effects (font (size 1 1) (thickness 0.15)))
  )
  (fp_line (start 0 -16.3) (end -13.78 -16.3)
    (stroke (width 0.05) (type solid)) (layer F.CrtYd))
  (fp_line (start -13.78 -16.3) (end -13.78 -14.25)
    (stroke (width 0.05) (type solid)) (layer F.CrtYd))
  (fp_line (start -13.78 -14.25) (end -14.25 -14.25)
    (stroke (width 0.05) (type solid)) (layer F.CrtYd))
  (fp_line (start -14.25 -14.25) (end -14.25 -13.78)
    (stroke (width 0.05) (type solid)) (layer F.CrtYd))
  (fp_line (start -14.25 -13.78) (end -16.3 -13.78)
    (stroke (width 0.05) (type solid)) (layer F.CrtYd))
  (fp_line (start -16.3 -13.78) (end -16.3 0)
    (stroke (width 0.05) (type solid)) (layer F.CrtYd))
  (fp_line (start 0 -16.3) (end 13.78 -16.3)
    (stroke (width 0.05) (type solid)) (layer F.CrtYd))
  (fp_line (start 13.78 -16.3) (end 13.78 -14.25)
    (stroke (width 0.05) (type solid)) (layer F.CrtYd))
  (fp_line (start 13.78 -14.25) (end 14.25 -14.25)
    (stroke (width 0.05) (type solid)) (layer F.CrtYd))
  (fp_line (start 14.25 -14.25) (end 14.25 -13.78)
    (stroke (width 0.05) (type solid)) (layer F.CrtYd))
  (fp_line (start 14.25 -13.78) (end 16.3 -13.78)
    (stroke (width 0.05) (type solid)) (layer F.CrtYd))
  (fp_line (start 16.3 -13.78) (end 16.3 0)
    (stroke (width 0.05) (type solid)) (layer F.CrtYd))
  (fp_line (start 0 16.3) (end -13.78 16.3)
    (stroke (width 0.05) (type solid)) (layer F.CrtYd))
  (fp_line (start -13.78 16.3) (end -13.78 14.25)
    (stroke (width 0.05) (type solid)) (layer F.CrtYd))
  (fp_line (start -13.78 14.25) (end -14.25 14.25)
    (stroke (width 0.05) (type solid)) (layer F.CrtYd))
  (fp_line (start -14.25 14.25) (end -14.25 13.78)
    (stroke (width 0.05) (type solid)) (layer F.CrtYd))
  (fp_line (start -14.25 13.78) (end -16.3 13.78)
    (stroke (width 0.05) (type solid)) (layer F.CrtYd))
  (fp_line (start -16.3 13.78) (end -16.3 0)
    (stroke (width 0.05) (type solid)) (layer F.CrtYd))
  (fp_line (start 0 16.3) (end 13.78 16.3)
    (stroke (width 0.05) (type solid)) (layer F.CrtYd))
  (fp_line (start 13.78 16.3) (end 13.78 14.25)
    (stroke (width 0.05) (type solid)) (layer F.CrtYd))
  (fp_line (start 13.78 14.25) (end 14.25 14.25)
    (stroke (width 0.05) (type solid)) (layer F.CrtYd))
  (fp_line (start 14.25 14.25) (end 14.25 13.78)
    (stroke (width 0.05) (type solid)) (layer F.CrtYd))
  (fp_line (start 14.25 13.78) (end 16.3 13.78)
    (stroke (width 0.05) (type solid)) (layer F.CrtYd))
  (fp_line (start 16.3 13.78) (end 16.3 0)
    (stroke (width 0.05) (type solid)) (layer F.CrtYd))
  (fp_line (start 13.785 14.11) (end 14.11 14.11)
    (stroke (width 0.12) (type solid)) (layer F.SilkS))
  (fp_line (start 14.11 14.11) (end 14.11 13.785)
    (stroke (width 0.12) (type solid)) (layer F.SilkS))
  (fp_line (start -13.785 14.11) (end -14.11 14.11)
    (stroke (width 0.12) (type solid)) (layer F.SilkS))
  (fp_line (start -14.11 14.11) (end -14.11 13.785)
    (stroke (width 0.12) (type solid)) (layer F.SilkS))
  (fp_line (start 13.785 -14.11) (end 14.11 -14.11)
    (stroke (width 0.12) (type solid)) (layer F.SilkS))
  (fp_line (start 14.11 -14.11) (end 14.11 -13.785)
    (stroke (width 0.12) (type solid)) (layer F.SilkS))
  (fp_line (start -13.785 -14.11) (end -14.11 -14.11)
    (stroke (width 0.12) (type solid)) (layer F.SilkS))
  (fp_line (start -14.11 -14.11) (end -14.11 -13.785)
    (stroke (width 0.12) (type solid)) (layer F.SilkS))
  (fp_line (start -13 -14) (end 14 -14)
    (stroke (width 0.1) (type solid)) (layer F.Fab))
  (fp_line (start 14 -14) (end 14 14)
    (stroke (width 0.1) (type solid)) (layer F.Fab))
  (fp_line (start 14 14) (end -14 14)
    (stroke (width 0.1) (type solid)) (layer F.Fab))
  (fp_line (start -14 14) (end -14 -13)
    (stroke (width 0.1) (type solid)) (layer F.Fab))
  (fp_line (start -14 -13) (end -13 -14)
    (stroke (width 0.1) (type solid)) (layer F.Fab))
  (pad 1 smd roundrect (at -15.1625 -13.325) (size 1.775 0.4) (layers F.Cu F.Mask F.Paste) (roundrect_rratio 0.25))
  (pad 2 smd roundrect (at -15.1625 -12.675) (size 1.775 0.4) (layers F.Cu F.Mask F.Paste) (roundrect_rratio 0.25))
  (pad 3 smd roundrect (at -15.1625 -12.025) (size 1.775 0.4) (layers F.Cu F.Mask F.Paste) (roundrect_rratio 0.25))
  (pad 4 smd roundrect (at -15.1625 -11.375) (size 1.775 0.4) (layers F.Cu F.Mask F.Paste) (roundrect_rratio 0.25))
  (pad 5 smd roundrect (at -15.1625 -10.725) (size 1.775 0.4) (layers F.Cu F.Mask F.Paste) (roundrect_rratio 0.25))
  (pad 6 smd roundrect (at -15.1625 -10.075) (size 1.775 0.4) (layers F.Cu F.Mask F.Paste) (roundrect_rratio 0.25))
  (pad 7 smd roundrect (at -15.1625 -9.425) (size 1.775 0.4) (layers F.Cu F.Mask F.Paste) (roundrect_rratio 0.25))
  (pad 8 smd roundrect (at -15.1625 -8.775) (size 1.775 0.4) (layers F.Cu F.Mask F.Paste) (roundrect_rratio 0.25))
  (pad 9 smd roundrect (at -15.1625 -8.125) (size 1.775 0.4) (layers F.Cu F.Mask F.Paste) (roundrect_rratio 0.25))
  (pad 10 smd roundrect (at -15.1625 -7.475) (size 1.775 0.4) (layers F.Cu F.Mask F.Paste) (roundrect_rratio 0.25))
  (pad 11 smd roundrect (at -15.1625 -6.825) (size 1.775 0.4) (layers F.Cu F.Mask F.Paste) (roundrect_rratio 0.25))
  (pad 12 smd roundrect (at -15.1625 -6.175) (size 1.775 0.4) (layers F.Cu F.Mask F.Paste) (roundrect_rratio 0.25))
  (pad 13 smd roundrect (at -15.1625 -5.525) (size 1.775 0.4) (layers F.Cu F.Mask F.Paste) (roundrect_rratio 0.25))
  (pad 14 smd roundrect (at -15.1625 -4.875) (size 1.775 0.4) (layers F.Cu F.Mask F.Paste) (roundrect_rratio 0.25))
  (pad 15 smd roundrect (at -15.1625 -4.225) (size 1.775 0.4) (layers F.Cu F.Mask F.Paste) (roundrect_rratio 0.25))
  (pad 16 smd roundrect (at -15.1625 -3.575) (size 1.775 0.4) (layers F.Cu F.Mask F.Paste) (roundrect_rratio 0.25))
  (pad 17 smd roundrect (at -15.1625 -2.925) (size 1.775 0.4) (layers F.Cu F.Mask F.Paste) (roundrect_rratio 0.25))
  (pad 18 smd roundrect (at -15.1625 -2.275) (size 1.775 0.4) (layers F.Cu F.Mask F.Paste) (roundrect_rratio 0.25))
  (pad 19 smd roundrect (at -15.1625 -1.625) (size 1.775 0.4) (layers F.Cu F.Mask F.Paste) (roundrect_rratio 0.25))
  (pad 20 smd roundrect (at -15.1625 -0.975) (size 1.775 0.4) (layers F.Cu F.Mask F.Paste) (roundrect_rratio 0.25))
  (pad 21 smd roundrect (at -15.1625 -0.325) (size 1.775 0.4) (layers F.Cu F.Mask F.Paste) (roundrect_rratio 0.25))
  (pad 22 smd roundrect (at -15.1625 0.325) (size 1.775 0.4) (layers F.Cu F.Mask F.Paste) (roundrect_rratio 0.25))
  (pad 23 smd roundrect (at -15.1625 0.975) (size 1.775 0.4) (layers F.Cu F.Mask F.Paste) (roundrect_rratio 0.25))
  (pad 24 smd roundrect (at -15.1625 1.625) (size 1.775 0.4) (layers F.Cu F.Mask F.Paste) (roundrect_rratio 0.25))
  (pad 25 smd roundrect (at -15.1625 2.275) (size 1.775 0.4) (layers F.Cu F.Mask F.Paste) (roundrect_rratio 0.25))
  (pad 26 smd roundrect (at -15.1625 2.925) (size 1.775 0.4) (layers F.Cu F.Mask F.Paste) (roundrect_rratio 0.25))
  (pad 27 smd roundrect (at -15.1625 3.575) (size 1.775 0.4) (layers F.Cu F.Mask F.Paste) (roundrect_rratio 0.25))
  (pad 28 smd roundrect (at -15.1625 4.225) (size 1.775 0.4) (layers F.Cu F.Mask F.Paste) (roundrect_rratio 0.25))
  (pad 29 smd roundrect (at -15.1625 4.875) (size 1.775 0.4) (layers F.Cu F.Mask F.Paste) (roundrect_rratio 0.25))
  (pad 30 smd roundrect (at -15.1625 5.525) (size 1.775 0.4) (layers F.Cu F.Mask F.Paste) (roundrect_rratio 0.25))
  (pad 31 smd roundrect (at -15.1625 6.175) (size 1.775 0.4) (layers F.Cu F.Mask F.Paste) (roundrect_rratio 0.25))
  (pad 32 smd roundrect (at -15.1625 6.825) (size 1.775 0.4) (layers F.Cu F.Mask F.Paste) (roundrect_rratio 0.25))
  (pad 33 smd roundrect (at -15.1625 7.475) (size 1.775 0.4) (layers F.Cu F.Mask F.Paste) (roundrect_rratio 0.25))
  (pad 34 smd roundrect (at -15.1625 8.125) (size 1.775 0.4) (layers F.Cu F.Mask F.Paste) (roundrect_rratio 0.25))
  (pad 35 smd roundrect (at -15.1625 8.775) (size 1.775 0.4) (layers F.Cu F.Mask F.Paste) (roundrect_rratio 0.25))
  (pad 36 smd roundrect (at -15.1625 9.425) (size 1.775 0.4) (layers F.Cu F.Mask F.Paste) (roundrect_rratio 0.25))
  (pad 37 smd roundrect (at -15.1625 10.075) (size 1.775 0.4) (layers F.Cu F.Mask F.Paste) (roundrect_rratio 0.25))
  (pad 38 smd roundrect (at -15.1625 10.725) (size 1.775 0.4) (layers F.Cu F.Mask F.Paste) (roundrect_rratio 0.25))
  (pad 39 smd roundrect (at -15.1625 11.375) (size 1.775 0.4) (layers F.Cu F.Mask F.Paste) (roundrect_rratio 0.25))
  (pad 40 smd roundrect (at -15.1625 12.025) (size 1.775 0.4) (layers F.Cu F.Mask F.Paste) (roundrect_rratio 0.25))
  (pad 41 smd roundrect (at -15.1625 12.675) (size 1.775 0.4) (layers F.Cu F.Mask F.Paste) (roundrect_rratio 0.25))
  (pad 42 smd roundrect (at -15.1625 13.325) (size 1.775 0.4) (layers F.Cu F.Mask F.Paste) (roundrect_rratio 0.25))
  (pad 43 smd roundrect (at -13.325 15.1625) (size 0.4 1.775) (layers F.Cu F.Mask F.Paste) (roundrect_rratio 0.25))
  (pad 44 smd roundrect (at -12.675 15.1625) (size 0.4 1.775) (layers F.Cu F.Mask F.Paste) (roundrect_rratio 0.25))
  (pad 45 smd roundrect (at -12.025 15.1625) (size 0.4 1.775) (layers F.Cu F.Mask F.Paste) (roundrect_rratio 0.25))
  (pad 46 smd roundrect (at -11.375 15.1625) (size 0.4 1.775) (layers F.Cu F.Mask F.Paste) (roundrect_rratio 0.25))
  (pad 47 smd roundrect (at -10.725 15.1625) (size 0.4 1.775) (layers F.Cu F.Mask F.Paste) (roundrect_rratio 0.25))
  (pad 48 smd roundrect (at -10.075 15.1625) (size 0.4 1.775) (layers F.Cu F.Mask F.Paste) (roundrect_rratio 0.25))
  (pad 49 smd roundrect (at -9.425 15.1625) (size 0.4 1.775) (layers F.Cu F.Mask F.Paste) (roundrect_rratio 0.25))
  (pad 50 smd roundrect (at -8.775 15.1625) (size 0.4 1.775) (layers F.Cu F.Mask F.Paste) (roundrect_rratio 0.25))
  (pad 51 smd roundrect (at -8.125 15.1625) (size 0.4 1.775) (layers F.Cu F.Mask F.Paste) (roundrect_rratio 0.25))
  (pad 52 smd roundrect (at -7.475 15.1625) (size 0.4 1.775) (layers F.Cu F.Mask F.Paste) (roundrect_rratio 0.25))
  (pad 53 smd roundrect (at -6.825 15.1625) (size 0.4 1.775) (layers F.Cu F.Mask F.Paste) (roundrect_rratio 0.25))
  (pad 54 smd roundrect (at -6.175 15.1625) (size 0.4 1.775) (layers F.Cu F.Mask F.Paste) (roundrect_rratio 0.25))
  (pad 55 smd roundrect (at -5.525 15.1625) (size 0.4 1.775) (layers F.Cu F.Mask F.Paste) (roundrect_rratio 0.25))
  (pad 56 smd roundrect (at -4.875 15.1625) (size 0.4 1.775) (layers F.Cu F.Mask F.Paste) (roundrect_rratio 0.25))
  (pad 57 smd roundrect (at -4.225 15.1625) (size 0.4 1.775) (layers F.Cu F.Mask F.Paste) (roundrect_rratio 0.25))
  (pad 58 smd roundrect (at -3.575 15.1625) (size 0.4 1.775) (layers F.Cu F.Mask F.Paste) (roundrect_rratio 0.25))
  (pad 59 smd roundrect (at -2.925 15.1625) (size 0.4 1.775) (layers F.Cu F.Mask F.Paste) (roundrect_rratio 0.25))
  (pad 60 smd roundrect (at -2.275 15.1625) (size 0.4 1.775) (layers F.Cu F.Mask F.Paste) (roundrect_rratio 0.25))
  (pad 61 smd roundrect (at -1.625 15.1625) (size 0.4 1.775) (layers F.Cu F.Mask F.Paste) (roundrect_rratio 0.25))
  (pad 62 smd roundrect (at -0.975 15.1625) (size 0.4 1.775) (layers F.Cu F.Mask F.Paste) (roundrect_rratio 0.25))
  (pad 63 smd roundrect (at -0.325 15.1625) (size 0.4 1.775) (layers F.Cu F.Mask F.Paste) (roundrect_rratio 0.25))
  (pad 64 smd roundrect (at 0.325 15.1625) (size 0.4 1.775) (layers F.Cu F.Mask F.Paste) (roundrect_rratio 0.25))
  (pad 65 smd roundrect (at 0.975 15.1625) (size 0.4 1.775) (layers F.Cu F.Mask F.Paste) (roundrect_rratio 0.25))
  (pad 66 smd roundrect (at 1.625 15.1625) (size 0.4 1.775) (layers F.Cu F.Mask F.Paste) (roundrect_rratio 0.25))
  (pad 67 smd roundrect (at 2.275 15.1625) (size 0.4 1.775) (layers F.Cu F.Mask F.Paste) (roundrect_rratio 0.25))
  (pad 68 smd roundrect (at 2.925 15.1625) (size 0.4 1.775) (layers F.Cu F.Mask F.Paste) (roundrect_rratio 0.25))
  (pad 69 smd roundrect (at 3.575 15.1625) (size 0.4 1.775) (layers F.Cu F.Mask F.Paste) (roundrect_rratio 0.25))
  (pad 70 smd roundrect (at 4.225 15.1625) (size 0.4 1.775) (layers F.Cu F.Mask F.Paste) (roundrect_rratio 0.25))
  (pad 71 smd roundrect (at 4.875 15.1625) (size 0.4 1.775) (layers F.Cu F.Mask F.Paste) (roundrect_rratio 0.25))
  (pad 72 smd roundrect (at 5.525 15.1625) (size 0.4 1.775) (layers F.Cu F.Mask F.Paste) (roundrect_rratio 0.25))
  (pad 73 smd roundrect (at 6.175 15.1625) (size 0.4 1.775) (layers F.Cu F.Mask F.Paste) (roundrect_rratio 0.25))
  (pad 74 smd roundrect (at 6.825 15.1625) (size 0.4 1.775) (layers F.Cu F.Mask F.Paste) (roundrect_rratio 0.25))
  (pad 75 smd roundrect (at 7.475 15.1625) (size 0.4 1.775) (layers F.Cu F.Mask F.Paste) (roundrect_rratio 0.25))
  (pad 76 smd roundrect (at 8.125 15.1625) (size 0.4 1.775) (layers F.Cu F.Mask F.Paste) (roundrect_rratio 0.25))
  (pad 77 smd roundrect (at 8.775 15.1625) (size 0.4 1.775) (layers F.Cu F.Mask F.Paste) (roundrect_rratio 0.25))
  (pad 78 smd roundrect (at 9.425 15.1625) (size 0.4 1.775) (layers F.Cu F.Mask F.Paste) (roundrect_rratio 0.25))
  (pad 79 smd roundrect (at 10.075 15.1625) (size 0.4 1.775) (layers F.Cu F.Mask F.Paste) (roundrect_rratio 0.25))
  (pad 80 smd roundrect (at 10.725 15.1625) (size 0.4 1.775) (layers F.Cu F.Mask F.Paste) (roundrect_rratio 0.25))
  (pad 81 smd roundrect (at 11.375 15.1625) (size 0.4 1.775) (layers F.Cu F.Mask F.Paste) (roundrect_rratio 0.25))
  (pad 82 smd roundrect (at 12.025 15.1625) (size 0.4 1.775) (layers F.Cu F.Mask F.Paste) (roundrect_rratio 0.25))
  (pad 83 smd roundrect (at 12.675 15.1625) (size 0.4 1.775) (layers F.Cu F.Mask F.Paste) (roundrect_rratio 0.25))
  (pad 84 smd roundrect (at 13.325 15.1625) (size 0.4 1.775) (layers F.Cu F.Mask F.Paste) (roundrect_rratio 0.25))
  (pad 85 smd roundrect (at 15.1625 13.325) (size 1.775 0.4) (layers F.Cu F.Mask F.Paste) (roundrect_rratio 0.25))
  (pad 86 smd roundrect (at 15.1625 12.675) (size 1.775 0.4) (layers F.Cu F.Mask F.Paste) (roundrect_rratio 0.25))
  (pad 87 smd roundrect (at 15.1625 12.025) (size 1.775 0.4) (layers F.Cu F.Mask F.Paste) (roundrect_rratio 0.25))
  (pad 88 smd roundrect (at 15.1625 11.375) (size 1.775 0.4) (layers F.Cu F.Mask F.Paste) (roundrect_rratio 0.25))
  (pad 89 smd roundrect (at 15.1625 10.725) (size 1.775 0.4) (layers F.Cu F.Mask F.Paste) (roundrect_rratio 0.25))
  (pad 90 smd roundrect (at 15.1625 10.075) (size 1.775 0.4) (layers F.Cu F.Mask F.Paste) (roundrect_rratio 0.25))
  (pad 91 smd roundrect (at 15.1625 9.425) (size 1.775 0.4) (layers F.Cu F.Mask F.Paste) (roundrect_rratio 0.25))
  (pad 92 smd roundrect (at 15.1625 8.775) (size 1.775 0.4) (layers F.Cu F.Mask F.Paste) (roundrect_rratio 0.25))
  (pad 93 smd roundrect (at 15.1625 8.125) (size 1.775 0.4) (layers F.Cu F.Mask F.Paste) (roundrect_rratio 0.25))
  (pad 94 smd roundrect (at 15.1625 7.475) (size 1.775 0.4) (layers F.Cu F.Mask F.Paste) (roundrect_rratio 0.25))
  (pad 95 smd roundrect (at 15.1625 6.825) (size 1.775 0.4) (layers F.Cu F.Mask F.Paste) (roundrect_rratio 0.25))
  (pad 96 smd roundrect (at 15.1625 6.175) (size 1.775 0.4) (layers F.Cu F.Mask F.Paste) (roundrect_rratio 0.25))
  (pad 97 smd roundrect (at 15.1625 5.525) (size 1.775 0.4) (layers F.Cu F.Mask F.Paste) (roundrect_rratio 0.25))
  (pad 98 smd roundrect (at 15.1625 4.875) (size 1.775 0.4) (layers F.Cu F.Mask F.Paste) (roundrect_rratio 0.25))
  (pad 99 smd roundrect (at 15.1625 4.225) (size 1.775 0.4) (layers F.Cu F.Mask F.Paste) (roundrect_rratio 0.25))
  (pad 100 smd roundrect (at 15.1625 3.575) (size 1.775 0.4) (layers F.Cu F.Mask F.Paste) (roundrect_rratio 0.25))
  (pad 101 smd roundrect (at 15.1625 2.925) (size 1.775 0.4) (layers F.Cu F.Mask F.Paste) (roundrect_rratio 0.25))
  (pad 102 smd roundrect (at 15.1625 2.275) (size 1.775 0.4) (layers F.Cu F.Mask F.Paste) (roundrect_rratio 0.25))
  (pad 103 smd roundrect (at 15.1625 1.625) (size 1.775 0.4) (layers F.Cu F.Mask F.Paste) (roundrect_rratio 0.25))
  (pad 104 smd roundrect (at 15.1625 0.975) (size 1.775 0.4) (layers F.Cu F.Mask F.Paste) (roundrect_rratio 0.25))
  (pad 105 smd roundrect (at 15.1625 0.325) (size 1.775 0.4) (layers F.Cu F.Mask F.Paste) (roundrect_rratio 0.25))
  (pad 106 smd roundrect (at 15.1625 -0.325) (size 1.775 0.4) (layers F.Cu F.Mask F.Paste) (roundrect_rratio 0.25))
  (pad 107 smd roundrect (at 15.1625 -0.975) (size 1.775 0.4) (layers F.Cu F.Mask F.Paste) (roundrect_rratio 0.25))
  (pad 108 smd roundrect (at 15.1625 -1.625) (size 1.775 0.4) (layers F.Cu F.Mask F.Paste) (roundrect_rratio 0.25))
  (pad 109 smd roundrect (at 15.1625 -2.275) (size 1.775 0.4) (layers F.Cu F.Mask F.Paste) (roundrect_rratio 0.25))
  (pad 110 smd roundrect (at 15.1625 -2.925) (size 1.775 0.4) (layers F.Cu F.Mask F.Paste) (roundrect_rratio 0.25))
  (pad 111 smd roundrect (at 15.1625 -3.575) (size 1.775 0.4) (layers F.Cu F.Mask F.Paste) (roundrect_rratio 0.25))
  (pad 112 smd roundrect (at 15.1625 -4.225) (size 1.775 0.4) (layers F.Cu F.Mask F.Paste) (roundrect_rratio 0.25))
  (pad 113 smd roundrect (at 15.1625 -4.875) (size 1.775 0.4) (layers F.Cu F.Mask F.Paste) (roundrect_rratio 0.25))
  (pad 114 smd roundrect (at 15.1625 -5.525) (size 1.775 0.4) (layers F.Cu F.Mask F.Paste) (roundrect_rratio 0.25))
  (pad 115 smd roundrect (at 15.1625 -6.175) (size 1.775 0.4) (layers F.Cu F.Mask F.Paste) (roundrect_rratio 0.25))
  (pad 116 smd roundrect (at 15.1625 -6.825) (size 1.775 0.4) (layers F.Cu F.Mask F.Paste) (roundrect_rratio 0.25))
  (pad 117 smd roundrect (at 15.1625 -7.475) (size 1.775 0.4) (layers F.Cu F.Mask F.Paste) (roundrect_rratio 0.25))
  (pad 118 smd roundrect (at 15.1625 -8.125) (size 1.775 0.4) (layers F.Cu F.Mask F.Paste) (roundrect_rratio 0.25))
  (pad 119 smd roundrect (at 15.1625 -8.775) (size 1.775 0.4) (layers F.Cu F.Mask F.Paste) (roundrect_rratio 0.25))
  (pad 120 smd roundrect (at 15.1625 -9.425) (size 1.775 0.4) (layers F.Cu F.Mask F.Paste) (roundrect_rratio 0.25))
  (pad 121 smd roundrect (at 15.1625 -10.075) (size 1.775 0.4) (layers F.Cu F.Mask F.Paste) (roundrect_rratio 0.25))
  (pad 122 smd roundrect (at 15.1625 -10.725) (size 1.775 0.4) (layers F.Cu F.Mask F.Paste) (roundrect_rratio 0.25))
  (pad 123 smd roundrect (at 15.1625 -11.375) (size 1.775 0.4) (layers F.Cu F.Mask F.Paste) (roundrect_rratio 0.25))
  (pad 124 smd roundrect (at 15.1625 -12.025) (size 1.775 0.4) (layers F.Cu F.Mask F.Paste) (roundrect_rratio 0.25))
  (pad 125 smd roundrect (at 15.1625 -12.675) (size 1.775 0.4) (layers F.Cu F.Mask F.Paste) (roundrect_rratio 0.25))
  (pad 126 smd roundrect (at 15.1625 -13.325) (size 1.775 0.4) (layers F.Cu F.Mask F.Paste) (roundrect_rratio 0.25))
  (pad 127 smd roundrect (at 13.325 -15.1625) (size 0.4 1.775) (layers F.Cu F.Mask F.Paste) (roundrect_rratio 0.25))
  (pad 128 smd roundrect (at 12.675 -15.1625) (size 0.4 1.775) (layers F.Cu F.Mask F.Paste) (roundrect_rratio 0.25))
  (pad 129 smd roundrect (at 12.025 -15.1625) (size 0.4 1.775) (layers F.Cu F.Mask F.Paste) (roundrect_rratio 0.25))
  (pad 130 smd roundrect (at 11.375 -15.1625) (size 0.4 1.775) (layers F.Cu F.Mask F.Paste) (roundrect_rratio 0.25))
  (pad 131 smd roundrect (at 10.725 -15.1625) (size 0.4 1.775) (layers F.Cu F.Mask F.Paste) (roundrect_rratio 0.25))
  (pad 132 smd roundrect (at 10.075 -15.1625) (size 0.4 1.775) (layers F.Cu F.Mask F.Paste) (roundrect_rratio 0.25))
  (pad 133 smd roundrect (at 9.425 -15.1625) (size 0.4 1.775) (layers F.Cu F.Mask F.Paste) (roundrect_rratio 0.25))
  (pad 134 smd roundrect (at 8.775 -15.1625) (size 0.4 1.775) (layers F.Cu F.Mask F.Paste) (roundrect_rratio 0.25))
  (pad 135 smd roundrect (at 8.125 -15.1625) (size 0.4 1.775) (layers F.Cu F.Mask F.Paste) (roundrect_rratio 0.25))
  (pad 136 smd roundrect (at 7.475 -15.1625) (size 0.4 1.775) (layers F.Cu F.Mask F.Paste) (roundrect_rratio 0.25))
  (pad 137 smd roundrect (at 6.825 -15.1625) (size 0.4 1.775) (layers F.Cu F.Mask F.Paste) (roundrect_rratio 0.25))
  (pad 138 smd roundrect (at 6.175 -15.1625) (size 0.4 1.775) (layers F.Cu F.Mask F.Paste) (roundrect_rratio 0.25))
  (pad 139 smd roundrect (at 5.525 -15.1625) (size 0.4 1.775) (layers F.Cu F.Mask F.Paste) (roundrect_rratio 0.25))
  (pad 140 smd roundrect (at 4.875 -15.1625) (size 0.4 1.775) (layers F.Cu F.Mask F.Paste) (roundrect_rratio 0.25))
  (pad 141 smd roundrect (at 4.225 -15.1625) (size 0.4 1.775) (layers F.Cu F.Mask F.Paste) (roundrect_rratio 0.25))
  (pad 142 smd roundrect (at 3.575 -15.1625) (size 0.4 1.775) (layers F.Cu F.Mask F.Paste) (roundrect_rratio 0.25))
  (pad 143 smd roundrect (at 2.925 -15.1625) (size 0.4 1.775) (layers F.Cu F.Mask F.Paste) (roundrect_rratio 0.25))
  (pad 144 smd roundrect (at 2.275 -15.1625) (size 0.4 1.775) (layers F.Cu F.Mask F.Paste) (roundrect_rratio 0.25))
  (pad 145 smd roundrect (at 1.625 -15.1625) (size 0.4 1.775) (layers F.Cu F.Mask F.Paste) (roundrect_rratio 0.25))
  (pad 146 smd roundrect (at 0.975 -15.1625) (size 0.4 1.775) (layers F.Cu F.Mask F.Paste) (roundrect_rratio 0.25))
  (pad 147 smd roundrect (at 0.325 -15.1625) (size 0.4 1.775) (layers F.Cu F.Mask F.Paste) (roundrect_rratio 0.25))
  (pad 148 smd roundrect (at -0.325 -15.1625) (size 0.4 1.775) (layers F.Cu F.Mask F.Paste) (roundrect_rratio 0.25))
  (pad 149 smd roundrect (at -0.975 -15.1625) (size 0.4 1.775) (layers F.Cu F.Mask F.Paste) (roundrect_rratio 0.25))
  (pad 150 smd roundrect (at -1.625 -15.1625) (size 0.4 1.775) (layers F.Cu F.Mask F.Paste) (roundrect_rratio 0.25))
  (pad 151 smd roundrect (at -2.275 -15.1625) (size 0.4 1.775) (layers F.Cu F.Mask F.Paste) (roundrect_rratio 0.25))
  (pad 152 smd roundrect (at -2.925 -15.1625) (size 0.4 1.775) (layers F.Cu F.Mask F.Paste) (roundrect_rratio 0.25))
  (pad 153 smd roundrect (at -3.575 -15.1625) (size 0.4 1.775) (layers F.Cu F.Mask F.Paste) (roundrect_rratio 0.25))
  (pad 154 smd roundrect (at -4.225 -15.1625) (size 0.4 1.775) (layers F.Cu F.Mask F.Paste) (roundrect_rratio 0.25))
  (pad 155 smd roundrect (at -4.875 -15.1625) (size 0.4 1.775) (layers F.Cu F.Mask F.Paste) (roundrect_rratio 0.25))
  (pad 156 smd roundrect (at -5.525 -15.1625) (size 0.4 1.775) (layers F.Cu F.Mask F.Paste) (roundrect_rratio 0.25))
  (pad 157 smd roundrect (at -6.175 -15.1625) (size 0.4 1.775) (layers F.Cu F.Mask F.Paste) (roundrect_rratio 0.25))
  (pad 158 smd roundrect (at -6.825 -15.1625) (size 0.4 1.775) (layers F.Cu F.Mask F.Paste) (roundrect_rratio 0.25))
  (pad 159 smd roundrect (at -7.475 -15.1625) (size 0.4 1.775) (layers F.Cu F.Mask F.Paste) (roundrect_rratio 0.25))
  (pad 160 smd roundrect (at -8.125 -15.1625) (size 0.4 1.775) (layers F.Cu F.Mask F.Paste) (roundrect_rratio 0.25))
  (pad 161 smd roundrect (at -8.775 -15.1625) (size 0.4 1.775) (layers F.Cu F.Mask F.Paste) (roundrect_rratio 0.25))
  (pad 162 smd roundrect (at -9.425 -15.1625) (size 0.4 1.775) (layers F.Cu F.Mask F.Paste) (roundrect_rratio 0.25))
  (pad 163 smd roundrect (at -10.075 -15.1625) (size 0.4 1.775) (layers F.Cu F.Mask F.Paste) (roundrect_rratio 0.25))
  (pad 164 smd roundrect (at -10.725 -15.1625) (size 0.4 1.775) (layers F.Cu F.Mask F.Paste) (roundrect_rratio 0.25))
  (pad 165 smd roundrect (at -11.375 -15.1625) (size 0.4 1.775) (layers F.Cu F.Mask F.Paste) (roundrect_rratio 0.25))
  (pad 166 smd roundrect (at -12.025 -15.1625) (size 0.4 1.775) (layers F.Cu F.Mask F.Paste) (roundrect_rratio 0.25))
  (pad 167 smd roundrect (at -12.675 -15.1625) (size 0.4 1.775) (layers F.Cu F.Mask F.Paste) (roundrect_rratio 0.25))
  (pad 168 smd roundrect (at -13.325 -15.1625) (size 0.4 1.775) (layers F.Cu F.Mask F.Paste) (roundrect_rratio 0.25))
  (fp_poly (pts (xy -15.025 -13.785) (xy -15.259 -14.1126) (xy -14.791 -14.1126) (xy -15.025 -13.785))
    (stroke (width 0.12) (type solid)) (fill solid) (layer F.SilkS))
  (fp_text user ${REFERENCE} (at 0 0) (layer F.Fab)
    (effects (font (size 1 1) (thickness 0.15)))
  )
  (model ${KICAD7_3DMODEL_DIR}/Package_QFP.3dshapes/PQFP-168_28x28mm_P0.65mm.wrl
    (offset (xyz 0 0 0))
    (scale (xyz 1 1 1))
    (rotate (xyz 0 0 0))
  )
)
