(footprint PQFP-32_5x5mm_P0.5mm (version 20221018) (generator kicad-footprint-generator)
  (layer F.Cu)
  (descr "PQFP, 32 Pin (https://www.ti.com/lit/ds/symlink/ads127l01.pdf#page=87), generated with kicad-footprint-generator ipc_gullwing_generator.py")
  (tags "PQFP QFP")
  (attr smd)
  (fp_text reference REF** (at 0 -4.88) (layer F.SilkS)
    (effects (font (size 1 1) (thickness 0.15)))
  )
  (fp_text value PQFP-32_5x5mm_P0.5mm (at 0 4.88) (layer F.Fab)
    (effects (font (size 1 1) (thickness 0.15)))
  )
  (fp_line (start 0 -4.18) (end -2.12 -4.18)
    (stroke (width 0.05) (type solid)) (layer F.CrtYd))
  (fp_line (start -2.12 -4.18) (end -2.12 -2.75)
    (stroke (width 0.05) (type solid)) (layer F.CrtYd))
  (fp_line (start -2.12 -2.75) (end -2.75 -2.75)
    (stroke (width 0.05) (type solid)) (layer F.CrtYd))
  (fp_line (start -2.75 -2.75) (end -2.75 -2.12)
    (stroke (width 0.05) (type solid)) (layer F.CrtYd))
  (fp_line (start -2.75 -2.12) (end -4.18 -2.12)
    (stroke (width 0.05) (type solid)) (layer F.CrtYd))
  (fp_line (start -4.18 -2.12) (end -4.18 0)
    (stroke (width 0.05) (type solid)) (layer F.CrtYd))
  (fp_line (start 0 -4.18) (end 2.12 -4.18)
    (stroke (width 0.05) (type solid)) (layer F.CrtYd))
  (fp_line (start 2.12 -4.18) (end 2.12 -2.75)
    (stroke (width 0.05) (type solid)) (layer F.CrtYd))
  (fp_line (start 2.12 -2.75) (end 2.75 -2.75)
    (stroke (width 0.05) (type solid)) (layer F.CrtYd))
  (fp_line (start 2.75 -2.75) (end 2.75 -2.12)
    (stroke (width 0.05) (type solid)) (layer F.CrtYd))
  (fp_line (start 2.75 -2.12) (end 4.18 -2.12)
    (stroke (width 0.05) (type solid)) (layer F.CrtYd))
  (fp_line (start 4.18 -2.12) (end 4.18 0)
    (stroke (width 0.05) (type solid)) (layer F.CrtYd))
  (fp_line (start 0 4.18) (end -2.12 4.18)
    (stroke (width 0.05) (type solid)) (layer F.CrtYd))
  (fp_line (start -2.12 4.18) (end -2.12 2.75)
    (stroke (width 0.05) (type solid)) (layer F.CrtYd))
  (fp_line (start -2.12 2.75) (end -2.75 2.75)
    (stroke (width 0.05) (type solid)) (layer F.CrtYd))
  (fp_line (start -2.75 2.75) (end -2.75 2.12)
    (stroke (width 0.05) (type solid)) (layer F.CrtYd))
  (fp_line (start -2.75 2.12) (end -4.18 2.12)
    (stroke (width 0.05) (type solid)) (layer F.CrtYd))
  (fp_line (start -4.18 2.12) (end -4.18 0)
    (stroke (width 0.05) (type solid)) (layer F.CrtYd))
  (fp_line (start 0 4.18) (end 2.12 4.18)
    (stroke (width 0.05) (type solid)) (layer F.CrtYd))
  (fp_line (start 2.12 4.18) (end 2.12 2.75)
    (stroke (width 0.05) (type solid)) (layer F.CrtYd))
  (fp_line (start 2.12 2.75) (end 2.75 2.75)
    (stroke (width 0.05) (type solid)) (layer F.CrtYd))
  (fp_line (start 2.75 2.75) (end 2.75 2.12)
    (stroke (width 0.05) (type solid)) (layer F.CrtYd))
  (fp_line (start 2.75 2.12) (end 4.18 2.12)
    (stroke (width 0.05) (type solid)) (layer F.CrtYd))
  (fp_line (start 4.18 2.12) (end 4.18 0)
    (stroke (width 0.05) (type solid)) (layer F.CrtYd))
  (fp_line (start 2.135 2.61) (end 2.61 2.61)
    (stroke (width 0.12) (type solid)) (layer F.SilkS))
  (fp_line (start 2.61 2.61) (end 2.61 2.135)
    (stroke (width 0.12) (type solid)) (layer F.SilkS))
  (fp_line (start -2.135 2.61) (end -2.61 2.61)
    (stroke (width 0.12) (type solid)) (layer F.SilkS))
  (fp_line (start -2.61 2.61) (end -2.61 2.135)
    (stroke (width 0.12) (type solid)) (layer F.SilkS))
  (fp_line (start 2.135 -2.61) (end 2.61 -2.61)
    (stroke (width 0.12) (type solid)) (layer F.SilkS))
  (fp_line (start 2.61 -2.61) (end 2.61 -2.135)
    (stroke (width 0.12) (type solid)) (layer F.SilkS))
  (fp_line (start -2.135 -2.61) (end -2.61 -2.61)
    (stroke (width 0.12) (type solid)) (layer F.SilkS))
  (fp_line (start -2.61 -2.61) (end -2.61 -2.135)
    (stroke (width 0.12) (type solid)) (layer F.SilkS))
  (fp_line (start -1.5 -2.5) (end 2.5 -2.5)
    (stroke (width 0.1) (type solid)) (layer F.Fab))
  (fp_line (start 2.5 -2.5) (end 2.5 2.5)
    (stroke (width 0.1) (type solid)) (layer F.Fab))
  (fp_line (start 2.5 2.5) (end -2.5 2.5)
    (stroke (width 0.1) (type solid)) (layer F.Fab))
  (fp_line (start -2.5 2.5) (end -2.5 -1.5)
    (stroke (width 0.1) (type solid)) (layer F.Fab))
  (fp_line (start -2.5 -1.5) (end -1.5 -2.5)
    (stroke (width 0.1) (type solid)) (layer F.Fab))
  (pad 1 smd roundrect (at -3.2 -1.75) (size 1.45 0.25) (layers F.Cu F.Mask F.Paste) (roundrect_rratio 0.25))
  (pad 2 smd roundrect (at -3.2 -1.25) (size 1.45 0.25) (layers F.Cu F.Mask F.Paste) (roundrect_rratio 0.25))
  (pad 3 smd roundrect (at -3.2 -0.75) (size 1.45 0.25) (layers F.Cu F.Mask F.Paste) (roundrect_rratio 0.25))
  (pad 4 smd roundrect (at -3.2 -0.25) (size 1.45 0.25) (layers F.Cu F.Mask F.Paste) (roundrect_rratio 0.25))
  (pad 5 smd roundrect (at -3.2 0.25) (size 1.45 0.25) (layers F.Cu F.Mask F.Paste) (roundrect_rratio 0.25))
  (pad 6 smd roundrect (at -3.2 0.75) (size 1.45 0.25) (layers F.Cu F.Mask F.Paste) (roundrect_rratio 0.25))
  (pad 7 smd roundrect (at -3.2 1.25) (size 1.45 0.25) (layers F.Cu F.Mask F.Paste) (roundrect_rratio 0.25))
  (pad 8 smd roundrect (at -3.2 1.75) (size 1.45 0.25) (layers F.Cu F.Mask F.Paste) (roundrect_rratio 0.25))
  (pad 9 smd roundrect (at -1.75 3.2) (size 0.25 1.45) (layers F.Cu F.Mask F.Paste) (roundrect_rratio 0.25))
  (pad 10 smd roundrect (at -1.25 3.2) (size 0.25 1.45) (layers F.Cu F.Mask F.Paste) (roundrect_rratio 0.25))
  (pad 11 smd roundrect (at -0.75 3.2) (size 0.25 1.45) (layers F.Cu F.Mask F.Paste) (roundrect_rratio 0.25))
  (pad 12 smd roundrect (at -0.25 3.2) (size 0.25 1.45) (layers F.Cu F.Mask F.Paste) (roundrect_rratio 0.25))
  (pad 13 smd roundrect (at 0.25 3.2) (size 0.25 1.45) (layers F.Cu F.Mask F.Paste) (roundrect_rratio 0.25))
  (pad 14 smd roundrect (at 0.75 3.2) (size 0.25 1.45) (layers F.Cu F.Mask F.Paste) (roundrect_rratio 0.25))
  (pad 15 smd roundrect (at 1.25 3.2) (size 0.25 1.45) (layers F.Cu F.Mask F.Paste) (roundrect_rratio 0.25))
  (pad 16 smd roundrect (at 1.75 3.2) (size 0.25 1.45) (layers F.Cu F.Mask F.Paste) (roundrect_rratio 0.25))
  (pad 17 smd roundrect (at 3.2 1.75) (size 1.45 0.25) (layers F.Cu F.Mask F.Paste) (roundrect_rratio 0.25))
  (pad 18 smd roundrect (at 3.2 1.25) (size 1.45 0.25) (layers F.Cu F.Mask F.Paste) (roundrect_rratio 0.25))
  (pad 19 smd roundrect (at 3.2 0.75) (size 1.45 0.25) (layers F.Cu F.Mask F.Paste) (roundrect_rratio 0.25))
  (pad 20 smd roundrect (at 3.2 0.25) (size 1.45 0.25) (layers F.Cu F.Mask F.Paste) (roundrect_rratio 0.25))
  (pad 21 smd roundrect (at 3.2 -0.25) (size 1.45 0.25) (layers F.Cu F.Mask F.Paste) (roundrect_rratio 0.25))
  (pad 22 smd roundrect (at 3.2 -0.75) (size 1.45 0.25) (layers F.Cu F.Mask F.Paste) (roundrect_rratio 0.25))
  (pad 23 smd roundrect (at 3.2 -1.25) (size 1.45 0.25) (layers F.Cu F.Mask F.Paste) (roundrect_rratio 0.25))
  (pad 24 smd roundrect (at 3.2 -1.75) (size 1.45 0.25) (layers F.Cu F.Mask F.Paste) (roundrect_rratio 0.25))
  (pad 25 smd roundrect (at 1.75 -3.2) (size 0.25 1.45) (layers F.Cu F.Mask F.Paste) (roundrect_rratio 0.25))
  (pad 26 smd roundrect (at 1.25 -3.2) (size 0.25 1.45) (layers F.Cu F.Mask F.Paste) (roundrect_rratio 0.25))
  (pad 27 smd roundrect (at 0.75 -3.2) (size 0.25 1.45) (layers F.Cu F.Mask F.Paste) (roundrect_rratio 0.25))
  (pad 28 smd roundrect (at 0.25 -3.2) (size 0.25 1.45) (layers F.Cu F.Mask F.Paste) (roundrect_rratio 0.25))
  (pad 29 smd roundrect (at -0.25 -3.2) (size 0.25 1.45) (layers F.Cu F.Mask F.Paste) (roundrect_rratio 0.25))
  (pad 30 smd roundrect (at -0.75 -3.2) (size 0.25 1.45) (layers F.Cu F.Mask F.Paste) (roundrect_rratio 0.25))
  (pad 31 smd roundrect (at -1.25 -3.2) (size 0.25 1.45) (layers F.Cu F.Mask F.Paste) (roundrect_rratio 0.25))
  (pad 32 smd roundrect (at -1.75 -3.2) (size 0.25 1.45) (layers F.Cu F.Mask F.Paste) (roundrect_rratio 0.25))
  (fp_poly (pts (xy -3.2125 -2.135) (xy -3.4465 -2.4626) (xy -2.9785 -2.4626) (xy -3.2125 -2.135))
    (stroke (width 0.12) (type solid)) (fill solid) (layer F.SilkS))
  (fp_text user ${REFERENCE} (at 0 0) (layer F.Fab)
    (effects (font (size 1 1) (thickness 0.15)))
  )
  (model ${KICAD7_3DMODEL_DIR}/Package_QFP.3dshapes/PQFP-32_5x5mm_P0.5mm.wrl
    (offset (xyz 0 0 0))
    (scale (xyz 1 1 1))
    (rotate (xyz 0 0 0))
  )
)
