(footprint "ESP32-C3-WROOM-02" (version 20221018) (generator pcbnew)
  (layer "F.Cu")
  (descr "RF Module, ESP32-C3 WROOM-02, Wi-Fi and Bluetooth, BLE, onboard antenna, https://www.espressif.com/sites/default/files/documentation/esp32-c3-wroom-02_datasheet_en.pdf")
  (tags "ESP32-C3 WROOM-02 espressif")
  (attr smd)
  (fp_text reference "REF**" (at -10.5 5.13 90) (layer "F.SilkS")
      (effects (font (size 1 1) (thickness 0.15)))
    (tstamp 40678ab1-a226-4468-92d5-584239dee7fd)
  )
  (fp_text value "ESP32-C3-WROOM-02" (at 0 8) (layer "F.Fab")
      (effects (font (size 1 1) (thickness 0.15)))
    (tstamp f2ce1a4a-bf01-484a-83e1-44c60699383f)
  )
  (fp_text user "Antenna" (at 0 -10) (layer "Cmts.User")
      (effects (font (size 1 1) (thickness 0.15)))
    (tstamp 7ef8f408-800d-47f9-b236-8508a21da774)
  )
  (fp_text user "KEEP-OUT ZONE" (at 0 -16) (layer "Cmts.User")
      (effects (font (size 1 1) (thickness 0.15)))
    (tstamp 9bc5e4e5-31fa-43b0-9228-fba62f146bce)
  )
  (fp_text user "5 mm" (at 7.8 -15.9 90) (layer "Cmts.User")
      (effects (font (size 0.5 0.5) (thickness 0.1)))
    (tstamp d82cf81c-95ca-4551-8be1-8a2b240ed0e8)
  )
  (fp_text user "5 mm" (at 11.8 -11.2) (layer "Cmts.User")
      (effects (font (size 0.5 0.5) (thickness 0.1)))
    (tstamp e61ea688-5cb7-4cba-b20c-8d43f0019d4b)
  )
  (fp_text user "${REFERENCE}" (at 0 0) (layer "F.Fab")
      (effects (font (size 1 1) (thickness 0.15)))
    (tstamp 0db5e114-1129-446d-a4a8-fe790a334d84)
  )
  (fp_line (start -9.11 -13.21) (end -9.11 -7.2)
    (stroke (width 0.12) (type solid)) (layer "F.SilkS") (tstamp 6626d908-57db-4a80-ac08-5b3d94a5d484))
  (fp_line (start -9.11 -13.21) (end 9.11 -13.21)
    (stroke (width 0.12) (type solid)) (layer "F.SilkS") (tstamp 0222acb4-55a9-483d-8336-e72905682f11))
  (fp_line (start -9.11 -7.2) (end -10 -7.2)
    (stroke (width 0.12) (type solid)) (layer "F.SilkS") (tstamp cdc38a74-5d2c-4880-a3fb-361893e4f9df))
  (fp_line (start -9.11 6.71) (end -9.11 7.01)
    (stroke (width 0.12) (type solid)) (layer "F.SilkS") (tstamp b8d96c32-e98e-479b-a455-04319a0b75e9))
  (fp_line (start -9.11 7.01) (end 9.11 7.01)
    (stroke (width 0.12) (type solid)) (layer "F.SilkS") (tstamp 56c41676-bcab-4c90-a4a3-fd1aa7cabab1))
  (fp_line (start 9.11 -13.21) (end 9.11 -6.71)
    (stroke (width 0.12) (type solid)) (layer "F.SilkS") (tstamp 6cbae790-a246-4427-9215-b3880c4f3588))
  (fp_line (start 9.11 6.71) (end 9.11 7.01)
    (stroke (width 0.12) (type solid)) (layer "F.SilkS") (tstamp 2777ef70-f0e7-4169-8851-18e832cef45f))
  (fp_line (start -13.8 -10.7) (end -13.6 -10.9)
    (stroke (width 0.1) (type solid)) (layer "Cmts.User") (tstamp 16991473-75d8-4c90-8526-2725a63e0d5a))
  (fp_line (start -13.8 -10.7) (end -13.6 -10.5)
    (stroke (width 0.1) (type solid)) (layer "Cmts.User") (tstamp 6a19418b-5422-4a5e-8150-d3da55e4d9c2))
  (fp_line (start -13.8 -10.7) (end -9.2 -10.7)
    (stroke (width 0.1) (type solid)) (layer "Cmts.User") (tstamp 04d620e3-262b-407d-b4da-6f236e1d6eb2))
  (fp_line (start -9.2 -10.7) (end -9.4 -10.9)
    (stroke (width 0.1) (type solid)) (layer "Cmts.User") (tstamp 3464746d-ebd5-47d4-9c6b-70d72ce8ea87))
  (fp_line (start -9.2 -10.7) (end -9.4 -10.5)
    (stroke (width 0.1) (type solid)) (layer "Cmts.User") (tstamp 9f14aa41-d015-4b20-ae7f-388caa875f3f))
  (fp_line (start 8.3 -17.9) (end 8.1 -17.7)
    (stroke (width 0.1) (type solid)) (layer "Cmts.User") (tstamp cbed84d4-c991-4ae8-bb4f-6b38b757719a))
  (fp_line (start 8.3 -17.9) (end 8.5 -17.7)
    (stroke (width 0.1) (type solid)) (layer "Cmts.User") (tstamp 82d3ce26-a8dd-47c0-91e6-31451fd0f761))
  (fp_line (start 8.3 -13.3) (end 8.1 -13.5)
    (stroke (width 0.1) (type solid)) (layer "Cmts.User") (tstamp 47a0b20d-44be-4b02-917b-cdab24fae1ff))
  (fp_line (start 8.3 -13.3) (end 8.3 -17.9)
    (stroke (width 0.1) (type solid)) (layer "Cmts.User") (tstamp bf1b6ffd-0b81-4f69-b316-8816ad602b4a))
  (fp_line (start 8.3 -13.3) (end 8.5 -13.5)
    (stroke (width 0.1) (type solid)) (layer "Cmts.User") (tstamp 77833087-50b2-4256-9d6c-e3e5806bf455))
  (fp_line (start 9.2 -10.7) (end 9.4 -10.9)
    (stroke (width 0.1) (type solid)) (layer "Cmts.User") (tstamp 4f5841ce-8499-4b18-8a12-75a386cb9b9b))
  (fp_line (start 9.2 -10.7) (end 9.4 -10.5)
    (stroke (width 0.1) (type solid)) (layer "Cmts.User") (tstamp 7ffe8167-a376-4e05-b20c-e58f0547a5da))
  (fp_line (start 9.2 -10.7) (end 13.8 -10.7)
    (stroke (width 0.1) (type solid)) (layer "Cmts.User") (tstamp f7e7af39-305e-4412-b37b-8df36a45951f))
  (fp_line (start 13.8 -10.7) (end 13.6 -10.9)
    (stroke (width 0.1) (type solid)) (layer "Cmts.User") (tstamp e13ac23b-c569-4ac5-9362-5681d6ec91ab))
  (fp_line (start 13.8 -10.7) (end 13.6 -10.5)
    (stroke (width 0.1) (type solid)) (layer "Cmts.User") (tstamp 4e6238b6-a628-4cb5-811c-492feafdea38))
  (fp_line (start -14.25 -18.35) (end -14.25 -6.85)
    (stroke (width 0.05) (type solid)) (layer "F.CrtYd") (tstamp 389a045d-a84c-449b-97e5-6ca1ecb94392))
  (fp_line (start -14.25 -18.35) (end 14.25 -18.35)
    (stroke (width 0.05) (type solid)) (layer "F.CrtYd") (tstamp 97080f17-bf6b-45da-bdfb-247b79da55fb))
  (fp_line (start -14.25 -6.85) (end -9.75 -6.85)
    (stroke (width 0.05) (type solid)) (layer "F.CrtYd") (tstamp e2a77ce0-49ce-4728-b89b-7964b155bb89))
  (fp_line (start -9.75 7.15) (end -9.75 -6.85)
    (stroke (width 0.05) (type solid)) (layer "F.CrtYd") (tstamp 5ed911a7-a1c4-4234-8c92-c7d000650d5b))
  (fp_line (start -9.75 7.15) (end 9.75 7.15)
    (stroke (width 0.05) (type solid)) (layer "F.CrtYd") (tstamp db3f49d6-4b99-4c85-a31b-96056cd311fd))
  (fp_line (start 9.75 -6.85) (end 9.75 7.15)
    (stroke (width 0.05) (type solid)) (layer "F.CrtYd") (tstamp 0527b99d-2455-4f36-8914-fdda1b9f40b7))
  (fp_line (start 9.75 -6.85) (end 14.25 -6.85)
    (stroke (width 0.05) (type solid)) (layer "F.CrtYd") (tstamp c7047a08-bb09-4498-8975-1d10c06601a4))
  (fp_line (start 14.25 -18.35) (end 14.25 -6.85)
    (stroke (width 0.05) (type solid)) (layer "F.CrtYd") (tstamp 09c000e3-2d86-4f0f-a841-1d1ccc28f8f3))
  (fp_line (start -9 -13.1) (end -9 -6.5)
    (stroke (width 0.1) (type solid)) (layer "F.Fab") (tstamp 8a77e958-c77f-4846-80e3-a40107aba4ad))
  (fp_line (start -9 -13.1) (end 9 -13.1)
    (stroke (width 0.1) (type solid)) (layer "F.Fab") (tstamp 86136fec-8653-4503-81f7-4ef8e277f968))
  (fp_line (start -9 -6.5) (end -8.5 -6)
    (stroke (width 0.1) (type solid)) (layer "F.Fab") (tstamp 45846b86-8334-4247-bf40-76daa1c70fb6))
  (fp_line (start -9 -5.5) (end -9 6.9)
    (stroke (width 0.1) (type solid)) (layer "F.Fab") (tstamp 522c3e88-f978-4e3f-9ee3-9825b6f135f1))
  (fp_line (start -9 6.9) (end 9 6.9)
    (stroke (width 0.1) (type solid)) (layer "F.Fab") (tstamp b83beee0-2ff5-4c6e-a8d2-7ca26d5f3e25))
  (fp_line (start -8.5 -6) (end -9 -5.5)
    (stroke (width 0.1) (type solid)) (layer "F.Fab") (tstamp 78b9d106-d104-4048-9770-556ad1be900e))
  (fp_line (start 9 6.9) (end 9 -13.1)
    (stroke (width 0.1) (type solid)) (layer "F.Fab") (tstamp 5da8266b-1892-4b3d-805a-1e63b28786f7))
  (pad "" smd rect (at -0.14 -0.9) (size 0.7 0.7) (layers "F.Paste") (tstamp 938b2454-cfa1-4b26-b3d5-b2892c805c81))
  (pad "" smd rect (at -0.14 0.2) (size 0.7 0.7) (layers "F.Paste") (tstamp 470a15a9-9fca-48d3-b153-6a35e1f3e7b4))
  (pad "" smd rect (at -0.14 1.3) (size 0.7 0.7) (layers "F.Paste") (tstamp b8518b96-1dfd-4cd9-b363-b7dd51b8e4ed))
  (pad "" smd rect (at 0.96 -0.9) (size 0.7 0.7) (layers "F.Paste") (tstamp 5ccf1993-0be3-4da0-90bf-5cff4cc9fcff))
  (pad "" smd rect (at 0.96 0.2) (size 0.7 0.7) (layers "F.Paste") (tstamp 8edeff07-534c-48a9-b034-04799c0fcb51))
  (pad "" smd rect (at 0.96 1.3) (size 0.7 0.7) (layers "F.Paste") (tstamp d523ebb4-347d-4657-a020-8a3ed336aae5))
  (pad "" smd rect (at 2.06 -0.9) (size 0.7 0.7) (layers "F.Paste") (tstamp 2c467bf6-09b3-489a-b666-90a0d0cdc766))
  (pad "" smd rect (at 2.06 0.2) (size 0.7 0.7) (layers "F.Paste") (tstamp 45cf7822-d538-4e8f-99f5-3b173bdeb79f))
  (pad "" smd rect (at 2.06 1.3) (size 0.7 0.7) (layers "F.Paste") (tstamp 152d2efb-09b6-4cc5-bce8-31d01f5bc3a3))
  (pad "1" smd rect (at -8.75 -6) (size 1.5 0.9) (layers "F.Cu" "F.Paste" "F.Mask") (tstamp c3814f68-e482-4d7f-b0ad-86d1081acd71))
  (pad "2" smd rect (at -8.75 -4.5) (size 1.5 0.9) (layers "F.Cu" "F.Paste" "F.Mask") (tstamp 219c9893-5a85-45c5-8848-c55eeb10f3e6))
  (pad "3" smd rect (at -8.75 -3) (size 1.5 0.9) (layers "F.Cu" "F.Paste" "F.Mask") (tstamp 644cd9ab-91c8-482d-9c6d-e4a3418f6617))
  (pad "4" smd rect (at -8.75 -1.5) (size 1.5 0.9) (layers "F.Cu" "F.Paste" "F.Mask") (tstamp 06261f57-1ec8-47a8-9ecc-1baff5368086))
  (pad "5" smd rect (at -8.75 0) (size 1.5 0.9) (layers "F.Cu" "F.Paste" "F.Mask") (tstamp aca77633-dc3a-4541-b729-629c026d1a29))
  (pad "6" smd rect (at -8.75 1.5) (size 1.5 0.9) (layers "F.Cu" "F.Paste" "F.Mask") (tstamp 034554e7-bfbe-4c5c-8ee2-04b62ac75443))
  (pad "7" smd rect (at -8.75 3) (size 1.5 0.9) (layers "F.Cu" "F.Paste" "F.Mask") (tstamp 32822211-948d-40fd-bc14-bc5cdd2e6b2a))
  (pad "8" smd rect (at -8.75 4.5) (size 1.5 0.9) (layers "F.Cu" "F.Paste" "F.Mask") (tstamp 949247b5-80f5-4812-a2f4-a34f00e13784))
  (pad "9" smd rect (at -8.75 6) (size 1.5 0.9) (layers "F.Cu" "F.Paste" "F.Mask") (tstamp 78567d02-2284-4f67-9876-efc98655832e))
  (pad "10" smd rect (at 8.75 6) (size 1.5 0.9) (layers "F.Cu" "F.Paste" "F.Mask") (tstamp 8538e572-9bb9-4797-b564-dcb4695b2dff))
  (pad "11" smd rect (at 8.75 4.5) (size 1.5 0.9) (layers "F.Cu" "F.Paste" "F.Mask") (tstamp 4d59fb19-f4c7-4efe-ac79-c15574a26dea))
  (pad "12" smd rect (at 8.75 3) (size 1.5 0.9) (layers "F.Cu" "F.Paste" "F.Mask") (tstamp 75a7d238-6220-4d67-b2f4-cbea22230d5c))
  (pad "13" smd rect (at 8.75 1.5) (size 1.5 0.9) (layers "F.Cu" "F.Paste" "F.Mask") (tstamp b5f58d12-d4b7-494f-bea1-a0477dcfe68a))
  (pad "14" smd rect (at 8.75 0) (size 1.5 0.9) (layers "F.Cu" "F.Paste" "F.Mask") (tstamp d636be21-b912-4d44-9f3d-0f744d6ecd4e))
  (pad "15" smd rect (at 8.75 -1.5) (size 1.5 0.9) (layers "F.Cu" "F.Paste" "F.Mask") (tstamp 0a49d8d2-a306-4139-b262-0efb8a88b6aa))
  (pad "16" smd rect (at 8.75 -3) (size 1.5 0.9) (layers "F.Cu" "F.Paste" "F.Mask") (tstamp 3143dceb-f470-463a-b9dd-d94f9782fe3b))
  (pad "17" smd rect (at 8.75 -4.5) (size 1.5 0.9) (layers "F.Cu" "F.Paste" "F.Mask") (tstamp 7bcf70e5-839e-496c-a01c-e74f27feb611))
  (pad "18" smd rect (at 8.75 -6) (size 1.5 0.9) (layers "F.Cu" "F.Paste" "F.Mask") (tstamp 0d03c3fa-7a75-4e94-97da-34f96d1cfb5a))
  (pad "19" thru_hole circle (at -0.14 -0.35) (size 0.6 0.6) (drill 0.2) (property pad_prop_heatsink) (layers "*.Cu" "F.Mask") (tstamp 7a0ba74e-a4e6-4459-9ce9-a87413a1c016))
  (pad "19" thru_hole circle (at -0.14 0.75) (size 0.6 0.6) (drill 0.2) (property pad_prop_heatsink) (layers "*.Cu" "F.Mask") (tstamp 2aa0c3b9-2be2-4120-afb2-57ba752cd18f))
  (pad "19" thru_hole circle (at 0.41 -0.9) (size 0.6 0.6) (drill 0.2) (property pad_prop_heatsink) (layers "*.Cu" "F.Mask") (tstamp ef8ab1c1-2da1-47f6-ac96-63681a8089b8))
  (pad "19" thru_hole circle (at 0.41 0.2) (size 0.6 0.6) (drill 0.2) (property pad_prop_heatsink) (layers "*.Cu" "F.Mask") (tstamp 5c60c9ce-c59f-4adf-931f-d53a076090ee))
  (pad "19" thru_hole circle (at 0.41 1.3) (size 0.6 0.6) (drill 0.2) (property pad_prop_heatsink) (layers "*.Cu" "F.Mask") (tstamp 3f913f8d-2341-4064-8eb2-e7d0505f439f))
  (pad "19" thru_hole circle (at 0.96 -0.35) (size 0.6 0.6) (drill 0.2) (property pad_prop_heatsink) (layers "*.Cu" "F.Mask") (tstamp d2e296a5-64e3-4ca3-8b7f-0e96150d4b08))
  (pad "19" smd rect (at 0.96 0.2) (size 2.9 2.9) (layers "F.Cu" "F.Mask") (tstamp 57864fe0-6cf0-444c-b20f-0860644b8944))
  (pad "19" thru_hole circle (at 0.96 0.75) (size 0.6 0.6) (drill 0.2) (property pad_prop_heatsink) (layers "*.Cu" "F.Mask") (tstamp 03049112-f8f4-45e9-a28f-a583b089b3ce))
  (pad "19" thru_hole circle (at 1.51 -0.9) (size 0.6 0.6) (drill 0.2) (property pad_prop_heatsink) (layers "*.Cu" "F.Mask") (tstamp 4a52b9fa-f3bd-42bf-ad80-d8e8ad6f5126))
  (pad "19" thru_hole circle (at 1.51 0.2) (size 0.6 0.6) (drill 0.2) (property pad_prop_heatsink) (layers "*.Cu" "F.Mask") (tstamp 297533a1-5795-4e77-bc06-774262d66227))
  (pad "19" thru_hole circle (at 1.51 1.3) (size 0.6 0.6) (drill 0.2) (property pad_prop_heatsink) (layers "*.Cu" "F.Mask") (tstamp 5b861db1-566f-43d1-894f-1c7fb4b72aa3))
  (pad "19" thru_hole circle (at 2.06 -0.35) (size 0.6 0.6) (drill 0.2) (property pad_prop_heatsink) (layers "*.Cu" "F.Mask") (tstamp bdd067da-31d8-4a5e-a62c-2b9978398e58))
  (pad "19" thru_hole circle (at 2.06 0.75) (size 0.6 0.6) (drill 0.2) (property pad_prop_heatsink) (layers "*.Cu" "F.Mask") (tstamp dafd2eec-d7b0-4b9f-8c92-0382ef8b533b))
  (zone (net 0) (net_name "") (layers "*.Cu") (tstamp 0048f0ae-7a40-45b3-95ba-3ba92bea9acc) (hatch full 0.508)
    (connect_pads (clearance 0))
    (min_thickness 0.254) (filled_areas_thickness no)
    (keepout (tracks not_allowed) (vias not_allowed) (pads not_allowed) (copperpour not_allowed) (footprints not_allowed))
    (fill (thermal_gap 0.508) (thermal_bridge_width 0.508))
    (polygon
      (pts
        (xy -14 -7.1)
        (xy 14 -7.1)
        (xy 14 -18.1)
        (xy -14 -18.1)
      )
    )
  )
  (model "${KICAD7_3DMODEL_DIR}/RF_Module.3dshapes/ESP32-C3-WROOM-02.wrl"
    (offset (xyz 0 0 0))
    (scale (xyz 1 1 1))
    (rotate (xyz 0 0 0))
  )
)
