(footprint LGA-8_8x6mm_P1.27mm (version 20221018) (generator kicad-footprint-generator)
  (layer F.Cu)
  (descr "LGA, 8 Pin (https://datasheet.lcsc.com/lcsc/2005251034_XTX-XTSD01GLGEAG_C558837.pdf#page=6), generated with kicad-footprint-generator ipc_noLead_generator.py")
  (tags "LGA NoLead")
  (attr smd)
  (fp_text reference REF** (at 0 -3.95) (layer F.SilkS)
    (effects (font (size 1 1) (thickness 0.15)))
  )
  (fp_text value LGA-8_8x6mm_P1.27mm (at 0 3.95) (layer F.Fab)
    (effects (font (size 1 1) (thickness 0.15)))
  )
  (fp_line (start -4 -3.11) (end 4 -3.11)
    (stroke (width 0.12) (type solid)) (layer F.SilkS))
  (fp_line (start -4 3.11) (end 4 3.11)
    (stroke (width 0.12) (type solid)) (layer F.SilkS))
  (fp_line (start -3 -3) (end 4 -3)
    (stroke (width 0.1) (type solid)) (layer F.Fab))
  (fp_line (start 4 -3) (end 4 3)
    (stroke (width 0.1) (type solid)) (layer F.Fab))
  (fp_line (start 4 3) (end -4 3)
    (stroke (width 0.1) (type solid)) (layer F.Fab))
  (fp_line (start -4 3) (end -4 -2)
    (stroke (width 0.1) (type solid)) (layer F.Fab))
  (fp_line (start -4 -2) (end -3 -3)
    (stroke (width 0.1) (type solid)) (layer F.Fab))
  (fp_line (start -4.61 -3.25) (end -4.61 3.25)
    (stroke (width 0.05) (type solid)) (layer F.CrtYd))
  (fp_line (start -4.61 3.25) (end 4.61 3.25)
    (stroke (width 0.05) (type solid)) (layer F.CrtYd))
  (fp_line (start 4.61 3.25) (end 4.61 -3.25)
    (stroke (width 0.05) (type solid)) (layer F.CrtYd))
  (fp_line (start 4.61 -3.25) (end -4.61 -3.25)
    (stroke (width 0.05) (type solid)) (layer F.CrtYd))
  (pad 1 smd roundrect (at -3.75 -1.905) (size 1.2 0.6) (layers F.Cu F.Mask F.Paste) (roundrect_rratio 0.25))
  (pad 2 smd roundrect (at -3.75 -0.635) (size 1.2 0.6) (layers F.Cu F.Mask F.Paste) (roundrect_rratio 0.25))
  (pad 3 smd roundrect (at -3.75 0.635) (size 1.2 0.6) (layers F.Cu F.Mask F.Paste) (roundrect_rratio 0.25))
  (pad 4 smd roundrect (at -3.75 1.905) (size 1.2 0.6) (layers F.Cu F.Mask F.Paste) (roundrect_rratio 0.25))
  (pad 5 smd roundrect (at 3.75 1.905) (size 1.2 0.6) (layers F.Cu F.Mask F.Paste) (roundrect_rratio 0.25))
  (pad 6 smd roundrect (at 3.75 0.635) (size 1.2 0.6) (layers F.Cu F.Mask F.Paste) (roundrect_rratio 0.25))
  (pad 7 smd roundrect (at 3.75 -0.635) (size 1.2 0.6) (layers F.Cu F.Mask F.Paste) (roundrect_rratio 0.25))
  (pad 8 smd roundrect (at 3.75 -1.905) (size 1.2 0.6) (layers F.Cu F.Mask F.Paste) (roundrect_rratio 0.25))
  (fp_poly (pts (xy -4.49 -2.35) (xy -5.125 -2.35) (xy -4.49 -2.985) (xy -4.49 -2.35))
    (stroke (width 0.12) (type solid)) (fill solid) (layer F.SilkS))
  (fp_text user ${REFERENCE} (at 0 0) (layer F.Fab)
    (effects (font (size 1 1) (thickness 0.15)))
  )
  (model ${KICAD7_3DMODEL_DIR}/Package_LGA.3dshapes/LGA-8_8x6mm_P1.27mm.wrl
    (offset (xyz 0 0 0))
    (scale (xyz 1 1 1))
    (rotate (xyz 0 0 0))
  )
)
