(footprint SON-8-1EP_3x2mm_P0.5mm_EP1.4x1.6mm (version 20221018) (generator kicad-footprint-generator)
  (layer F.Cu)
  (descr "SON, 8 Pin (http://www.fujitsu.com/downloads/MICRO/fsa/pdf/products/memory/fram/MB85RS16-DS501-00014-6v0-E.pdf), generated with kicad-footprint-generator ipc_noLead_generator.py")
  (tags "SON NoLead")
  (attr smd)
  (fp_text reference REF** (at 0 -1.95) (layer F.SilkS)
    (effects (font (size 1 1) (thickness 0.15)))
  )
  (fp_text value SON-8-1EP_3x2mm_P0.5mm_EP1.4x1.6mm (at 0 1.95) (layer F.Fab)
    (effects (font (size 1 1) (thickness 0.15)))
  )
  (fp_line (start -1.47 -1.185) (end 1.5 -1.185)
    (stroke (width 0.12) (type solid)) (layer F.SilkS))
  (fp_line (start -1.5 1.185) (end 1.5 1.185)
    (stroke (width 0.12) (type solid)) (layer F.SilkS))
  (fp_line (start -1 -1) (end 1.5 -1)
    (stroke (width 0.1) (type solid)) (layer F.Fab))
  (fp_line (start 1.5 -1) (end 1.5 1)
    (stroke (width 0.1) (type solid)) (layer F.Fab))
  (fp_line (start 1.5 1) (end -1.5 1)
    (stroke (width 0.1) (type solid)) (layer F.Fab))
  (fp_line (start -1.5 1) (end -1.5 -0.5)
    (stroke (width 0.1) (type solid)) (layer F.Fab))
  (fp_line (start -1.5 -0.5) (end -1 -1)
    (stroke (width 0.1) (type solid)) (layer F.Fab))
  (fp_line (start -1.8 -1.25) (end -1.8 1.25)
    (stroke (width 0.05) (type solid)) (layer F.CrtYd))
  (fp_line (start -1.8 1.25) (end 1.8 1.25)
    (stroke (width 0.05) (type solid)) (layer F.CrtYd))
  (fp_line (start 1.8 1.25) (end 1.8 -1.25)
    (stroke (width 0.05) (type solid)) (layer F.CrtYd))
  (fp_line (start 1.8 -1.25) (end -1.8 -1.25)
    (stroke (width 0.05) (type solid)) (layer F.CrtYd))
  (pad 1 smd roundrect (at -1.2875 -0.75) (size 0.525 0.35) (layers F.Cu F.Mask F.Paste) (roundrect_rratio 0.25))
  (pad 2 smd roundrect (at -1.2875 -0.25) (size 0.525 0.35) (layers F.Cu F.Mask F.Paste) (roundrect_rratio 0.25))
  (pad 3 smd roundrect (at -1.2875 0.25) (size 0.525 0.35) (layers F.Cu F.Mask F.Paste) (roundrect_rratio 0.25))
  (pad 4 smd roundrect (at -1.2875 0.75) (size 0.525 0.35) (layers F.Cu F.Mask F.Paste) (roundrect_rratio 0.25))
  (pad 5 smd roundrect (at 1.2875 0.75) (size 0.525 0.35) (layers F.Cu F.Mask F.Paste) (roundrect_rratio 0.25))
  (pad 6 smd roundrect (at 1.2875 0.25) (size 0.525 0.35) (layers F.Cu F.Mask F.Paste) (roundrect_rratio 0.25))
  (pad 7 smd roundrect (at 1.2875 -0.25) (size 0.525 0.35) (layers F.Cu F.Mask F.Paste) (roundrect_rratio 0.25))
  (pad 8 smd roundrect (at 1.2875 -0.75) (size 0.525 0.35) (layers F.Cu F.Mask F.Paste) (roundrect_rratio 0.25))
  (pad 9 smd rect (at 0 0) (size 1.4 1.6) (property pad_prop_heatsink) (layers F.Cu F.Mask)
    (zone_connect 2))
  (pad "" smd roundrect (at -0.35 -0.4) (size 0.56 0.64) (layers F.Paste) (roundrect_rratio 0.25))
  (pad "" smd roundrect (at -0.35 0.4) (size 0.56 0.64) (layers F.Paste) (roundrect_rratio 0.25))
  (pad "" smd roundrect (at 0.35 -0.4) (size 0.56 0.64) (layers F.Paste) (roundrect_rratio 0.25))
  (pad "" smd roundrect (at 0.35 0.4) (size 0.56 0.64) (layers F.Paste) (roundrect_rratio 0.25))
  (fp_poly (pts (xy -1.71 -1.09) (xy -2.07 -1.09) (xy -1.71 -1.45) (xy -1.71 -1.09))
    (stroke (width 0.12) (type solid)) (fill solid) (layer F.SilkS))
  (fp_text user ${REFERENCE} (at 0 0) (layer F.Fab)
    (effects (font (size 0.75 0.75) (thickness 0.11)))
  )
  (model ${KICAD7_3DMODEL_DIR}/Package_SON.3dshapes/SON-8-1EP_3x2mm_P0.5mm_EP1.4x1.6mm.wrl
    (offset (xyz 0 0 0))
    (scale (xyz 1 1 1))
    (rotate (xyz 0 0 0))
  )
)
