(footprint Texas_R-PUSON-N8_USON-8-1EP_1.6x2.1mm_P0.5mm_EP0.4x1.7mm (version 20221018) (generator kicad-footprint-generator)
  (layer F.Cu)
  (descr "USON, 8 Pin (https://www.ti.com/lit/gpn/tpd3f303#page=15), generated with kicad-footprint-generator ipc_noLead_generator.py")
  (tags "USON NoLead")
  (attr smd)
  (fp_text reference REF** (at 0 -2) (layer F.SilkS)
    (effects (font (size 1 1) (thickness 0.15)))
  )
  (fp_text value Texas_R-PUSON-N8_USON-8-1EP_1.6x2.1mm_P0.5mm_EP0.4x1.7mm (at 0 2) (layer F.Fab)
    (effects (font (size 1 1) (thickness 0.15)))
  )
  (fp_line (start -0.8 -1.16) (end 0.8 -1.16)
    (stroke (width 0.12) (type solid)) (layer F.SilkS))
  (fp_line (start -0.8 1.16) (end 0.8 1.16)
    (stroke (width 0.12) (type solid)) (layer F.SilkS))
  (fp_line (start -0.4 -1.05) (end 0.8 -1.05)
    (stroke (width 0.1) (type solid)) (layer F.Fab))
  (fp_line (start 0.8 -1.05) (end 0.8 1.05)
    (stroke (width 0.1) (type solid)) (layer F.Fab))
  (fp_line (start 0.8 1.05) (end -0.8 1.05)
    (stroke (width 0.1) (type solid)) (layer F.Fab))
  (fp_line (start -0.8 1.05) (end -0.8 -0.65)
    (stroke (width 0.1) (type solid)) (layer F.Fab))
  (fp_line (start -0.8 -0.65) (end -0.4 -1.05)
    (stroke (width 0.1) (type solid)) (layer F.Fab))
  (fp_line (start -1.43 -1.3) (end -1.43 1.3)
    (stroke (width 0.05) (type solid)) (layer F.CrtYd))
  (fp_line (start -1.43 1.3) (end 1.43 1.3)
    (stroke (width 0.05) (type solid)) (layer F.CrtYd))
  (fp_line (start 1.43 1.3) (end 1.43 -1.3)
    (stroke (width 0.05) (type solid)) (layer F.CrtYd))
  (fp_line (start 1.43 -1.3) (end -1.43 -1.3)
    (stroke (width 0.05) (type solid)) (layer F.CrtYd))
  (pad 1 smd roundrect (at -0.7875 -0.75) (size 0.775 0.25) (layers F.Cu F.Mask F.Paste) (roundrect_rratio 0.25))
  (pad 2 smd roundrect (at -0.7875 -0.25) (size 0.775 0.25) (layers F.Cu F.Mask F.Paste) (roundrect_rratio 0.25))
  (pad 3 smd roundrect (at -0.7875 0.25) (size 0.775 0.25) (layers F.Cu F.Mask F.Paste) (roundrect_rratio 0.25))
  (pad 4 smd roundrect (at -0.7875 0.75) (size 0.775 0.25) (layers F.Cu F.Mask F.Paste) (roundrect_rratio 0.25))
  (pad 5 smd roundrect (at 0.7875 0.75) (size 0.775 0.25) (layers F.Cu F.Mask F.Paste) (roundrect_rratio 0.25))
  (pad 6 smd roundrect (at 0.7875 0.25) (size 0.775 0.25) (layers F.Cu F.Mask F.Paste) (roundrect_rratio 0.25))
  (pad 7 smd roundrect (at 0.7875 -0.25) (size 0.775 0.25) (layers F.Cu F.Mask F.Paste) (roundrect_rratio 0.25))
  (pad 8 smd roundrect (at 0.7875 -0.75) (size 0.775 0.25) (layers F.Cu F.Mask F.Paste) (roundrect_rratio 0.25))
  (pad 9 smd rect (at 0 0) (size 0.4 1.7) (property pad_prop_heatsink) (layers F.Cu F.Mask)
    (zone_connect 2))
  (pad "" smd roundrect (at 0 0) (size 0.32 1.37) (layers F.Paste) (roundrect_rratio 0.25))
  (fp_poly (pts (xy -1.35 -1.05) (xy -1.71 -1.05) (xy -1.35 -1.41) (xy -1.35 -1.05))
    (stroke (width 0.12) (type solid)) (fill solid) (layer F.SilkS))
  (fp_text user ${REFERENCE} (at 0 0 90) (layer F.Fab)
    (effects (font (size 0.52 0.52) (thickness 0.08)))
  )
  (model ${KICAD7_3DMODEL_DIR}/Package_SON.3dshapes/Texas_R-PUSON-N8_USON-8-1EP_1.6x2.1mm_P0.5mm_EP0.4x1.7mm.wrl
    (offset (xyz 0 0 0))
    (scale (xyz 1 1 1))
    (rotate (xyz 0 0 0))
  )
)
