(footprint Balun_Johanson_0900PC15J0013 (version 20221018) (generator kicad-footprint-generator)
  (layer F.Cu)
  (descr "Johanson 0900PC15J0013 DFN, 10 Pin (https://www.johansontechnology.com/datasheets/0900PC15J0013/0900PC15J0013.pdf), generated with kicad-footprint-generator ipc_noLead_generator.py")
  (tags "Johanson DFN NoLead")
  (attr smd)
  (fp_text reference REF** (at 0 -2.35) (layer F.SilkS)
    (effects (font (size 1 1) (thickness 0.15)))
  )
  (fp_text value Balun_Johanson_0900PC15J0013 (at 0 2.35) (layer F.Fab)
    (effects (font (size 1 1) (thickness 0.15)))
  )
  (fp_line (start 0.41 -1.11) (end 0.735 -1.11)
    (stroke (width 0.12) (type solid)) (layer F.SilkS))
  (fp_line (start -0.41 1.11) (end -0.735 1.11)
    (stroke (width 0.12) (type solid)) (layer F.SilkS))
  (fp_line (start 0.41 1.11) (end 0.735 1.11)
    (stroke (width 0.12) (type solid)) (layer F.SilkS))
  (fp_line (start -0.3125 -1) (end 0.625 -1)
    (stroke (width 0.1) (type solid)) (layer F.Fab))
  (fp_line (start 0.625 -1) (end 0.625 1)
    (stroke (width 0.1) (type solid)) (layer F.Fab))
  (fp_line (start 0.625 1) (end -0.625 1)
    (stroke (width 0.1) (type solid)) (layer F.Fab))
  (fp_line (start -0.625 1) (end -0.625 -0.6875)
    (stroke (width 0.1) (type solid)) (layer F.Fab))
  (fp_line (start -0.625 -0.6875) (end -0.3125 -1)
    (stroke (width 0.1) (type solid)) (layer F.Fab))
  (fp_line (start -1.28 -1.65) (end -1.28 1.65)
    (stroke (width 0.05) (type solid)) (layer F.CrtYd))
  (fp_line (start -1.28 1.65) (end 1.28 1.65)
    (stroke (width 0.05) (type solid)) (layer F.CrtYd))
  (fp_line (start 1.28 1.65) (end 1.28 -1.65)
    (stroke (width 0.05) (type solid)) (layer F.CrtYd))
  (fp_line (start 1.28 -1.65) (end -1.28 -1.65)
    (stroke (width 0.05) (type solid)) (layer F.CrtYd))
  (pad 1 smd roundrect (at -0.7125 -0.75) (size 0.625 0.3) (layers F.Cu F.Mask F.Paste) (roundrect_rratio 0.25))
  (pad 2 smd roundrect (at -0.7125 -0.25) (size 0.625 0.3) (layers F.Cu F.Mask F.Paste) (roundrect_rratio 0.25))
  (pad 3 smd roundrect (at -0.7125 0.25) (size 0.625 0.3) (layers F.Cu F.Mask F.Paste) (roundrect_rratio 0.25))
  (pad 4 smd roundrect (at -0.7125 0.75) (size 0.625 0.3) (layers F.Cu F.Mask F.Paste) (roundrect_rratio 0.25))
  (pad 5 smd roundrect (at 0 1.0875) (size 0.3 0.625) (layers F.Cu F.Mask F.Paste) (roundrect_rratio 0.25))
  (pad 6 smd roundrect (at 0.7125 0.75) (size 0.625 0.3) (layers F.Cu F.Mask F.Paste) (roundrect_rratio 0.25))
  (pad 7 smd roundrect (at 0.7125 0.25) (size 0.625 0.3) (layers F.Cu F.Mask F.Paste) (roundrect_rratio 0.25))
  (pad 8 smd roundrect (at 0.7125 -0.25) (size 0.625 0.3) (layers F.Cu F.Mask F.Paste) (roundrect_rratio 0.25))
  (pad 9 smd roundrect (at 0.7125 -0.75) (size 0.625 0.3) (layers F.Cu F.Mask F.Paste) (roundrect_rratio 0.25))
  (pad 10 smd roundrect (at 0 -1.0875) (size 0.3 0.625) (layers F.Cu F.Mask F.Paste) (roundrect_rratio 0.25))
  (fp_poly (pts (xy -0.74 -1.12) (xy -0.92 -1.372) (xy -0.56 -1.372) (xy -0.74 -1.12))
    (stroke (width 0.12) (type solid)) (fill solid) (layer F.SilkS))
  (fp_text user ${REFERENCE} (at 0 0 90) (layer F.Fab)
    (effects (font (size 0.5 0.5) (thickness 0.08)))
  )
  (model ${KICAD7_3DMODEL_DIR}/RF_Converter.3dshapes/Balun_Johanson_0900PC15J0013.wrl
    (offset (xyz 0 0 0))
    (scale (xyz 1 1 1))
    (rotate (xyz 0 0 0))
  )
)
