(footprint DFN-10-1EP_2.6x2.6mm_P0.5mm_EP1.3x2.2mm (version 20221018) (generator kicad-footprint-generator)
  (layer F.Cu)
  (descr "DFN, 10 Pin (https://www.nxp.com/docs/en/data-sheet/PCF85063A.pdf#page=48), generated with kicad-footprint-generator ipc_noLead_generator.py")
  (tags "DFN NoLead")
  (attr smd)
  (fp_text reference REF** (at 0 -2.25) (layer F.SilkS)
    (effects (font (size 1 1) (thickness 0.15)))
  )
  (fp_text value DFN-10-1EP_2.6x2.6mm_P0.5mm_EP1.3x2.2mm (at 0 2.25) (layer F.Fab)
    (effects (font (size 1 1) (thickness 0.15)))
  )
  (fp_line (start -1.3 -1.41) (end 1.3 -1.41)
    (stroke (width 0.12) (type solid)) (layer F.SilkS))
  (fp_line (start -1.3 1.41) (end 1.3 1.41)
    (stroke (width 0.12) (type solid)) (layer F.SilkS))
  (fp_line (start -0.65 -1.3) (end 1.3 -1.3)
    (stroke (width 0.1) (type solid)) (layer F.Fab))
  (fp_line (start 1.3 -1.3) (end 1.3 1.3)
    (stroke (width 0.1) (type solid)) (layer F.Fab))
  (fp_line (start 1.3 1.3) (end -1.3 1.3)
    (stroke (width 0.1) (type solid)) (layer F.Fab))
  (fp_line (start -1.3 1.3) (end -1.3 -0.65)
    (stroke (width 0.1) (type solid)) (layer F.Fab))
  (fp_line (start -1.3 -0.65) (end -0.65 -1.3)
    (stroke (width 0.1) (type solid)) (layer F.Fab))
  (fp_line (start -1.93 -1.55) (end -1.93 1.55)
    (stroke (width 0.05) (type solid)) (layer F.CrtYd))
  (fp_line (start -1.93 1.55) (end 1.93 1.55)
    (stroke (width 0.05) (type solid)) (layer F.CrtYd))
  (fp_line (start 1.93 1.55) (end 1.93 -1.55)
    (stroke (width 0.05) (type solid)) (layer F.CrtYd))
  (fp_line (start 1.93 -1.55) (end -1.93 -1.55)
    (stroke (width 0.05) (type solid)) (layer F.CrtYd))
  (pad 1 smd roundrect (at -1.275 -1) (size 0.8 0.25) (layers F.Cu F.Mask F.Paste) (roundrect_rratio 0.25))
  (pad 2 smd roundrect (at -1.275 -0.5) (size 0.8 0.25) (layers F.Cu F.Mask F.Paste) (roundrect_rratio 0.25))
  (pad 3 smd roundrect (at -1.275 0) (size 0.8 0.25) (layers F.Cu F.Mask F.Paste) (roundrect_rratio 0.25))
  (pad 4 smd roundrect (at -1.275 0.5) (size 0.8 0.25) (layers F.Cu F.Mask F.Paste) (roundrect_rratio 0.25))
  (pad 5 smd roundrect (at -1.275 1) (size 0.8 0.25) (layers F.Cu F.Mask F.Paste) (roundrect_rratio 0.25))
  (pad 6 smd roundrect (at 1.275 1) (size 0.8 0.25) (layers F.Cu F.Mask F.Paste) (roundrect_rratio 0.25))
  (pad 7 smd roundrect (at 1.275 0.5) (size 0.8 0.25) (layers F.Cu F.Mask F.Paste) (roundrect_rratio 0.25))
  (pad 8 smd roundrect (at 1.275 0) (size 0.8 0.25) (layers F.Cu F.Mask F.Paste) (roundrect_rratio 0.25))
  (pad 9 smd roundrect (at 1.275 -0.5) (size 0.8 0.25) (layers F.Cu F.Mask F.Paste) (roundrect_rratio 0.25))
  (pad 10 smd roundrect (at 1.275 -1) (size 0.8 0.25) (layers F.Cu F.Mask F.Paste) (roundrect_rratio 0.25))
  (pad 11 smd rect (at 0 0) (size 1.3 2.2) (property pad_prop_heatsink) (layers F.Cu F.Mask)
    (zone_connect 2))
  (pad "" smd roundrect (at -0.325 -0.55) (size 0.52 0.89) (layers F.Paste) (roundrect_rratio 0.25))
  (pad "" smd roundrect (at -0.325 0.55) (size 0.52 0.89) (layers F.Paste) (roundrect_rratio 0.25))
  (pad "" smd roundrect (at 0.325 -0.55) (size 0.52 0.89) (layers F.Paste) (roundrect_rratio 0.25))
  (pad "" smd roundrect (at 0.325 0.55) (size 0.52 0.89) (layers F.Paste) (roundrect_rratio 0.25))
  (fp_poly (pts (xy -1.85 -1.3) (xy -2.21 -1.3) (xy -1.85 -1.66) (xy -1.85 -1.3))
    (stroke (width 0.12) (type solid)) (fill solid) (layer F.SilkS))
  (fp_text user ${REFERENCE} (at 0 0) (layer F.Fab)
    (effects (font (size 0.65 0.65) (thickness 0.1)))
  )
  (model ${KICAD7_3DMODEL_DIR}/Package_DFN_QFN.3dshapes/DFN-10-1EP_2.6x2.6mm_P0.5mm_EP1.3x2.2mm.wrl
    (offset (xyz 0 0 0))
    (scale (xyz 1 1 1))
    (rotate (xyz 0 0 0))
  )
)
