(footprint DHVQFN-20-1EP_2.5x4.5mm_P0.5mm_EP1x3mm (version 20221018) (generator kicad-footprint-generator)
  (layer F.Cu)
  (descr "DHVQFN, 20 Pin (JEDEC MO-241/VAC, https://assets.nexperia.com/documents/package-information/SOT764-1.pdf), generated with kicad-footprint-generator ipc_noLead_generator.py")
  (tags "DHVQFN NoLead")
  (attr smd)
  (fp_text reference REF** (at 0 -3.55) (layer F.SilkS)
    (effects (font (size 1 1) (thickness 0.15)))
  )
  (fp_text value DHVQFN-20-1EP_2.5x4.5mm_P0.5mm_EP1x3mm (at 0 3.55) (layer F.Fab)
    (effects (font (size 1 1) (thickness 0.15)))
  )
  (fp_line (start -0.635 -2.36) (end -1.06 -2.36)
    (stroke (width 0.12) (type solid)) (layer F.SilkS))
  (fp_line (start 0.635 -2.36) (end 1.36 -2.36)
    (stroke (width 0.12) (type solid)) (layer F.SilkS))
  (fp_line (start 1.36 -2.36) (end 1.36 -2.135)
    (stroke (width 0.12) (type solid)) (layer F.SilkS))
  (fp_line (start -0.635 2.36) (end -1.36 2.36)
    (stroke (width 0.12) (type solid)) (layer F.SilkS))
  (fp_line (start -1.36 2.36) (end -1.36 2.135)
    (stroke (width 0.12) (type solid)) (layer F.SilkS))
  (fp_line (start 0.635 2.36) (end 1.36 2.36)
    (stroke (width 0.12) (type solid)) (layer F.SilkS))
  (fp_line (start 1.36 2.36) (end 1.36 2.135)
    (stroke (width 0.12) (type solid)) (layer F.SilkS))
  (fp_line (start -0.625 -2.25) (end 1.25 -2.25)
    (stroke (width 0.1) (type solid)) (layer F.Fab))
  (fp_line (start 1.25 -2.25) (end 1.25 2.25)
    (stroke (width 0.1) (type solid)) (layer F.Fab))
  (fp_line (start 1.25 2.25) (end -1.25 2.25)
    (stroke (width 0.1) (type solid)) (layer F.Fab))
  (fp_line (start -1.25 2.25) (end -1.25 -1.625)
    (stroke (width 0.1) (type solid)) (layer F.Fab))
  (fp_line (start -1.25 -1.625) (end -0.625 -2.25)
    (stroke (width 0.1) (type solid)) (layer F.Fab))
  (fp_line (start -1.85 -2.85) (end -1.85 2.85)
    (stroke (width 0.05) (type solid)) (layer F.CrtYd))
  (fp_line (start -1.85 2.85) (end 1.85 2.85)
    (stroke (width 0.05) (type solid)) (layer F.CrtYd))
  (fp_line (start 1.85 2.85) (end 1.85 -2.85)
    (stroke (width 0.05) (type solid)) (layer F.CrtYd))
  (fp_line (start 1.85 -2.85) (end -1.85 -2.85)
    (stroke (width 0.05) (type solid)) (layer F.CrtYd))
  (pad 2 smd roundrect (at -1.1875 -1.75) (size 0.825 0.25) (layers F.Cu F.Mask F.Paste) (roundrect_rratio 0.25))
  (pad 3 smd roundrect (at -1.1875 -1.25) (size 0.825 0.25) (layers F.Cu F.Mask F.Paste) (roundrect_rratio 0.25))
  (pad 4 smd roundrect (at -1.1875 -0.75) (size 0.825 0.25) (layers F.Cu F.Mask F.Paste) (roundrect_rratio 0.25))
  (pad 5 smd roundrect (at -1.1875 -0.25) (size 0.825 0.25) (layers F.Cu F.Mask F.Paste) (roundrect_rratio 0.25))
  (pad 6 smd roundrect (at -1.1875 0.25) (size 0.825 0.25) (layers F.Cu F.Mask F.Paste) (roundrect_rratio 0.25))
  (pad 7 smd roundrect (at -1.1875 0.75) (size 0.825 0.25) (layers F.Cu F.Mask F.Paste) (roundrect_rratio 0.25))
  (pad 8 smd roundrect (at -1.1875 1.25) (size 0.825 0.25) (layers F.Cu F.Mask F.Paste) (roundrect_rratio 0.25))
  (pad 9 smd roundrect (at -1.1875 1.75) (size 0.825 0.25) (layers F.Cu F.Mask F.Paste) (roundrect_rratio 0.25))
  (pad 10 smd roundrect (at -0.25 2.1875) (size 0.25 0.825) (layers F.Cu F.Mask F.Paste) (roundrect_rratio 0.25))
  (pad 11 smd roundrect (at 0.25 2.1875) (size 0.25 0.825) (layers F.Cu F.Mask F.Paste) (roundrect_rratio 0.25))
  (pad 12 smd roundrect (at 1.1875 1.75) (size 0.825 0.25) (layers F.Cu F.Mask F.Paste) (roundrect_rratio 0.25))
  (pad 13 smd roundrect (at 1.1875 1.25) (size 0.825 0.25) (layers F.Cu F.Mask F.Paste) (roundrect_rratio 0.25))
  (pad 14 smd roundrect (at 1.1875 0.75) (size 0.825 0.25) (layers F.Cu F.Mask F.Paste) (roundrect_rratio 0.25))
  (pad 15 smd roundrect (at 1.1875 0.25) (size 0.825 0.25) (layers F.Cu F.Mask F.Paste) (roundrect_rratio 0.25))
  (pad 16 smd roundrect (at 1.1875 -0.25) (size 0.825 0.25) (layers F.Cu F.Mask F.Paste) (roundrect_rratio 0.25))
  (pad 17 smd roundrect (at 1.1875 -0.75) (size 0.825 0.25) (layers F.Cu F.Mask F.Paste) (roundrect_rratio 0.25))
  (pad 18 smd roundrect (at 1.1875 -1.25) (size 0.825 0.25) (layers F.Cu F.Mask F.Paste) (roundrect_rratio 0.25))
  (pad 19 smd roundrect (at 1.1875 -1.75) (size 0.825 0.25) (layers F.Cu F.Mask F.Paste) (roundrect_rratio 0.25))
  (pad 20 smd roundrect (at 0.25 -2.1875) (size 0.25 0.825) (layers F.Cu F.Mask F.Paste) (roundrect_rratio 0.25))
  (pad 1 smd roundrect (at -0.25 -2.1875) (size 0.25 0.825) (layers F.Cu F.Mask F.Paste) (roundrect_rratio 0.25))
  (pad 21 smd rect (at 0 0) (size 1 3) (property pad_prop_heatsink) (layers F.Cu F.Mask)
    (zone_connect 2))
  (pad "" smd roundrect (at 0 -0.75) (size 0.81 1.21) (layers F.Paste) (roundrect_rratio 0.25))
  (pad "" smd roundrect (at 0 0.75) (size 0.81 1.21) (layers F.Paste) (roundrect_rratio 0.25))
  (fp_poly (pts (xy -1.36 -2.36) (xy -1.54 -2.612) (xy -1.18 -2.612) (xy -1.36 -2.36))
    (stroke (width 0.12) (type solid)) (fill solid) (layer F.SilkS))
  (fp_text user ${REFERENCE} (at 0 0 90) (layer F.Fab)
    (effects (font (size 1 1) (thickness 0.15)))
  )
  (model ${KICAD7_3DMODEL_DIR}/Package_DFN_QFN.3dshapes/DHVQFN-20-1EP_2.5x4.5mm_P0.5mm_EP1x3mm.wrl
    (offset (xyz 0 0 0))
    (scale (xyz 1 1 1))
    (rotate (xyz 0 0 0))
  )
)
