(footprint QFN-36-1EP_6x6mm_P0.5mm_EP4.1x4.1mm (version 20221018) (generator kicad-footprint-generator)
  (layer F.Cu)
  (descr "QFN, 36 Pin (www.st.com/resource/en/datasheet/stm32f101t6.pdf#page=72), generated with kicad-footprint-generator ipc_noLead_generator.py")
  (tags "QFN NoLead")
  (attr smd)
  (fp_text reference REF** (at 0 -4.33) (layer F.SilkS)
    (effects (font (size 1 1) (thickness 0.15)))
  )
  (fp_text value QFN-36-1EP_6x6mm_P0.5mm_EP4.1x4.1mm (at 0 4.33) (layer F.Fab)
    (effects (font (size 1 1) (thickness 0.15)))
  )
  (fp_line (start -2.385 -3.11) (end -2.81 -3.11)
    (stroke (width 0.12) (type solid)) (layer F.SilkS))
  (fp_line (start -3.11 -2.385) (end -3.11 -2.87)
    (stroke (width 0.12) (type solid)) (layer F.SilkS))
  (fp_line (start 2.385 -3.11) (end 3.11 -3.11)
    (stroke (width 0.12) (type solid)) (layer F.SilkS))
  (fp_line (start 3.11 -3.11) (end 3.11 -2.385)
    (stroke (width 0.12) (type solid)) (layer F.SilkS))
  (fp_line (start -2.385 3.11) (end -3.11 3.11)
    (stroke (width 0.12) (type solid)) (layer F.SilkS))
  (fp_line (start -3.11 3.11) (end -3.11 2.385)
    (stroke (width 0.12) (type solid)) (layer F.SilkS))
  (fp_line (start 2.385 3.11) (end 3.11 3.11)
    (stroke (width 0.12) (type solid)) (layer F.SilkS))
  (fp_line (start 3.11 3.11) (end 3.11 2.385)
    (stroke (width 0.12) (type solid)) (layer F.SilkS))
  (fp_line (start -2 -3) (end 3 -3)
    (stroke (width 0.1) (type solid)) (layer F.Fab))
  (fp_line (start 3 -3) (end 3 3)
    (stroke (width 0.1) (type solid)) (layer F.Fab))
  (fp_line (start 3 3) (end -3 3)
    (stroke (width 0.1) (type solid)) (layer F.Fab))
  (fp_line (start -3 3) (end -3 -2)
    (stroke (width 0.1) (type solid)) (layer F.Fab))
  (fp_line (start -3 -2) (end -2 -3)
    (stroke (width 0.1) (type solid)) (layer F.Fab))
  (fp_line (start -3.63 -3.63) (end -3.63 3.63)
    (stroke (width 0.05) (type solid)) (layer F.CrtYd))
  (fp_line (start -3.63 3.63) (end 3.63 3.63)
    (stroke (width 0.05) (type solid)) (layer F.CrtYd))
  (fp_line (start 3.63 3.63) (end 3.63 -3.63)
    (stroke (width 0.05) (type solid)) (layer F.CrtYd))
  (fp_line (start 3.63 -3.63) (end -3.63 -3.63)
    (stroke (width 0.05) (type solid)) (layer F.CrtYd))
  (pad 1 smd roundrect (at -2.8375 -2) (size 1.075 0.25) (layers F.Cu F.Mask F.Paste) (roundrect_rratio 0.25))
  (pad 2 smd roundrect (at -2.8375 -1.5) (size 1.075 0.25) (layers F.Cu F.Mask F.Paste) (roundrect_rratio 0.25))
  (pad 3 smd roundrect (at -2.8375 -1) (size 1.075 0.25) (layers F.Cu F.Mask F.Paste) (roundrect_rratio 0.25))
  (pad 4 smd roundrect (at -2.8375 -0.5) (size 1.075 0.25) (layers F.Cu F.Mask F.Paste) (roundrect_rratio 0.25))
  (pad 5 smd roundrect (at -2.8375 0) (size 1.075 0.25) (layers F.Cu F.Mask F.Paste) (roundrect_rratio 0.25))
  (pad 6 smd roundrect (at -2.8375 0.5) (size 1.075 0.25) (layers F.Cu F.Mask F.Paste) (roundrect_rratio 0.25))
  (pad 7 smd roundrect (at -2.8375 1) (size 1.075 0.25) (layers F.Cu F.Mask F.Paste) (roundrect_rratio 0.25))
  (pad 8 smd roundrect (at -2.8375 1.5) (size 1.075 0.25) (layers F.Cu F.Mask F.Paste) (roundrect_rratio 0.25))
  (pad 9 smd roundrect (at -2.8375 2) (size 1.075 0.25) (layers F.Cu F.Mask F.Paste) (roundrect_rratio 0.25))
  (pad 10 smd roundrect (at -2 2.8375) (size 0.25 1.075) (layers F.Cu F.Mask F.Paste) (roundrect_rratio 0.25))
  (pad 11 smd roundrect (at -1.5 2.8375) (size 0.25 1.075) (layers F.Cu F.Mask F.Paste) (roundrect_rratio 0.25))
  (pad 12 smd roundrect (at -1 2.8375) (size 0.25 1.075) (layers F.Cu F.Mask F.Paste) (roundrect_rratio 0.25))
  (pad 13 smd roundrect (at -0.5 2.8375) (size 0.25 1.075) (layers F.Cu F.Mask F.Paste) (roundrect_rratio 0.25))
  (pad 14 smd roundrect (at 0 2.8375) (size 0.25 1.075) (layers F.Cu F.Mask F.Paste) (roundrect_rratio 0.25))
  (pad 15 smd roundrect (at 0.5 2.8375) (size 0.25 1.075) (layers F.Cu F.Mask F.Paste) (roundrect_rratio 0.25))
  (pad 16 smd roundrect (at 1 2.8375) (size 0.25 1.075) (layers F.Cu F.Mask F.Paste) (roundrect_rratio 0.25))
  (pad 17 smd roundrect (at 1.5 2.8375) (size 0.25 1.075) (layers F.Cu F.Mask F.Paste) (roundrect_rratio 0.25))
  (pad 18 smd roundrect (at 2 2.8375) (size 0.25 1.075) (layers F.Cu F.Mask F.Paste) (roundrect_rratio 0.25))
  (pad 19 smd roundrect (at 2.8375 2) (size 1.075 0.25) (layers F.Cu F.Mask F.Paste) (roundrect_rratio 0.25))
  (pad 20 smd roundrect (at 2.8375 1.5) (size 1.075 0.25) (layers F.Cu F.Mask F.Paste) (roundrect_rratio 0.25))
  (pad 21 smd roundrect (at 2.8375 1) (size 1.075 0.25) (layers F.Cu F.Mask F.Paste) (roundrect_rratio 0.25))
  (pad 22 smd roundrect (at 2.8375 0.5) (size 1.075 0.25) (layers F.Cu F.Mask F.Paste) (roundrect_rratio 0.25))
  (pad 23 smd roundrect (at 2.8375 0) (size 1.075 0.25) (layers F.Cu F.Mask F.Paste) (roundrect_rratio 0.25))
  (pad 24 smd roundrect (at 2.8375 -0.5) (size 1.075 0.25) (layers F.Cu F.Mask F.Paste) (roundrect_rratio 0.25))
  (pad 25 smd roundrect (at 2.8375 -1) (size 1.075 0.25) (layers F.Cu F.Mask F.Paste) (roundrect_rratio 0.25))
  (pad 26 smd roundrect (at 2.8375 -1.5) (size 1.075 0.25) (layers F.Cu F.Mask F.Paste) (roundrect_rratio 0.25))
  (pad 27 smd roundrect (at 2.8375 -2) (size 1.075 0.25) (layers F.Cu F.Mask F.Paste) (roundrect_rratio 0.25))
  (pad 28 smd roundrect (at 2 -2.8375) (size 0.25 1.075) (layers F.Cu F.Mask F.Paste) (roundrect_rratio 0.25))
  (pad 29 smd roundrect (at 1.5 -2.8375) (size 0.25 1.075) (layers F.Cu F.Mask F.Paste) (roundrect_rratio 0.25))
  (pad 30 smd roundrect (at 1 -2.8375) (size 0.25 1.075) (layers F.Cu F.Mask F.Paste) (roundrect_rratio 0.25))
  (pad 31 smd roundrect (at 0.5 -2.8375) (size 0.25 1.075) (layers F.Cu F.Mask F.Paste) (roundrect_rratio 0.25))
  (pad 32 smd roundrect (at 0 -2.8375) (size 0.25 1.075) (layers F.Cu F.Mask F.Paste) (roundrect_rratio 0.25))
  (pad 33 smd roundrect (at -0.5 -2.8375) (size 0.25 1.075) (layers F.Cu F.Mask F.Paste) (roundrect_rratio 0.25))
  (pad 34 smd roundrect (at -1 -2.8375) (size 0.25 1.075) (layers F.Cu F.Mask F.Paste) (roundrect_rratio 0.25))
  (pad 35 smd roundrect (at -1.5 -2.8375) (size 0.25 1.075) (layers F.Cu F.Mask F.Paste) (roundrect_rratio 0.25))
  (pad 36 smd roundrect (at -2 -2.8375) (size 0.25 1.075) (layers F.Cu F.Mask F.Paste) (roundrect_rratio 0.25))
  (pad 37 smd rect (at 0 0) (size 4.1 4.1) (property pad_prop_heatsink) (layers F.Cu F.Mask)
    (zone_connect 2))
  (pad "" smd roundrect (at -1.37 -1.37) (size 1.1 1.1) (layers F.Paste) (roundrect_rratio 0.227273))
  (pad "" smd roundrect (at -1.37 0) (size 1.1 1.1) (layers F.Paste) (roundrect_rratio 0.227273))
  (pad "" smd roundrect (at -1.37 1.37) (size 1.1 1.1) (layers F.Paste) (roundrect_rratio 0.227273))
  (pad "" smd roundrect (at 0 -1.37) (size 1.1 1.1) (layers F.Paste) (roundrect_rratio 0.227273))
  (pad "" smd roundrect (at 0 0) (size 1.1 1.1) (layers F.Paste) (roundrect_rratio 0.227273))
  (pad "" smd roundrect (at 0 1.37) (size 1.1 1.1) (layers F.Paste) (roundrect_rratio 0.227273))
  (pad "" smd roundrect (at 1.37 -1.37) (size 1.1 1.1) (layers F.Paste) (roundrect_rratio 0.227273))
  (pad "" smd roundrect (at 1.37 0) (size 1.1 1.1) (layers F.Paste) (roundrect_rratio 0.227273))
  (pad "" smd roundrect (at 1.37 1.37) (size 1.1 1.1) (layers F.Paste) (roundrect_rratio 0.227273))
  (fp_poly (pts (xy -3.11 -3.11) (xy -3.29 -3.362) (xy -2.93 -3.362) (xy -3.11 -3.11))
    (stroke (width 0.12) (type solid)) (fill solid) (layer F.SilkS))
  (fp_text user ${REFERENCE} (at 0 0) (layer F.Fab)
    (effects (font (size 1 1) (thickness 0.15)))
  )
  (model ${KICAD7_3DMODEL_DIR}/Package_DFN_QFN.3dshapes/QFN-36-1EP_6x6mm_P0.5mm_EP4.1x4.1mm.wrl
    (offset (xyz 0 0 0))
    (scale (xyz 1 1 1))
    (rotate (xyz 0 0 0))
  )
)
