(footprint QFN-28-1EP_4x4mm_P0.45mm_EP2.4x2.4mm (version 20221018) (generator kicad-footprint-generator)
  (layer F.Cu)
  (descr "QFN, 28 Pin (http://ww1.microchip.com/downloads/en/DeviceDoc/8008S.pdf#page=16), generated with kicad-footprint-generator ipc_noLead_generator.py")
  (tags "QFN NoLead")
  (attr smd)
  (fp_text reference REF** (at 0 -3.3) (layer F.SilkS)
    (effects (font (size 1 1) (thickness 0.15)))
  )
  (fp_text value QFN-28-1EP_4x4mm_P0.45mm_EP2.4x2.4mm (at 0 3.3) (layer F.Fab)
    (effects (font (size 1 1) (thickness 0.15)))
  )
  (fp_line (start -2.11 -1.735) (end -2.11 -1.87)
    (stroke (width 0.12) (type solid)) (layer F.SilkS))
  (fp_line (start 1.735 -2.11) (end 2.11 -2.11)
    (stroke (width 0.12) (type solid)) (layer F.SilkS))
  (fp_line (start 2.11 -2.11) (end 2.11 -1.735)
    (stroke (width 0.12) (type solid)) (layer F.SilkS))
  (fp_line (start -1.735 2.11) (end -2.11 2.11)
    (stroke (width 0.12) (type solid)) (layer F.SilkS))
  (fp_line (start -2.11 2.11) (end -2.11 1.735)
    (stroke (width 0.12) (type solid)) (layer F.SilkS))
  (fp_line (start 1.735 2.11) (end 2.11 2.11)
    (stroke (width 0.12) (type solid)) (layer F.SilkS))
  (fp_line (start 2.11 2.11) (end 2.11 1.735)
    (stroke (width 0.12) (type solid)) (layer F.SilkS))
  (fp_line (start -1 -2) (end 2 -2)
    (stroke (width 0.1) (type solid)) (layer F.Fab))
  (fp_line (start 2 -2) (end 2 2)
    (stroke (width 0.1) (type solid)) (layer F.Fab))
  (fp_line (start 2 2) (end -2 2)
    (stroke (width 0.1) (type solid)) (layer F.Fab))
  (fp_line (start -2 2) (end -2 -1)
    (stroke (width 0.1) (type solid)) (layer F.Fab))
  (fp_line (start -2 -1) (end -1 -2)
    (stroke (width 0.1) (type solid)) (layer F.Fab))
  (fp_line (start -2.6 -2.6) (end -2.6 2.6)
    (stroke (width 0.05) (type solid)) (layer F.CrtYd))
  (fp_line (start -2.6 2.6) (end 2.6 2.6)
    (stroke (width 0.05) (type solid)) (layer F.CrtYd))
  (fp_line (start 2.6 2.6) (end 2.6 -2.6)
    (stroke (width 0.05) (type solid)) (layer F.CrtYd))
  (fp_line (start 2.6 -2.6) (end -2.6 -2.6)
    (stroke (width 0.05) (type solid)) (layer F.CrtYd))
  (pad 1 smd custom (at -1.95 -1.35) (size 0.179289 0.179289) (layers F.Cu F.Mask F.Paste)
    (options (clearance outline) (anchor circle))
    (primitives
      (gr_poly (pts
         (xy -0.3375 -0.0625) (xy 0.274112 -0.0625) (xy 0.3375 0.000888) (xy 0.3375 0.0625)
         (xy -0.3375 0.0625)) (width 0.125))
    ))
  (pad 2 smd roundrect (at -1.95 -0.9) (size 0.8 0.25) (layers F.Cu F.Mask F.Paste) (roundrect_rratio 0.25))
  (pad 3 smd roundrect (at -1.95 -0.45) (size 0.8 0.25) (layers F.Cu F.Mask F.Paste) (roundrect_rratio 0.25))
  (pad 4 smd roundrect (at -1.95 0) (size 0.8 0.25) (layers F.Cu F.Mask F.Paste) (roundrect_rratio 0.25))
  (pad 5 smd roundrect (at -1.95 0.45) (size 0.8 0.25) (layers F.Cu F.Mask F.Paste) (roundrect_rratio 0.25))
  (pad 6 smd roundrect (at -1.95 0.9) (size 0.8 0.25) (layers F.Cu F.Mask F.Paste) (roundrect_rratio 0.25))
  (pad 7 smd custom (at -1.95 1.35) (size 0.179289 0.179289) (layers F.Cu F.Mask F.Paste)
    (options (clearance outline) (anchor circle))
    (primitives
      (gr_poly (pts
         (xy -0.3375 -0.0625) (xy 0.3375 -0.0625) (xy 0.3375 -0.000888) (xy 0.274112 0.0625)
         (xy -0.3375 0.0625)) (width 0.125))
    ))
  (pad 8 smd custom (at -1.35 1.95) (size 0.179289 0.179289) (layers F.Cu F.Mask F.Paste)
    (options (clearance outline) (anchor circle))
    (primitives
      (gr_poly (pts
         (xy -0.0625 -0.274112) (xy 0.000888 -0.3375) (xy 0.0625 -0.3375) (xy 0.0625 0.3375)
         (xy -0.0625 0.3375)) (width 0.125))
    ))
  (pad 9 smd roundrect (at -0.9 1.95) (size 0.25 0.8) (layers F.Cu F.Mask F.Paste) (roundrect_rratio 0.25))
  (pad 10 smd roundrect (at -0.45 1.95) (size 0.25 0.8) (layers F.Cu F.Mask F.Paste) (roundrect_rratio 0.25))
  (pad 11 smd roundrect (at 0 1.95) (size 0.25 0.8) (layers F.Cu F.Mask F.Paste) (roundrect_rratio 0.25))
  (pad 12 smd roundrect (at 0.45 1.95) (size 0.25 0.8) (layers F.Cu F.Mask F.Paste) (roundrect_rratio 0.25))
  (pad 13 smd roundrect (at 0.9 1.95) (size 0.25 0.8) (layers F.Cu F.Mask F.Paste) (roundrect_rratio 0.25))
  (pad 14 smd custom (at 1.35 1.95) (size 0.179289 0.179289) (layers F.Cu F.Mask F.Paste)
    (options (clearance outline) (anchor circle))
    (primitives
      (gr_poly (pts
         (xy -0.0625 -0.3375) (xy -0.000888 -0.3375) (xy 0.0625 -0.274112) (xy 0.0625 0.3375)
         (xy -0.0625 0.3375)) (width 0.125))
    ))
  (pad 15 smd custom (at 1.95 1.35) (size 0.179289 0.179289) (layers F.Cu F.Mask F.Paste)
    (options (clearance outline) (anchor circle))
    (primitives
      (gr_poly (pts
         (xy -0.3375 -0.0625) (xy 0.3375 -0.0625) (xy 0.3375 0.0625) (xy -0.274112 0.0625)
         (xy -0.3375 -0.000888)) (width 0.125))
    ))
  (pad 16 smd roundrect (at 1.95 0.9) (size 0.8 0.25) (layers F.Cu F.Mask F.Paste) (roundrect_rratio 0.25))
  (pad 17 smd roundrect (at 1.95 0.45) (size 0.8 0.25) (layers F.Cu F.Mask F.Paste) (roundrect_rratio 0.25))
  (pad 18 smd roundrect (at 1.95 0) (size 0.8 0.25) (layers F.Cu F.Mask F.Paste) (roundrect_rratio 0.25))
  (pad 19 smd roundrect (at 1.95 -0.45) (size 0.8 0.25) (layers F.Cu F.Mask F.Paste) (roundrect_rratio 0.25))
  (pad 20 smd roundrect (at 1.95 -0.9) (size 0.8 0.25) (layers F.Cu F.Mask F.Paste) (roundrect_rratio 0.25))
  (pad 21 smd custom (at 1.95 -1.35) (size 0.179289 0.179289) (layers F.Cu F.Mask F.Paste)
    (options (clearance outline) (anchor circle))
    (primitives
      (gr_poly (pts
         (xy -0.3375 0.000888) (xy -0.274112 -0.0625) (xy 0.3375 -0.0625) (xy 0.3375 0.0625)
         (xy -0.3375 0.0625)) (width 0.125))
    ))
  (pad 22 smd custom (at 1.35 -1.95) (size 0.179289 0.179289) (layers F.Cu F.Mask F.Paste)
    (options (clearance outline) (anchor circle))
    (primitives
      (gr_poly (pts
         (xy -0.0625 -0.3375) (xy 0.0625 -0.3375) (xy 0.0625 0.274112) (xy -0.000888 0.3375)
         (xy -0.0625 0.3375)) (width 0.125))
    ))
  (pad 23 smd roundrect (at 0.9 -1.95) (size 0.25 0.8) (layers F.Cu F.Mask F.Paste) (roundrect_rratio 0.25))
  (pad 24 smd roundrect (at 0.45 -1.95) (size 0.25 0.8) (layers F.Cu F.Mask F.Paste) (roundrect_rratio 0.25))
  (pad 25 smd roundrect (at 0 -1.95) (size 0.25 0.8) (layers F.Cu F.Mask F.Paste) (roundrect_rratio 0.25))
  (pad 26 smd roundrect (at -0.45 -1.95) (size 0.25 0.8) (layers F.Cu F.Mask F.Paste) (roundrect_rratio 0.25))
  (pad 27 smd roundrect (at -0.9 -1.95) (size 0.25 0.8) (layers F.Cu F.Mask F.Paste) (roundrect_rratio 0.25))
  (pad 28 smd custom (at -1.35 -1.95) (size 0.179289 0.179289) (layers F.Cu F.Mask F.Paste)
    (options (clearance outline) (anchor circle))
    (primitives
      (gr_poly (pts
         (xy -0.0625 -0.3375) (xy 0.0625 -0.3375) (xy 0.0625 0.3375) (xy 0.000888 0.3375)
         (xy -0.0625 0.274112)) (width 0.125))
    ))
  (pad 29 smd rect (at 0 0) (size 2.4 2.4) (property pad_prop_heatsink) (layers F.Cu F.Mask)
    (zone_connect 2))
  (pad "" smd roundrect (at -0.6 -0.6) (size 0.97 0.97) (layers F.Paste) (roundrect_rratio 0.25))
  (pad "" smd roundrect (at -0.6 0.6) (size 0.97 0.97) (layers F.Paste) (roundrect_rratio 0.25))
  (pad "" smd roundrect (at 0.6 -0.6) (size 0.97 0.97) (layers F.Paste) (roundrect_rratio 0.25))
  (pad "" smd roundrect (at 0.6 0.6) (size 0.97 0.97) (layers F.Paste) (roundrect_rratio 0.25))
  (fp_poly (pts (xy -2.11 -2.11) (xy -2.29 -2.362) (xy -1.93 -2.362) (xy -2.11 -2.11))
    (stroke (width 0.12) (type solid)) (fill solid) (layer F.SilkS))
  (fp_text user ${REFERENCE} (at 0 0) (layer F.Fab)
    (effects (font (size 1 1) (thickness 0.15)))
  )
  (model ${KICAD7_3DMODEL_DIR}/Package_DFN_QFN.3dshapes/QFN-28-1EP_4x4mm_P0.45mm_EP2.4x2.4mm.wrl
    (offset (xyz 0 0 0))
    (scale (xyz 1 1 1))
    (rotate (xyz 0 0 0))
  )
)
