(footprint QFN-44-1EP_7x7mm_P0.5mm_EP5.2x5.2mm (version 20221018) (generator kicad-footprint-generator)
  (layer F.Cu)
  (descr "QFN, 44 Pin (http://ww1.microchip.com/downloads/en/DeviceDoc/2512S.pdf#page=17), generated with kicad-footprint-generator ipc_noLead_generator.py")
  (tags "QFN NoLead")
  (attr smd)
  (fp_text reference REF** (at 0 -4.83) (layer F.SilkS)
    (effects (font (size 1 1) (thickness 0.15)))
  )
  (fp_text value QFN-44-1EP_7x7mm_P0.5mm_EP5.2x5.2mm (at 0 4.83) (layer F.Fab)
    (effects (font (size 1 1) (thickness 0.15)))
  )
  (fp_line (start -2.885 -3.61) (end -3.31 -3.61)
    (stroke (width 0.12) (type solid)) (layer F.SilkS))
  (fp_line (start -3.61 -2.885) (end -3.61 -3.37)
    (stroke (width 0.12) (type solid)) (layer F.SilkS))
  (fp_line (start 2.885 -3.61) (end 3.61 -3.61)
    (stroke (width 0.12) (type solid)) (layer F.SilkS))
  (fp_line (start 3.61 -3.61) (end 3.61 -2.885)
    (stroke (width 0.12) (type solid)) (layer F.SilkS))
  (fp_line (start -2.885 3.61) (end -3.61 3.61)
    (stroke (width 0.12) (type solid)) (layer F.SilkS))
  (fp_line (start -3.61 3.61) (end -3.61 2.885)
    (stroke (width 0.12) (type solid)) (layer F.SilkS))
  (fp_line (start 2.885 3.61) (end 3.61 3.61)
    (stroke (width 0.12) (type solid)) (layer F.SilkS))
  (fp_line (start 3.61 3.61) (end 3.61 2.885)
    (stroke (width 0.12) (type solid)) (layer F.SilkS))
  (fp_line (start -2.5 -3.5) (end 3.5 -3.5)
    (stroke (width 0.1) (type solid)) (layer F.Fab))
  (fp_line (start 3.5 -3.5) (end 3.5 3.5)
    (stroke (width 0.1) (type solid)) (layer F.Fab))
  (fp_line (start 3.5 3.5) (end -3.5 3.5)
    (stroke (width 0.1) (type solid)) (layer F.Fab))
  (fp_line (start -3.5 3.5) (end -3.5 -2.5)
    (stroke (width 0.1) (type solid)) (layer F.Fab))
  (fp_line (start -3.5 -2.5) (end -2.5 -3.5)
    (stroke (width 0.1) (type solid)) (layer F.Fab))
  (fp_line (start -4.13 -4.13) (end -4.13 4.13)
    (stroke (width 0.05) (type solid)) (layer F.CrtYd))
  (fp_line (start -4.13 4.13) (end 4.13 4.13)
    (stroke (width 0.05) (type solid)) (layer F.CrtYd))
  (fp_line (start 4.13 4.13) (end 4.13 -4.13)
    (stroke (width 0.05) (type solid)) (layer F.CrtYd))
  (fp_line (start 4.13 -4.13) (end -4.13 -4.13)
    (stroke (width 0.05) (type solid)) (layer F.CrtYd))
  (pad 1 smd roundrect (at -3.3375 -2.5) (size 1.075 0.25) (layers F.Cu F.Mask F.Paste) (roundrect_rratio 0.25))
  (pad 2 smd roundrect (at -3.3375 -2) (size 1.075 0.25) (layers F.Cu F.Mask F.Paste) (roundrect_rratio 0.25))
  (pad 3 smd roundrect (at -3.3375 -1.5) (size 1.075 0.25) (layers F.Cu F.Mask F.Paste) (roundrect_rratio 0.25))
  (pad 4 smd roundrect (at -3.3375 -1) (size 1.075 0.25) (layers F.Cu F.Mask F.Paste) (roundrect_rratio 0.25))
  (pad 5 smd roundrect (at -3.3375 -0.5) (size 1.075 0.25) (layers F.Cu F.Mask F.Paste) (roundrect_rratio 0.25))
  (pad 6 smd roundrect (at -3.3375 0) (size 1.075 0.25) (layers F.Cu F.Mask F.Paste) (roundrect_rratio 0.25))
  (pad 7 smd roundrect (at -3.3375 0.5) (size 1.075 0.25) (layers F.Cu F.Mask F.Paste) (roundrect_rratio 0.25))
  (pad 8 smd roundrect (at -3.3375 1) (size 1.075 0.25) (layers F.Cu F.Mask F.Paste) (roundrect_rratio 0.25))
  (pad 9 smd roundrect (at -3.3375 1.5) (size 1.075 0.25) (layers F.Cu F.Mask F.Paste) (roundrect_rratio 0.25))
  (pad 10 smd roundrect (at -3.3375 2) (size 1.075 0.25) (layers F.Cu F.Mask F.Paste) (roundrect_rratio 0.25))
  (pad 11 smd roundrect (at -3.3375 2.5) (size 1.075 0.25) (layers F.Cu F.Mask F.Paste) (roundrect_rratio 0.25))
  (pad 12 smd roundrect (at -2.5 3.3375) (size 0.25 1.075) (layers F.Cu F.Mask F.Paste) (roundrect_rratio 0.25))
  (pad 13 smd roundrect (at -2 3.3375) (size 0.25 1.075) (layers F.Cu F.Mask F.Paste) (roundrect_rratio 0.25))
  (pad 14 smd roundrect (at -1.5 3.3375) (size 0.25 1.075) (layers F.Cu F.Mask F.Paste) (roundrect_rratio 0.25))
  (pad 15 smd roundrect (at -1 3.3375) (size 0.25 1.075) (layers F.Cu F.Mask F.Paste) (roundrect_rratio 0.25))
  (pad 16 smd roundrect (at -0.5 3.3375) (size 0.25 1.075) (layers F.Cu F.Mask F.Paste) (roundrect_rratio 0.25))
  (pad 17 smd roundrect (at 0 3.3375) (size 0.25 1.075) (layers F.Cu F.Mask F.Paste) (roundrect_rratio 0.25))
  (pad 18 smd roundrect (at 0.5 3.3375) (size 0.25 1.075) (layers F.Cu F.Mask F.Paste) (roundrect_rratio 0.25))
  (pad 19 smd roundrect (at 1 3.3375) (size 0.25 1.075) (layers F.Cu F.Mask F.Paste) (roundrect_rratio 0.25))
  (pad 20 smd roundrect (at 1.5 3.3375) (size 0.25 1.075) (layers F.Cu F.Mask F.Paste) (roundrect_rratio 0.25))
  (pad 21 smd roundrect (at 2 3.3375) (size 0.25 1.075) (layers F.Cu F.Mask F.Paste) (roundrect_rratio 0.25))
  (pad 22 smd roundrect (at 2.5 3.3375) (size 0.25 1.075) (layers F.Cu F.Mask F.Paste) (roundrect_rratio 0.25))
  (pad 23 smd roundrect (at 3.3375 2.5) (size 1.075 0.25) (layers F.Cu F.Mask F.Paste) (roundrect_rratio 0.25))
  (pad 24 smd roundrect (at 3.3375 2) (size 1.075 0.25) (layers F.Cu F.Mask F.Paste) (roundrect_rratio 0.25))
  (pad 25 smd roundrect (at 3.3375 1.5) (size 1.075 0.25) (layers F.Cu F.Mask F.Paste) (roundrect_rratio 0.25))
  (pad 26 smd roundrect (at 3.3375 1) (size 1.075 0.25) (layers F.Cu F.Mask F.Paste) (roundrect_rratio 0.25))
  (pad 27 smd roundrect (at 3.3375 0.5) (size 1.075 0.25) (layers F.Cu F.Mask F.Paste) (roundrect_rratio 0.25))
  (pad 28 smd roundrect (at 3.3375 0) (size 1.075 0.25) (layers F.Cu F.Mask F.Paste) (roundrect_rratio 0.25))
  (pad 29 smd roundrect (at 3.3375 -0.5) (size 1.075 0.25) (layers F.Cu F.Mask F.Paste) (roundrect_rratio 0.25))
  (pad 30 smd roundrect (at 3.3375 -1) (size 1.075 0.25) (layers F.Cu F.Mask F.Paste) (roundrect_rratio 0.25))
  (pad 31 smd roundrect (at 3.3375 -1.5) (size 1.075 0.25) (layers F.Cu F.Mask F.Paste) (roundrect_rratio 0.25))
  (pad 32 smd roundrect (at 3.3375 -2) (size 1.075 0.25) (layers F.Cu F.Mask F.Paste) (roundrect_rratio 0.25))
  (pad 33 smd roundrect (at 3.3375 -2.5) (size 1.075 0.25) (layers F.Cu F.Mask F.Paste) (roundrect_rratio 0.25))
  (pad 34 smd roundrect (at 2.5 -3.3375) (size 0.25 1.075) (layers F.Cu F.Mask F.Paste) (roundrect_rratio 0.25))
  (pad 35 smd roundrect (at 2 -3.3375) (size 0.25 1.075) (layers F.Cu F.Mask F.Paste) (roundrect_rratio 0.25))
  (pad 36 smd roundrect (at 1.5 -3.3375) (size 0.25 1.075) (layers F.Cu F.Mask F.Paste) (roundrect_rratio 0.25))
  (pad 37 smd roundrect (at 1 -3.3375) (size 0.25 1.075) (layers F.Cu F.Mask F.Paste) (roundrect_rratio 0.25))
  (pad 38 smd roundrect (at 0.5 -3.3375) (size 0.25 1.075) (layers F.Cu F.Mask F.Paste) (roundrect_rratio 0.25))
  (pad 39 smd roundrect (at 0 -3.3375) (size 0.25 1.075) (layers F.Cu F.Mask F.Paste) (roundrect_rratio 0.25))
  (pad 40 smd roundrect (at -0.5 -3.3375) (size 0.25 1.075) (layers F.Cu F.Mask F.Paste) (roundrect_rratio 0.25))
  (pad 41 smd roundrect (at -1 -3.3375) (size 0.25 1.075) (layers F.Cu F.Mask F.Paste) (roundrect_rratio 0.25))
  (pad 42 smd roundrect (at -1.5 -3.3375) (size 0.25 1.075) (layers F.Cu F.Mask F.Paste) (roundrect_rratio 0.25))
  (pad 43 smd roundrect (at -2 -3.3375) (size 0.25 1.075) (layers F.Cu F.Mask F.Paste) (roundrect_rratio 0.25))
  (pad 44 smd roundrect (at -2.5 -3.3375) (size 0.25 1.075) (layers F.Cu F.Mask F.Paste) (roundrect_rratio 0.25))
  (pad 45 smd rect (at 0 0) (size 5.2 5.2) (property pad_prop_heatsink) (layers F.Cu F.Mask)
    (zone_connect 2))
  (pad "" smd roundrect (at -1.95 -1.95) (size 1.05 1.05) (layers F.Paste) (roundrect_rratio 0.238095))
  (pad "" smd roundrect (at -1.95 -0.65) (size 1.05 1.05) (layers F.Paste) (roundrect_rratio 0.238095))
  (pad "" smd roundrect (at -1.95 0.65) (size 1.05 1.05) (layers F.Paste) (roundrect_rratio 0.238095))
  (pad "" smd roundrect (at -1.95 1.95) (size 1.05 1.05) (layers F.Paste) (roundrect_rratio 0.238095))
  (pad "" smd roundrect (at -0.65 -1.95) (size 1.05 1.05) (layers F.Paste) (roundrect_rratio 0.238095))
  (pad "" smd roundrect (at -0.65 -0.65) (size 1.05 1.05) (layers F.Paste) (roundrect_rratio 0.238095))
  (pad "" smd roundrect (at -0.65 0.65) (size 1.05 1.05) (layers F.Paste) (roundrect_rratio 0.238095))
  (pad "" smd roundrect (at -0.65 1.95) (size 1.05 1.05) (layers F.Paste) (roundrect_rratio 0.238095))
  (pad "" smd roundrect (at 0.65 -1.95) (size 1.05 1.05) (layers F.Paste) (roundrect_rratio 0.238095))
  (pad "" smd roundrect (at 0.65 -0.65) (size 1.05 1.05) (layers F.Paste) (roundrect_rratio 0.238095))
  (pad "" smd roundrect (at 0.65 0.65) (size 1.05 1.05) (layers F.Paste) (roundrect_rratio 0.238095))
  (pad "" smd roundrect (at 0.65 1.95) (size 1.05 1.05) (layers F.Paste) (roundrect_rratio 0.238095))
  (pad "" smd roundrect (at 1.95 -1.95) (size 1.05 1.05) (layers F.Paste) (roundrect_rratio 0.238095))
  (pad "" smd roundrect (at 1.95 -0.65) (size 1.05 1.05) (layers F.Paste) (roundrect_rratio 0.238095))
  (pad "" smd roundrect (at 1.95 0.65) (size 1.05 1.05) (layers F.Paste) (roundrect_rratio 0.238095))
  (pad "" smd roundrect (at 1.95 1.95) (size 1.05 1.05) (layers F.Paste) (roundrect_rratio 0.238095))
  (fp_poly (pts (xy -3.61 -3.61) (xy -3.79 -3.862) (xy -3.43 -3.862) (xy -3.61 -3.61))
    (stroke (width 0.12) (type solid)) (fill solid) (layer F.SilkS))
  (fp_text user ${REFERENCE} (at 0 0) (layer F.Fab)
    (effects (font (size 1 1) (thickness 0.15)))
  )
  (model ${KICAD7_3DMODEL_DIR}/Package_DFN_QFN.3dshapes/QFN-44-1EP_7x7mm_P0.5mm_EP5.2x5.2mm.wrl
    (offset (xyz 0 0 0))
    (scale (xyz 1 1 1))
    (rotate (xyz 0 0 0))
  )
)
