(footprint QFN-28-1EP_6x6mm_P0.65mm_EP4.8x4.8mm_ThermalVias (version 20221018) (generator kicad-footprint-generator)
  (layer F.Cu)
  (descr "QFN, 28 Pin (https://www.semtech.com/uploads/documents/sx1272.pdf#page=125), generated with kicad-footprint-generator ipc_noLead_generator.py")
  (tags "QFN NoLead")
  (attr smd)
  (fp_text reference REF** (at 0 -4.33) (layer F.SilkS)
    (effects (font (size 1 1) (thickness 0.15)))
  )
  (fp_text value QFN-28-1EP_6x6mm_P0.65mm_EP4.8x4.8mm_ThermalVias (at 0 4.33) (layer F.Fab)
    (effects (font (size 1 1) (thickness 0.15)))
  )
  (fp_line (start -2.36 -3.11) (end -2.81 -3.11)
    (stroke (width 0.12) (type solid)) (layer F.SilkS))
  (fp_line (start -3.11 -2.36) (end -3.11 -2.87)
    (stroke (width 0.12) (type solid)) (layer F.SilkS))
  (fp_line (start 2.36 -3.11) (end 3.11 -3.11)
    (stroke (width 0.12) (type solid)) (layer F.SilkS))
  (fp_line (start 3.11 -3.11) (end 3.11 -2.36)
    (stroke (width 0.12) (type solid)) (layer F.SilkS))
  (fp_line (start -2.36 3.11) (end -3.11 3.11)
    (stroke (width 0.12) (type solid)) (layer F.SilkS))
  (fp_line (start -3.11 3.11) (end -3.11 2.36)
    (stroke (width 0.12) (type solid)) (layer F.SilkS))
  (fp_line (start 2.36 3.11) (end 3.11 3.11)
    (stroke (width 0.12) (type solid)) (layer F.SilkS))
  (fp_line (start 3.11 3.11) (end 3.11 2.36)
    (stroke (width 0.12) (type solid)) (layer F.SilkS))
  (fp_line (start -2 -3) (end 3 -3)
    (stroke (width 0.1) (type solid)) (layer F.Fab))
  (fp_line (start 3 -3) (end 3 3)
    (stroke (width 0.1) (type solid)) (layer F.Fab))
  (fp_line (start 3 3) (end -3 3)
    (stroke (width 0.1) (type solid)) (layer F.Fab))
  (fp_line (start -3 3) (end -3 -2)
    (stroke (width 0.1) (type solid)) (layer F.Fab))
  (fp_line (start -3 -2) (end -2 -3)
    (stroke (width 0.1) (type solid)) (layer F.Fab))
  (fp_line (start -3.63 -3.63) (end -3.63 3.63)
    (stroke (width 0.05) (type solid)) (layer F.CrtYd))
  (fp_line (start -3.63 3.63) (end 3.63 3.63)
    (stroke (width 0.05) (type solid)) (layer F.CrtYd))
  (fp_line (start 3.63 3.63) (end 3.63 -3.63)
    (stroke (width 0.05) (type solid)) (layer F.CrtYd))
  (fp_line (start 3.63 -3.63) (end -3.63 -3.63)
    (stroke (width 0.05) (type solid)) (layer F.CrtYd))
  (pad 1 smd roundrect (at -2.9875 -1.95) (size 0.775 0.3) (layers F.Cu F.Mask F.Paste) (roundrect_rratio 0.25))
  (pad 2 smd roundrect (at -2.9875 -1.3) (size 0.775 0.3) (layers F.Cu F.Mask F.Paste) (roundrect_rratio 0.25))
  (pad 3 smd roundrect (at -2.9875 -0.65) (size 0.775 0.3) (layers F.Cu F.Mask F.Paste) (roundrect_rratio 0.25))
  (pad 4 smd roundrect (at -2.9875 0) (size 0.775 0.3) (layers F.Cu F.Mask F.Paste) (roundrect_rratio 0.25))
  (pad 5 smd roundrect (at -2.9875 0.65) (size 0.775 0.3) (layers F.Cu F.Mask F.Paste) (roundrect_rratio 0.25))
  (pad 6 smd roundrect (at -2.9875 1.3) (size 0.775 0.3) (layers F.Cu F.Mask F.Paste) (roundrect_rratio 0.25))
  (pad 7 smd roundrect (at -2.9875 1.95) (size 0.775 0.3) (layers F.Cu F.Mask F.Paste) (roundrect_rratio 0.25))
  (pad 8 smd roundrect (at -1.95 2.9875) (size 0.3 0.775) (layers F.Cu F.Mask F.Paste) (roundrect_rratio 0.25))
  (pad 9 smd roundrect (at -1.3 2.9875) (size 0.3 0.775) (layers F.Cu F.Mask F.Paste) (roundrect_rratio 0.25))
  (pad 10 smd roundrect (at -0.65 2.9875) (size 0.3 0.775) (layers F.Cu F.Mask F.Paste) (roundrect_rratio 0.25))
  (pad 11 smd roundrect (at 0 2.9875) (size 0.3 0.775) (layers F.Cu F.Mask F.Paste) (roundrect_rratio 0.25))
  (pad 12 smd roundrect (at 0.65 2.9875) (size 0.3 0.775) (layers F.Cu F.Mask F.Paste) (roundrect_rratio 0.25))
  (pad 13 smd roundrect (at 1.3 2.9875) (size 0.3 0.775) (layers F.Cu F.Mask F.Paste) (roundrect_rratio 0.25))
  (pad 14 smd roundrect (at 1.95 2.9875) (size 0.3 0.775) (layers F.Cu F.Mask F.Paste) (roundrect_rratio 0.25))
  (pad 15 smd roundrect (at 2.9875 1.95) (size 0.775 0.3) (layers F.Cu F.Mask F.Paste) (roundrect_rratio 0.25))
  (pad 16 smd roundrect (at 2.9875 1.3) (size 0.775 0.3) (layers F.Cu F.Mask F.Paste) (roundrect_rratio 0.25))
  (pad 17 smd roundrect (at 2.9875 0.65) (size 0.775 0.3) (layers F.Cu F.Mask F.Paste) (roundrect_rratio 0.25))
  (pad 18 smd roundrect (at 2.9875 0) (size 0.775 0.3) (layers F.Cu F.Mask F.Paste) (roundrect_rratio 0.25))
  (pad 19 smd roundrect (at 2.9875 -0.65) (size 0.775 0.3) (layers F.Cu F.Mask F.Paste) (roundrect_rratio 0.25))
  (pad 20 smd roundrect (at 2.9875 -1.3) (size 0.775 0.3) (layers F.Cu F.Mask F.Paste) (roundrect_rratio 0.25))
  (pad 21 smd roundrect (at 2.9875 -1.95) (size 0.775 0.3) (layers F.Cu F.Mask F.Paste) (roundrect_rratio 0.25))
  (pad 22 smd roundrect (at 1.95 -2.9875) (size 0.3 0.775) (layers F.Cu F.Mask F.Paste) (roundrect_rratio 0.25))
  (pad 23 smd roundrect (at 1.3 -2.9875) (size 0.3 0.775) (layers F.Cu F.Mask F.Paste) (roundrect_rratio 0.25))
  (pad 24 smd roundrect (at 0.65 -2.9875) (size 0.3 0.775) (layers F.Cu F.Mask F.Paste) (roundrect_rratio 0.25))
  (pad 25 smd roundrect (at 0 -2.9875) (size 0.3 0.775) (layers F.Cu F.Mask F.Paste) (roundrect_rratio 0.25))
  (pad 26 smd roundrect (at -0.65 -2.9875) (size 0.3 0.775) (layers F.Cu F.Mask F.Paste) (roundrect_rratio 0.25))
  (pad 27 smd roundrect (at -1.3 -2.9875) (size 0.3 0.775) (layers F.Cu F.Mask F.Paste) (roundrect_rratio 0.25))
  (pad 28 smd roundrect (at -1.95 -2.9875) (size 0.3 0.775) (layers F.Cu F.Mask F.Paste) (roundrect_rratio 0.25))
  (pad 29 smd rect (at 0 0) (size 4.8 4.8) (property pad_prop_heatsink) (layers F.Cu F.Mask)
    (zone_connect 2))
  (pad 29 thru_hole circle (at -1.425 -1.425) (size 0.5 0.5) (drill 0.2) (property pad_prop_heatsink) (layers *.Cu))
  (pad 29 thru_hole circle (at -0.475 -1.425) (size 0.5 0.5) (drill 0.2) (property pad_prop_heatsink) (layers *.Cu))
  (pad 29 thru_hole circle (at 0.475 -1.425) (size 0.5 0.5) (drill 0.2) (property pad_prop_heatsink) (layers *.Cu))
  (pad 29 thru_hole circle (at 1.425 -1.425) (size 0.5 0.5) (drill 0.2) (property pad_prop_heatsink) (layers *.Cu))
  (pad 29 thru_hole circle (at -1.425 -0.475) (size 0.5 0.5) (drill 0.2) (property pad_prop_heatsink) (layers *.Cu))
  (pad 29 thru_hole circle (at -0.475 -0.475) (size 0.5 0.5) (drill 0.2) (property pad_prop_heatsink) (layers *.Cu))
  (pad 29 thru_hole circle (at 0.475 -0.475) (size 0.5 0.5) (drill 0.2) (property pad_prop_heatsink) (layers *.Cu))
  (pad 29 thru_hole circle (at 1.425 -0.475) (size 0.5 0.5) (drill 0.2) (property pad_prop_heatsink) (layers *.Cu))
  (pad 29 thru_hole circle (at -1.425 0.475) (size 0.5 0.5) (drill 0.2) (property pad_prop_heatsink) (layers *.Cu))
  (pad 29 thru_hole circle (at -0.475 0.475) (size 0.5 0.5) (drill 0.2) (property pad_prop_heatsink) (layers *.Cu))
  (pad 29 thru_hole circle (at 0.475 0.475) (size 0.5 0.5) (drill 0.2) (property pad_prop_heatsink) (layers *.Cu))
  (pad 29 thru_hole circle (at 1.425 0.475) (size 0.5 0.5) (drill 0.2) (property pad_prop_heatsink) (layers *.Cu))
  (pad 29 thru_hole circle (at -1.425 1.425) (size 0.5 0.5) (drill 0.2) (property pad_prop_heatsink) (layers *.Cu))
  (pad 29 thru_hole circle (at -0.475 1.425) (size 0.5 0.5) (drill 0.2) (property pad_prop_heatsink) (layers *.Cu))
  (pad 29 thru_hole circle (at 0.475 1.425) (size 0.5 0.5) (drill 0.2) (property pad_prop_heatsink) (layers *.Cu))
  (pad 29 thru_hole circle (at 1.425 1.425) (size 0.5 0.5) (drill 0.2) (property pad_prop_heatsink) (layers *.Cu))
  (pad 29 smd rect (at 0 0) (size 3.35 3.35) (property pad_prop_heatsink) (layers B.Cu)
    (zone_connect 2))
  (pad "" smd roundrect (at -0.95 -0.95) (size 0.765914 0.765914) (layers F.Paste) (roundrect_rratio 0.25))
  (pad "" smd roundrect (at -0.95 0) (size 0.765914 0.765914) (layers F.Paste) (roundrect_rratio 0.25))
  (pad "" smd roundrect (at -0.95 0.95) (size 0.765914 0.765914) (layers F.Paste) (roundrect_rratio 0.25))
  (pad "" smd roundrect (at 0 -0.95) (size 0.765914 0.765914) (layers F.Paste) (roundrect_rratio 0.25))
  (pad "" smd roundrect (at 0 0) (size 0.765914 0.765914) (layers F.Paste) (roundrect_rratio 0.25))
  (pad "" smd roundrect (at 0 0.95) (size 0.765914 0.765914) (layers F.Paste) (roundrect_rratio 0.25))
  (pad "" smd roundrect (at 0.95 -0.95) (size 0.765914 0.765914) (layers F.Paste) (roundrect_rratio 0.25))
  (pad "" smd roundrect (at 0.95 0) (size 0.765914 0.765914) (layers F.Paste) (roundrect_rratio 0.25))
  (pad "" smd roundrect (at 0.95 0.95) (size 0.765914 0.765914) (layers F.Paste) (roundrect_rratio 0.25))
  (pad "" smd roundrect (at -1.9125 -0.95) (size 0.78607 0.765914) (layers F.Paste) (roundrect_rratio 0.25))
  (pad "" smd roundrect (at -1.9125 0) (size 0.78607 0.765914) (layers F.Paste) (roundrect_rratio 0.25))
  (pad "" smd roundrect (at -1.9125 0.95) (size 0.78607 0.765914) (layers F.Paste) (roundrect_rratio 0.25))
  (pad "" smd roundrect (at 1.9125 -0.95) (size 0.78607 0.765914) (layers F.Paste) (roundrect_rratio 0.25))
  (pad "" smd roundrect (at 1.9125 0) (size 0.78607 0.765914) (layers F.Paste) (roundrect_rratio 0.25))
  (pad "" smd roundrect (at 1.9125 0.95) (size 0.78607 0.765914) (layers F.Paste) (roundrect_rratio 0.25))
  (pad "" smd roundrect (at -0.95 -1.9125) (size 0.765914 0.78607) (layers F.Paste) (roundrect_rratio 0.25))
  (pad "" smd roundrect (at 0 -1.9125) (size 0.765914 0.78607) (layers F.Paste) (roundrect_rratio 0.25))
  (pad "" smd roundrect (at 0.95 -1.9125) (size 0.765914 0.78607) (layers F.Paste) (roundrect_rratio 0.25))
  (pad "" smd roundrect (at -0.95 1.9125) (size 0.765914 0.78607) (layers F.Paste) (roundrect_rratio 0.25))
  (pad "" smd roundrect (at 0 1.9125) (size 0.765914 0.78607) (layers F.Paste) (roundrect_rratio 0.25))
  (pad "" smd roundrect (at 0.95 1.9125) (size 0.765914 0.78607) (layers F.Paste) (roundrect_rratio 0.25))
  (pad "" smd roundrect (at -1.9125 -1.9125) (size 0.78607 0.78607) (layers F.Paste) (roundrect_rratio 0.25))
  (pad "" smd roundrect (at -1.9125 1.9125) (size 0.78607 0.78607) (layers F.Paste) (roundrect_rratio 0.25))
  (pad "" smd roundrect (at 1.9125 -1.9125) (size 0.78607 0.78607) (layers F.Paste) (roundrect_rratio 0.25))
  (pad "" smd roundrect (at 1.9125 1.9125) (size 0.78607 0.78607) (layers F.Paste) (roundrect_rratio 0.25))
  (fp_poly (pts (xy -3.11 -3.11) (xy -3.29 -3.362) (xy -2.93 -3.362) (xy -3.11 -3.11))
    (stroke (width 0.12) (type solid)) (fill solid) (layer F.SilkS))
  (fp_text user ${REFERENCE} (at 0 0) (layer F.Fab)
    (effects (font (size 1 1) (thickness 0.15)))
  )
  (model ${KICAD7_3DMODEL_DIR}/Package_DFN_QFN.3dshapes/QFN-28-1EP_6x6mm_P0.65mm_EP4.8x4.8mm.wrl
    (offset (xyz 0 0 0))
    (scale (xyz 1 1 1))
    (rotate (xyz 0 0 0))
  )
)
