(footprint QFN-38-1EP_4x6mm_P0.4mm_EP2.65x4.65mm (version 20221018) (generator kicad-footprint-generator)
  (layer F.Cu)
  (descr "QFN, 38 Pin (http://www.analog.com/media/en/package-pcb-resources/package/pkg_pdf/ltc-legacy-qfn/QFN_38_05-08-1750.pdf), generated with kicad-footprint-generator ipc_noLead_generator.py")
  (tags "QFN NoLead")
  (attr smd)
  (fp_text reference REF** (at 0 -4.33) (layer F.SilkS)
    (effects (font (size 1 1) (thickness 0.15)))
  )
  (fp_text value QFN-38-1EP_4x6mm_P0.4mm_EP2.65x4.65mm (at 0 4.33) (layer F.Fab)
    (effects (font (size 1 1) (thickness 0.15)))
  )
  (fp_line (start -1.56 -3.11) (end -1.81 -3.11)
    (stroke (width 0.12) (type solid)) (layer F.SilkS))
  (fp_line (start -2.11 -2.56) (end -2.11 -2.87)
    (stroke (width 0.12) (type solid)) (layer F.SilkS))
  (fp_line (start 1.56 -3.11) (end 2.11 -3.11)
    (stroke (width 0.12) (type solid)) (layer F.SilkS))
  (fp_line (start 2.11 -3.11) (end 2.11 -2.56)
    (stroke (width 0.12) (type solid)) (layer F.SilkS))
  (fp_line (start -1.56 3.11) (end -2.11 3.11)
    (stroke (width 0.12) (type solid)) (layer F.SilkS))
  (fp_line (start -2.11 3.11) (end -2.11 2.56)
    (stroke (width 0.12) (type solid)) (layer F.SilkS))
  (fp_line (start 1.56 3.11) (end 2.11 3.11)
    (stroke (width 0.12) (type solid)) (layer F.SilkS))
  (fp_line (start 2.11 3.11) (end 2.11 2.56)
    (stroke (width 0.12) (type solid)) (layer F.SilkS))
  (fp_line (start -1 -3) (end 2 -3)
    (stroke (width 0.1) (type solid)) (layer F.Fab))
  (fp_line (start 2 -3) (end 2 3)
    (stroke (width 0.1) (type solid)) (layer F.Fab))
  (fp_line (start 2 3) (end -2 3)
    (stroke (width 0.1) (type solid)) (layer F.Fab))
  (fp_line (start -2 3) (end -2 -2)
    (stroke (width 0.1) (type solid)) (layer F.Fab))
  (fp_line (start -2 -2) (end -1 -3)
    (stroke (width 0.1) (type solid)) (layer F.Fab))
  (fp_line (start -2.63 -3.63) (end -2.63 3.63)
    (stroke (width 0.05) (type solid)) (layer F.CrtYd))
  (fp_line (start -2.63 3.63) (end 2.63 3.63)
    (stroke (width 0.05) (type solid)) (layer F.CrtYd))
  (fp_line (start 2.63 3.63) (end 2.63 -3.63)
    (stroke (width 0.05) (type solid)) (layer F.CrtYd))
  (fp_line (start 2.63 -3.63) (end -2.63 -3.63)
    (stroke (width 0.05) (type solid)) (layer F.CrtYd))
  (pad 1 smd roundrect (at -1.95 -2.2) (size 0.85 0.2) (layers F.Cu F.Mask F.Paste) (roundrect_rratio 0.25))
  (pad 2 smd roundrect (at -1.95 -1.8) (size 0.85 0.2) (layers F.Cu F.Mask F.Paste) (roundrect_rratio 0.25))
  (pad 3 smd roundrect (at -1.95 -1.4) (size 0.85 0.2) (layers F.Cu F.Mask F.Paste) (roundrect_rratio 0.25))
  (pad 4 smd roundrect (at -1.95 -1) (size 0.85 0.2) (layers F.Cu F.Mask F.Paste) (roundrect_rratio 0.25))
  (pad 5 smd roundrect (at -1.95 -0.6) (size 0.85 0.2) (layers F.Cu F.Mask F.Paste) (roundrect_rratio 0.25))
  (pad 6 smd roundrect (at -1.95 -0.2) (size 0.85 0.2) (layers F.Cu F.Mask F.Paste) (roundrect_rratio 0.25))
  (pad 7 smd roundrect (at -1.95 0.2) (size 0.85 0.2) (layers F.Cu F.Mask F.Paste) (roundrect_rratio 0.25))
  (pad 8 smd roundrect (at -1.95 0.6) (size 0.85 0.2) (layers F.Cu F.Mask F.Paste) (roundrect_rratio 0.25))
  (pad 9 smd roundrect (at -1.95 1) (size 0.85 0.2) (layers F.Cu F.Mask F.Paste) (roundrect_rratio 0.25))
  (pad 10 smd roundrect (at -1.95 1.4) (size 0.85 0.2) (layers F.Cu F.Mask F.Paste) (roundrect_rratio 0.25))
  (pad 11 smd roundrect (at -1.95 1.8) (size 0.85 0.2) (layers F.Cu F.Mask F.Paste) (roundrect_rratio 0.25))
  (pad 12 smd roundrect (at -1.95 2.2) (size 0.85 0.2) (layers F.Cu F.Mask F.Paste) (roundrect_rratio 0.25))
  (pad 13 smd roundrect (at -1.2 2.95) (size 0.2 0.85) (layers F.Cu F.Mask F.Paste) (roundrect_rratio 0.25))
  (pad 14 smd roundrect (at -0.8 2.95) (size 0.2 0.85) (layers F.Cu F.Mask F.Paste) (roundrect_rratio 0.25))
  (pad 15 smd roundrect (at -0.4 2.95) (size 0.2 0.85) (layers F.Cu F.Mask F.Paste) (roundrect_rratio 0.25))
  (pad 16 smd roundrect (at 0 2.95) (size 0.2 0.85) (layers F.Cu F.Mask F.Paste) (roundrect_rratio 0.25))
  (pad 17 smd roundrect (at 0.4 2.95) (size 0.2 0.85) (layers F.Cu F.Mask F.Paste) (roundrect_rratio 0.25))
  (pad 18 smd roundrect (at 0.8 2.95) (size 0.2 0.85) (layers F.Cu F.Mask F.Paste) (roundrect_rratio 0.25))
  (pad 19 smd roundrect (at 1.2 2.95) (size 0.2 0.85) (layers F.Cu F.Mask F.Paste) (roundrect_rratio 0.25))
  (pad 20 smd roundrect (at 1.95 2.2) (size 0.85 0.2) (layers F.Cu F.Mask F.Paste) (roundrect_rratio 0.25))
  (pad 21 smd roundrect (at 1.95 1.8) (size 0.85 0.2) (layers F.Cu F.Mask F.Paste) (roundrect_rratio 0.25))
  (pad 22 smd roundrect (at 1.95 1.4) (size 0.85 0.2) (layers F.Cu F.Mask F.Paste) (roundrect_rratio 0.25))
  (pad 23 smd roundrect (at 1.95 1) (size 0.85 0.2) (layers F.Cu F.Mask F.Paste) (roundrect_rratio 0.25))
  (pad 24 smd roundrect (at 1.95 0.6) (size 0.85 0.2) (layers F.Cu F.Mask F.Paste) (roundrect_rratio 0.25))
  (pad 25 smd roundrect (at 1.95 0.2) (size 0.85 0.2) (layers F.Cu F.Mask F.Paste) (roundrect_rratio 0.25))
  (pad 26 smd roundrect (at 1.95 -0.2) (size 0.85 0.2) (layers F.Cu F.Mask F.Paste) (roundrect_rratio 0.25))
  (pad 27 smd roundrect (at 1.95 -0.6) (size 0.85 0.2) (layers F.Cu F.Mask F.Paste) (roundrect_rratio 0.25))
  (pad 28 smd roundrect (at 1.95 -1) (size 0.85 0.2) (layers F.Cu F.Mask F.Paste) (roundrect_rratio 0.25))
  (pad 29 smd roundrect (at 1.95 -1.4) (size 0.85 0.2) (layers F.Cu F.Mask F.Paste) (roundrect_rratio 0.25))
  (pad 30 smd roundrect (at 1.95 -1.8) (size 0.85 0.2) (layers F.Cu F.Mask F.Paste) (roundrect_rratio 0.25))
  (pad 31 smd roundrect (at 1.95 -2.2) (size 0.85 0.2) (layers F.Cu F.Mask F.Paste) (roundrect_rratio 0.25))
  (pad 32 smd roundrect (at 1.2 -2.95) (size 0.2 0.85) (layers F.Cu F.Mask F.Paste) (roundrect_rratio 0.25))
  (pad 33 smd roundrect (at 0.8 -2.95) (size 0.2 0.85) (layers F.Cu F.Mask F.Paste) (roundrect_rratio 0.25))
  (pad 34 smd roundrect (at 0.4 -2.95) (size 0.2 0.85) (layers F.Cu F.Mask F.Paste) (roundrect_rratio 0.25))
  (pad 35 smd roundrect (at 0 -2.95) (size 0.2 0.85) (layers F.Cu F.Mask F.Paste) (roundrect_rratio 0.25))
  (pad 36 smd roundrect (at -0.4 -2.95) (size 0.2 0.85) (layers F.Cu F.Mask F.Paste) (roundrect_rratio 0.25))
  (pad 37 smd roundrect (at -0.8 -2.95) (size 0.2 0.85) (layers F.Cu F.Mask F.Paste) (roundrect_rratio 0.25))
  (pad 38 smd roundrect (at -1.2 -2.95) (size 0.2 0.85) (layers F.Cu F.Mask F.Paste) (roundrect_rratio 0.25))
  (pad 39 smd rect (at 0 0) (size 2.65 4.65) (property pad_prop_heatsink) (layers F.Cu F.Mask)
    (zone_connect 2))
  (pad "" smd roundrect (at -0.66 -1.74) (size 1.07 0.94) (layers F.Paste) (roundrect_rratio 0.25))
  (pad "" smd roundrect (at -0.66 -0.58) (size 1.07 0.94) (layers F.Paste) (roundrect_rratio 0.25))
  (pad "" smd roundrect (at -0.66 0.58) (size 1.07 0.94) (layers F.Paste) (roundrect_rratio 0.25))
  (pad "" smd roundrect (at -0.66 1.74) (size 1.07 0.94) (layers F.Paste) (roundrect_rratio 0.25))
  (pad "" smd roundrect (at 0.66 -1.74) (size 1.07 0.94) (layers F.Paste) (roundrect_rratio 0.25))
  (pad "" smd roundrect (at 0.66 -0.58) (size 1.07 0.94) (layers F.Paste) (roundrect_rratio 0.25))
  (pad "" smd roundrect (at 0.66 0.58) (size 1.07 0.94) (layers F.Paste) (roundrect_rratio 0.25))
  (pad "" smd roundrect (at 0.66 1.74) (size 1.07 0.94) (layers F.Paste) (roundrect_rratio 0.25))
  (fp_poly (pts (xy -2.11 -3.11) (xy -2.29 -3.362) (xy -1.93 -3.362) (xy -2.11 -3.11))
    (stroke (width 0.12) (type solid)) (fill solid) (layer F.SilkS))
  (fp_text user ${REFERENCE} (at 0 0) (layer F.Fab)
    (effects (font (size 1 1) (thickness 0.15)))
  )
  (model ${KICAD7_3DMODEL_DIR}/Package_DFN_QFN.3dshapes/QFN-38-1EP_4x6mm_P0.4mm_EP2.65x4.65mm.wrl
    (offset (xyz 0 0 0))
    (scale (xyz 1 1 1))
    (rotate (xyz 0 0 0))
  )
)
