(footprint QFN-48-1EP_8x8mm_P0.5mm_EP6.2x6.2mm (version 20221018) (generator kicad-footprint-generator)
  (layer F.Cu)
  (descr "QFN, 48 Pin (https://www.ftdichip.com/Support/Documents/DataSheets/ICs/DS_FT232H.pdf#page=49), generated with kicad-footprint-generator ipc_noLead_generator.py")
  (tags "QFN NoLead")
  (attr smd)
  (fp_text reference REF** (at 0 -5.31) (layer F.SilkS)
    (effects (font (size 1 1) (thickness 0.15)))
  )
  (fp_text value QFN-48-1EP_8x8mm_P0.5mm_EP6.2x6.2mm (at 0 5.31) (layer F.Fab)
    (effects (font (size 1 1) (thickness 0.15)))
  )
  (fp_line (start -3.135 -4.11) (end -3.81 -4.11)
    (stroke (width 0.12) (type solid)) (layer F.SilkS))
  (fp_line (start -4.11 -3.135) (end -4.11 -3.87)
    (stroke (width 0.12) (type solid)) (layer F.SilkS))
  (fp_line (start 3.135 -4.11) (end 4.11 -4.11)
    (stroke (width 0.12) (type solid)) (layer F.SilkS))
  (fp_line (start 4.11 -4.11) (end 4.11 -3.135)
    (stroke (width 0.12) (type solid)) (layer F.SilkS))
  (fp_line (start -3.135 4.11) (end -4.11 4.11)
    (stroke (width 0.12) (type solid)) (layer F.SilkS))
  (fp_line (start -4.11 4.11) (end -4.11 3.135)
    (stroke (width 0.12) (type solid)) (layer F.SilkS))
  (fp_line (start 3.135 4.11) (end 4.11 4.11)
    (stroke (width 0.12) (type solid)) (layer F.SilkS))
  (fp_line (start 4.11 4.11) (end 4.11 3.135)
    (stroke (width 0.12) (type solid)) (layer F.SilkS))
  (fp_line (start -3 -4) (end 4 -4)
    (stroke (width 0.1) (type solid)) (layer F.Fab))
  (fp_line (start 4 -4) (end 4 4)
    (stroke (width 0.1) (type solid)) (layer F.Fab))
  (fp_line (start 4 4) (end -4 4)
    (stroke (width 0.1) (type solid)) (layer F.Fab))
  (fp_line (start -4 4) (end -4 -3)
    (stroke (width 0.1) (type solid)) (layer F.Fab))
  (fp_line (start -4 -3) (end -3 -4)
    (stroke (width 0.1) (type solid)) (layer F.Fab))
  (fp_line (start -4.61 -4.61) (end -4.61 4.61)
    (stroke (width 0.05) (type solid)) (layer F.CrtYd))
  (fp_line (start -4.61 4.61) (end 4.61 4.61)
    (stroke (width 0.05) (type solid)) (layer F.CrtYd))
  (fp_line (start 4.61 4.61) (end 4.61 -4.61)
    (stroke (width 0.05) (type solid)) (layer F.CrtYd))
  (fp_line (start 4.61 -4.61) (end -4.61 -4.61)
    (stroke (width 0.05) (type solid)) (layer F.CrtYd))
  (pad 1 smd roundrect (at -3.875 -2.75) (size 0.95 0.25) (layers F.Cu F.Mask F.Paste) (roundrect_rratio 0.25))
  (pad 2 smd roundrect (at -3.875 -2.25) (size 0.95 0.25) (layers F.Cu F.Mask F.Paste) (roundrect_rratio 0.25))
  (pad 3 smd roundrect (at -3.875 -1.75) (size 0.95 0.25) (layers F.Cu F.Mask F.Paste) (roundrect_rratio 0.25))
  (pad 4 smd roundrect (at -3.875 -1.25) (size 0.95 0.25) (layers F.Cu F.Mask F.Paste) (roundrect_rratio 0.25))
  (pad 5 smd roundrect (at -3.875 -0.75) (size 0.95 0.25) (layers F.Cu F.Mask F.Paste) (roundrect_rratio 0.25))
  (pad 6 smd roundrect (at -3.875 -0.25) (size 0.95 0.25) (layers F.Cu F.Mask F.Paste) (roundrect_rratio 0.25))
  (pad 7 smd roundrect (at -3.875 0.25) (size 0.95 0.25) (layers F.Cu F.Mask F.Paste) (roundrect_rratio 0.25))
  (pad 8 smd roundrect (at -3.875 0.75) (size 0.95 0.25) (layers F.Cu F.Mask F.Paste) (roundrect_rratio 0.25))
  (pad 9 smd roundrect (at -3.875 1.25) (size 0.95 0.25) (layers F.Cu F.Mask F.Paste) (roundrect_rratio 0.25))
  (pad 10 smd roundrect (at -3.875 1.75) (size 0.95 0.25) (layers F.Cu F.Mask F.Paste) (roundrect_rratio 0.25))
  (pad 11 smd roundrect (at -3.875 2.25) (size 0.95 0.25) (layers F.Cu F.Mask F.Paste) (roundrect_rratio 0.25))
  (pad 12 smd roundrect (at -3.875 2.75) (size 0.95 0.25) (layers F.Cu F.Mask F.Paste) (roundrect_rratio 0.25))
  (pad 13 smd roundrect (at -2.75 3.875) (size 0.25 0.95) (layers F.Cu F.Mask F.Paste) (roundrect_rratio 0.25))
  (pad 14 smd roundrect (at -2.25 3.875) (size 0.25 0.95) (layers F.Cu F.Mask F.Paste) (roundrect_rratio 0.25))
  (pad 15 smd roundrect (at -1.75 3.875) (size 0.25 0.95) (layers F.Cu F.Mask F.Paste) (roundrect_rratio 0.25))
  (pad 16 smd roundrect (at -1.25 3.875) (size 0.25 0.95) (layers F.Cu F.Mask F.Paste) (roundrect_rratio 0.25))
  (pad 17 smd roundrect (at -0.75 3.875) (size 0.25 0.95) (layers F.Cu F.Mask F.Paste) (roundrect_rratio 0.25))
  (pad 18 smd roundrect (at -0.25 3.875) (size 0.25 0.95) (layers F.Cu F.Mask F.Paste) (roundrect_rratio 0.25))
  (pad 19 smd roundrect (at 0.25 3.875) (size 0.25 0.95) (layers F.Cu F.Mask F.Paste) (roundrect_rratio 0.25))
  (pad 20 smd roundrect (at 0.75 3.875) (size 0.25 0.95) (layers F.Cu F.Mask F.Paste) (roundrect_rratio 0.25))
  (pad 21 smd roundrect (at 1.25 3.875) (size 0.25 0.95) (layers F.Cu F.Mask F.Paste) (roundrect_rratio 0.25))
  (pad 22 smd roundrect (at 1.75 3.875) (size 0.25 0.95) (layers F.Cu F.Mask F.Paste) (roundrect_rratio 0.25))
  (pad 23 smd roundrect (at 2.25 3.875) (size 0.25 0.95) (layers F.Cu F.Mask F.Paste) (roundrect_rratio 0.25))
  (pad 24 smd roundrect (at 2.75 3.875) (size 0.25 0.95) (layers F.Cu F.Mask F.Paste) (roundrect_rratio 0.25))
  (pad 25 smd roundrect (at 3.875 2.75) (size 0.95 0.25) (layers F.Cu F.Mask F.Paste) (roundrect_rratio 0.25))
  (pad 26 smd roundrect (at 3.875 2.25) (size 0.95 0.25) (layers F.Cu F.Mask F.Paste) (roundrect_rratio 0.25))
  (pad 27 smd roundrect (at 3.875 1.75) (size 0.95 0.25) (layers F.Cu F.Mask F.Paste) (roundrect_rratio 0.25))
  (pad 28 smd roundrect (at 3.875 1.25) (size 0.95 0.25) (layers F.Cu F.Mask F.Paste) (roundrect_rratio 0.25))
  (pad 29 smd roundrect (at 3.875 0.75) (size 0.95 0.25) (layers F.Cu F.Mask F.Paste) (roundrect_rratio 0.25))
  (pad 30 smd roundrect (at 3.875 0.25) (size 0.95 0.25) (layers F.Cu F.Mask F.Paste) (roundrect_rratio 0.25))
  (pad 31 smd roundrect (at 3.875 -0.25) (size 0.95 0.25) (layers F.Cu F.Mask F.Paste) (roundrect_rratio 0.25))
  (pad 32 smd roundrect (at 3.875 -0.75) (size 0.95 0.25) (layers F.Cu F.Mask F.Paste) (roundrect_rratio 0.25))
  (pad 33 smd roundrect (at 3.875 -1.25) (size 0.95 0.25) (layers F.Cu F.Mask F.Paste) (roundrect_rratio 0.25))
  (pad 34 smd roundrect (at 3.875 -1.75) (size 0.95 0.25) (layers F.Cu F.Mask F.Paste) (roundrect_rratio 0.25))
  (pad 35 smd roundrect (at 3.875 -2.25) (size 0.95 0.25) (layers F.Cu F.Mask F.Paste) (roundrect_rratio 0.25))
  (pad 36 smd roundrect (at 3.875 -2.75) (size 0.95 0.25) (layers F.Cu F.Mask F.Paste) (roundrect_rratio 0.25))
  (pad 37 smd roundrect (at 2.75 -3.875) (size 0.25 0.95) (layers F.Cu F.Mask F.Paste) (roundrect_rratio 0.25))
  (pad 38 smd roundrect (at 2.25 -3.875) (size 0.25 0.95) (layers F.Cu F.Mask F.Paste) (roundrect_rratio 0.25))
  (pad 39 smd roundrect (at 1.75 -3.875) (size 0.25 0.95) (layers F.Cu F.Mask F.Paste) (roundrect_rratio 0.25))
  (pad 40 smd roundrect (at 1.25 -3.875) (size 0.25 0.95) (layers F.Cu F.Mask F.Paste) (roundrect_rratio 0.25))
  (pad 41 smd roundrect (at 0.75 -3.875) (size 0.25 0.95) (layers F.Cu F.Mask F.Paste) (roundrect_rratio 0.25))
  (pad 42 smd roundrect (at 0.25 -3.875) (size 0.25 0.95) (layers F.Cu F.Mask F.Paste) (roundrect_rratio 0.25))
  (pad 43 smd roundrect (at -0.25 -3.875) (size 0.25 0.95) (layers F.Cu F.Mask F.Paste) (roundrect_rratio 0.25))
  (pad 44 smd roundrect (at -0.75 -3.875) (size 0.25 0.95) (layers F.Cu F.Mask F.Paste) (roundrect_rratio 0.25))
  (pad 45 smd roundrect (at -1.25 -3.875) (size 0.25 0.95) (layers F.Cu F.Mask F.Paste) (roundrect_rratio 0.25))
  (pad 46 smd roundrect (at -1.75 -3.875) (size 0.25 0.95) (layers F.Cu F.Mask F.Paste) (roundrect_rratio 0.25))
  (pad 47 smd roundrect (at -2.25 -3.875) (size 0.25 0.95) (layers F.Cu F.Mask F.Paste) (roundrect_rratio 0.25))
  (pad 48 smd roundrect (at -2.75 -3.875) (size 0.25 0.95) (layers F.Cu F.Mask F.Paste) (roundrect_rratio 0.25))
  (pad 49 smd rect (at 0 0) (size 6.2 6.2) (property pad_prop_heatsink) (layers F.Cu F.Mask)
    (zone_connect 2))
  (pad "" smd roundrect (at -2.48 -2.48) (size 1 1) (layers F.Paste) (roundrect_rratio 0.25))
  (pad "" smd roundrect (at -2.48 -1.24) (size 1 1) (layers F.Paste) (roundrect_rratio 0.25))
  (pad "" smd roundrect (at -2.48 0) (size 1 1) (layers F.Paste) (roundrect_rratio 0.25))
  (pad "" smd roundrect (at -2.48 1.24) (size 1 1) (layers F.Paste) (roundrect_rratio 0.25))
  (pad "" smd roundrect (at -2.48 2.48) (size 1 1) (layers F.Paste) (roundrect_rratio 0.25))
  (pad "" smd roundrect (at -1.24 -2.48) (size 1 1) (layers F.Paste) (roundrect_rratio 0.25))
  (pad "" smd roundrect (at -1.24 -1.24) (size 1 1) (layers F.Paste) (roundrect_rratio 0.25))
  (pad "" smd roundrect (at -1.24 0) (size 1 1) (layers F.Paste) (roundrect_rratio 0.25))
  (pad "" smd roundrect (at -1.24 1.24) (size 1 1) (layers F.Paste) (roundrect_rratio 0.25))
  (pad "" smd roundrect (at -1.24 2.48) (size 1 1) (layers F.Paste) (roundrect_rratio 0.25))
  (pad "" smd roundrect (at 0 -2.48) (size 1 1) (layers F.Paste) (roundrect_rratio 0.25))
  (pad "" smd roundrect (at 0 -1.24) (size 1 1) (layers F.Paste) (roundrect_rratio 0.25))
  (pad "" smd roundrect (at 0 0) (size 1 1) (layers F.Paste) (roundrect_rratio 0.25))
  (pad "" smd roundrect (at 0 1.24) (size 1 1) (layers F.Paste) (roundrect_rratio 0.25))
  (pad "" smd roundrect (at 0 2.48) (size 1 1) (layers F.Paste) (roundrect_rratio 0.25))
  (pad "" smd roundrect (at 1.24 -2.48) (size 1 1) (layers F.Paste) (roundrect_rratio 0.25))
  (pad "" smd roundrect (at 1.24 -1.24) (size 1 1) (layers F.Paste) (roundrect_rratio 0.25))
  (pad "" smd roundrect (at 1.24 0) (size 1 1) (layers F.Paste) (roundrect_rratio 0.25))
  (pad "" smd roundrect (at 1.24 1.24) (size 1 1) (layers F.Paste) (roundrect_rratio 0.25))
  (pad "" smd roundrect (at 1.24 2.48) (size 1 1) (layers F.Paste) (roundrect_rratio 0.25))
  (pad "" smd roundrect (at 2.48 -2.48) (size 1 1) (layers F.Paste) (roundrect_rratio 0.25))
  (pad "" smd roundrect (at 2.48 -1.24) (size 1 1) (layers F.Paste) (roundrect_rratio 0.25))
  (pad "" smd roundrect (at 2.48 0) (size 1 1) (layers F.Paste) (roundrect_rratio 0.25))
  (pad "" smd roundrect (at 2.48 1.24) (size 1 1) (layers F.Paste) (roundrect_rratio 0.25))
  (pad "" smd roundrect (at 2.48 2.48) (size 1 1) (layers F.Paste) (roundrect_rratio 0.25))
  (fp_poly (pts (xy -4.11 -4.11) (xy -4.29 -4.362) (xy -3.93 -4.362) (xy -4.11 -4.11))
    (stroke (width 0.12) (type solid)) (fill solid) (layer F.SilkS))
  (fp_text user ${REFERENCE} (at 0 0) (layer F.Fab)
    (effects (font (size 1 1) (thickness 0.15)))
  )
  (model ${KICAD7_3DMODEL_DIR}/Package_DFN_QFN.3dshapes/QFN-48-1EP_8x8mm_P0.5mm_EP6.2x6.2mm.wrl
    (offset (xyz 0 0 0))
    (scale (xyz 1 1 1))
    (rotate (xyz 0 0 0))
  )
)
