(footprint Texas_RVE0028A_VQFN-28-1EP_3.5x4.5mm_P0.4mm_EP2.1x3.1mm (version 20221018) (generator kicad-footprint-generator)
  (layer F.Cu)
  (descr "Texas RVE0028A VQFN, 28 Pin (http://www.ti.com/lit/ds/symlink/tps51363.pdf#page=29), generated with kicad-footprint-generator ipc_noLead_generator.py")
  (tags "Texas VQFN NoLead")
  (attr smd)
  (fp_text reference REF** (at 0 -3.58) (layer F.SilkS)
    (effects (font (size 1 1) (thickness 0.15)))
  )
  (fp_text value Texas_RVE0028A_VQFN-28-1EP_3.5x4.5mm_P0.4mm_EP2.1x3.1mm (at 0 3.58) (layer F.Fab)
    (effects (font (size 1 1) (thickness 0.15)))
  )
  (fp_line (start -1.16 -2.36) (end -1.56 -2.36)
    (stroke (width 0.12) (type solid)) (layer F.SilkS))
  (fp_line (start -1.86 -1.96) (end -1.86 -2.12)
    (stroke (width 0.12) (type solid)) (layer F.SilkS))
  (fp_line (start 1.16 -2.36) (end 1.86 -2.36)
    (stroke (width 0.12) (type solid)) (layer F.SilkS))
  (fp_line (start 1.86 -2.36) (end 1.86 -1.96)
    (stroke (width 0.12) (type solid)) (layer F.SilkS))
  (fp_line (start -1.16 2.36) (end -1.86 2.36)
    (stroke (width 0.12) (type solid)) (layer F.SilkS))
  (fp_line (start -1.86 2.36) (end -1.86 1.96)
    (stroke (width 0.12) (type solid)) (layer F.SilkS))
  (fp_line (start 1.16 2.36) (end 1.86 2.36)
    (stroke (width 0.12) (type solid)) (layer F.SilkS))
  (fp_line (start 1.86 2.36) (end 1.86 1.96)
    (stroke (width 0.12) (type solid)) (layer F.SilkS))
  (fp_line (start -0.875 -2.25) (end 1.75 -2.25)
    (stroke (width 0.1) (type solid)) (layer F.Fab))
  (fp_line (start 1.75 -2.25) (end 1.75 2.25)
    (stroke (width 0.1) (type solid)) (layer F.Fab))
  (fp_line (start 1.75 2.25) (end -1.75 2.25)
    (stroke (width 0.1) (type solid)) (layer F.Fab))
  (fp_line (start -1.75 2.25) (end -1.75 -1.375)
    (stroke (width 0.1) (type solid)) (layer F.Fab))
  (fp_line (start -1.75 -1.375) (end -0.875 -2.25)
    (stroke (width 0.1) (type solid)) (layer F.Fab))
  (fp_line (start -2.38 -2.88) (end -2.38 2.88)
    (stroke (width 0.05) (type solid)) (layer F.CrtYd))
  (fp_line (start -2.38 2.88) (end 2.38 2.88)
    (stroke (width 0.05) (type solid)) (layer F.CrtYd))
  (fp_line (start 2.38 2.88) (end 2.38 -2.88)
    (stroke (width 0.05) (type solid)) (layer F.CrtYd))
  (fp_line (start 2.38 -2.88) (end -2.38 -2.88)
    (stroke (width 0.05) (type solid)) (layer F.CrtYd))
  (pad 1 smd roundrect (at -1.6875 -1.6) (size 0.875 0.2) (layers F.Cu F.Mask F.Paste) (roundrect_rratio 0.25))
  (pad 2 smd roundrect (at -1.6875 -1.2) (size 0.875 0.2) (layers F.Cu F.Mask F.Paste) (roundrect_rratio 0.25))
  (pad 3 smd roundrect (at -1.6875 -0.8) (size 0.875 0.2) (layers F.Cu F.Mask F.Paste) (roundrect_rratio 0.25))
  (pad 4 smd roundrect (at -1.6875 -0.4) (size 0.875 0.2) (layers F.Cu F.Mask F.Paste) (roundrect_rratio 0.25))
  (pad 5 smd roundrect (at -1.6875 0) (size 0.875 0.2) (layers F.Cu F.Mask F.Paste) (roundrect_rratio 0.25))
  (pad 6 smd roundrect (at -1.6875 0.4) (size 0.875 0.2) (layers F.Cu F.Mask F.Paste) (roundrect_rratio 0.25))
  (pad 7 smd roundrect (at -1.6875 0.8) (size 0.875 0.2) (layers F.Cu F.Mask F.Paste) (roundrect_rratio 0.25))
  (pad 8 smd roundrect (at -1.6875 1.2) (size 0.875 0.2) (layers F.Cu F.Mask F.Paste) (roundrect_rratio 0.25))
  (pad 9 smd roundrect (at -1.6875 1.6) (size 0.875 0.2) (layers F.Cu F.Mask F.Paste) (roundrect_rratio 0.25))
  (pad 10 smd roundrect (at -0.8 2.1875) (size 0.2 0.875) (layers F.Cu F.Mask F.Paste) (roundrect_rratio 0.25))
  (pad 11 smd roundrect (at -0.4 2.1875) (size 0.2 0.875) (layers F.Cu F.Mask F.Paste) (roundrect_rratio 0.25))
  (pad 12 smd roundrect (at 0 2.1875) (size 0.2 0.875) (layers F.Cu F.Mask F.Paste) (roundrect_rratio 0.25))
  (pad 13 smd roundrect (at 0.4 2.1875) (size 0.2 0.875) (layers F.Cu F.Mask F.Paste) (roundrect_rratio 0.25))
  (pad 14 smd roundrect (at 0.8 2.1875) (size 0.2 0.875) (layers F.Cu F.Mask F.Paste) (roundrect_rratio 0.25))
  (pad 15 smd roundrect (at 1.6875 1.6) (size 0.875 0.2) (layers F.Cu F.Mask F.Paste) (roundrect_rratio 0.25))
  (pad 16 smd roundrect (at 1.6875 1.2) (size 0.875 0.2) (layers F.Cu F.Mask F.Paste) (roundrect_rratio 0.25))
  (pad 17 smd roundrect (at 1.6875 0.8) (size 0.875 0.2) (layers F.Cu F.Mask F.Paste) (roundrect_rratio 0.25))
  (pad 18 smd roundrect (at 1.6875 0.4) (size 0.875 0.2) (layers F.Cu F.Mask F.Paste) (roundrect_rratio 0.25))
  (pad 19 smd roundrect (at 1.6875 0) (size 0.875 0.2) (layers F.Cu F.Mask F.Paste) (roundrect_rratio 0.25))
  (pad 20 smd roundrect (at 1.6875 -0.4) (size 0.875 0.2) (layers F.Cu F.Mask F.Paste) (roundrect_rratio 0.25))
  (pad 21 smd roundrect (at 1.6875 -0.8) (size 0.875 0.2) (layers F.Cu F.Mask F.Paste) (roundrect_rratio 0.25))
  (pad 22 smd roundrect (at 1.6875 -1.2) (size 0.875 0.2) (layers F.Cu F.Mask F.Paste) (roundrect_rratio 0.25))
  (pad 23 smd roundrect (at 1.6875 -1.6) (size 0.875 0.2) (layers F.Cu F.Mask F.Paste) (roundrect_rratio 0.25))
  (pad 24 smd roundrect (at 0.8 -2.1875) (size 0.2 0.875) (layers F.Cu F.Mask F.Paste) (roundrect_rratio 0.25))
  (pad 25 smd roundrect (at 0.4 -2.1875) (size 0.2 0.875) (layers F.Cu F.Mask F.Paste) (roundrect_rratio 0.25))
  (pad 26 smd roundrect (at 0 -2.1875) (size 0.2 0.875) (layers F.Cu F.Mask F.Paste) (roundrect_rratio 0.25))
  (pad 27 smd roundrect (at -0.4 -2.1875) (size 0.2 0.875) (layers F.Cu F.Mask F.Paste) (roundrect_rratio 0.25))
  (pad 28 smd roundrect (at -0.8 -2.1875) (size 0.2 0.875) (layers F.Cu F.Mask F.Paste) (roundrect_rratio 0.25))
  (pad 29 smd rect (at 0 0) (size 2.1 3.1) (property pad_prop_heatsink) (layers F.Cu F.Mask)
    (zone_connect 2))
  (pad "" smd roundrect (at -0.525 -0.775) (size 0.85 1.25) (layers F.Paste) (roundrect_rratio 0.25))
  (pad "" smd roundrect (at -0.525 0.775) (size 0.85 1.25) (layers F.Paste) (roundrect_rratio 0.25))
  (pad "" smd roundrect (at 0.525 -0.775) (size 0.85 1.25) (layers F.Paste) (roundrect_rratio 0.25))
  (pad "" smd roundrect (at 0.525 0.775) (size 0.85 1.25) (layers F.Paste) (roundrect_rratio 0.25))
  (fp_poly (pts (xy -1.86 -2.36) (xy -2.04 -2.612) (xy -1.68 -2.612) (xy -1.86 -2.36))
    (stroke (width 0.12) (type solid)) (fill solid) (layer F.SilkS))
  (fp_text user ${REFERENCE} (at 0 0 90) (layer F.Fab)
    (effects (font (size 1 1) (thickness 0.15)))
  )
  (model ${KICAD7_3DMODEL_DIR}/Package_DFN_QFN.3dshapes/Texas_RVE0028A_VQFN-28-1EP_3.5x4.5mm_P0.4mm_EP2.1x3.1mm.wrl
    (offset (xyz 0 0 0))
    (scale (xyz 1 1 1))
    (rotate (xyz 0 0 0))
  )
)
