(footprint UQFN-10_1.6x2.1mm_P0.5mm (version 20221018) (generator kicad-footprint-generator)
  (layer F.Cu)
  (descr "UQFN, 10 Pin (http://ww1.microchip.com/downloads/en/DeviceDoc/00001725D.pdf (Page 12)), generated with kicad-footprint-generator ipc_noLead_generator.py")
  (tags "UQFN NoLead")
  (attr smd)
  (fp_text reference REF** (at 0 -2.35) (layer F.SilkS)
    (effects (font (size 1 1) (thickness 0.15)))
  )
  (fp_text value UQFN-10_1.6x2.1mm_P0.5mm (at 0 2.35) (layer F.Fab)
    (effects (font (size 1 1) (thickness 0.15)))
  )
  (fp_line (start -1.07 -0.635) (end -1.07 -0.93)
    (stroke (width 0.12) (type solid)) (layer F.SilkS))
  (fp_line (start 0.91 -1.16) (end 0.91 -0.635)
    (stroke (width 0.12) (type solid)) (layer F.SilkS))
  (fp_line (start -0.91 1.16) (end -0.91 0.635)
    (stroke (width 0.12) (type solid)) (layer F.SilkS))
  (fp_line (start 0.91 1.16) (end 0.91 0.635)
    (stroke (width 0.12) (type solid)) (layer F.SilkS))
  (fp_line (start -0.4 -1.05) (end 0.8 -1.05)
    (stroke (width 0.1) (type solid)) (layer F.Fab))
  (fp_line (start 0.8 -1.05) (end 0.8 1.05)
    (stroke (width 0.1) (type solid)) (layer F.Fab))
  (fp_line (start 0.8 1.05) (end -0.8 1.05)
    (stroke (width 0.1) (type solid)) (layer F.Fab))
  (fp_line (start -0.8 1.05) (end -0.8 -0.65)
    (stroke (width 0.1) (type solid)) (layer F.Fab))
  (fp_line (start -0.8 -0.65) (end -0.4 -1.05)
    (stroke (width 0.1) (type solid)) (layer F.Fab))
  (fp_line (start -1.4 -1.65) (end -1.4 1.65)
    (stroke (width 0.05) (type solid)) (layer F.CrtYd))
  (fp_line (start -1.4 1.65) (end 1.4 1.65)
    (stroke (width 0.05) (type solid)) (layer F.CrtYd))
  (fp_line (start 1.4 1.65) (end 1.4 -1.65)
    (stroke (width 0.05) (type solid)) (layer F.CrtYd))
  (fp_line (start 1.4 -1.65) (end -1.4 -1.65)
    (stroke (width 0.05) (type solid)) (layer F.CrtYd))
  (pad 1 smd roundrect (at -0.675 -0.25) (size 0.95 0.25) (layers F.Cu F.Mask F.Paste) (roundrect_rratio 0.25))
  (pad 2 smd roundrect (at -0.675 0.25) (size 0.95 0.25) (layers F.Cu F.Mask F.Paste) (roundrect_rratio 0.25))
  (pad 3 smd roundrect (at -0.5 1) (size 0.25 0.8) (layers F.Cu F.Mask F.Paste) (roundrect_rratio 0.25))
  (pad 4 smd roundrect (at 0 1) (size 0.25 0.8) (layers F.Cu F.Mask F.Paste) (roundrect_rratio 0.25))
  (pad 5 smd roundrect (at 0.5 1) (size 0.25 0.8) (layers F.Cu F.Mask F.Paste) (roundrect_rratio 0.25))
  (pad 6 smd roundrect (at 0.675 0.25) (size 0.95 0.25) (layers F.Cu F.Mask F.Paste) (roundrect_rratio 0.25))
  (pad 7 smd roundrect (at 0.675 -0.25) (size 0.95 0.25) (layers F.Cu F.Mask F.Paste) (roundrect_rratio 0.25))
  (pad 8 smd roundrect (at 0.5 -1) (size 0.25 0.8) (layers F.Cu F.Mask F.Paste) (roundrect_rratio 0.25))
  (pad 9 smd roundrect (at 0 -1) (size 0.25 0.8) (layers F.Cu F.Mask F.Paste) (roundrect_rratio 0.25))
  (pad 10 smd roundrect (at -0.5 -1) (size 0.25 0.8) (layers F.Cu F.Mask F.Paste) (roundrect_rratio 0.25))
  (fp_poly (pts (xy -1.07 -1.17) (xy -1.25 -1.422) (xy -0.89 -1.422) (xy -1.07 -1.17))
    (stroke (width 0.12) (type solid)) (fill solid) (layer F.SilkS))
  (fp_text user ${REFERENCE} (at 0 0 90) (layer F.Fab)
    (effects (font (size 0.52 0.52) (thickness 0.08)))
  )
  (model ${KICAD7_3DMODEL_DIR}/Package_DFN_QFN.3dshapes/UQFN-10_1.6x2.1mm_P0.5mm.wrl
    (offset (xyz 0 0 0))
    (scale (xyz 1 1 1))
    (rotate (xyz 0 0 0))
  )
)
