(footprint UQFN-20-1EP_3x3mm_P0.4mm_EP1.85x1.85mm_ThermalVias (version 20221018) (generator kicad-footprint-generator)
  (layer F.Cu)
  (descr "UQFN, 20 Pin (http://ww1.microchip.com/downloads/en/PackagingSpec/00000049BQ.pdf#page=332), generated with kicad-footprint-generator ipc_noLead_generator.py")
  (tags "UQFN NoLead")
  (attr smd)
  (fp_text reference REF** (at 0 -2.8) (layer F.SilkS)
    (effects (font (size 1 1) (thickness 0.15)))
  )
  (fp_text value UQFN-20-1EP_3x3mm_P0.4mm_EP1.85x1.85mm_ThermalVias (at 0 2.8) (layer F.Fab)
    (effects (font (size 1 1) (thickness 0.15)))
  )
  (fp_line (start -1.16 -1.61) (end -1.31 -1.61)
    (stroke (width 0.12) (type solid)) (layer F.SilkS))
  (fp_line (start -1.61 -1.16) (end -1.61 -1.37)
    (stroke (width 0.12) (type solid)) (layer F.SilkS))
  (fp_line (start 1.16 -1.61) (end 1.61 -1.61)
    (stroke (width 0.12) (type solid)) (layer F.SilkS))
  (fp_line (start 1.61 -1.61) (end 1.61 -1.16)
    (stroke (width 0.12) (type solid)) (layer F.SilkS))
  (fp_line (start -1.16 1.61) (end -1.61 1.61)
    (stroke (width 0.12) (type solid)) (layer F.SilkS))
  (fp_line (start -1.61 1.61) (end -1.61 1.16)
    (stroke (width 0.12) (type solid)) (layer F.SilkS))
  (fp_line (start 1.16 1.61) (end 1.61 1.61)
    (stroke (width 0.12) (type solid)) (layer F.SilkS))
  (fp_line (start 1.61 1.61) (end 1.61 1.16)
    (stroke (width 0.12) (type solid)) (layer F.SilkS))
  (fp_line (start -0.75 -1.5) (end 1.5 -1.5)
    (stroke (width 0.1) (type solid)) (layer F.Fab))
  (fp_line (start 1.5 -1.5) (end 1.5 1.5)
    (stroke (width 0.1) (type solid)) (layer F.Fab))
  (fp_line (start 1.5 1.5) (end -1.5 1.5)
    (stroke (width 0.1) (type solid)) (layer F.Fab))
  (fp_line (start -1.5 1.5) (end -1.5 -0.75)
    (stroke (width 0.1) (type solid)) (layer F.Fab))
  (fp_line (start -1.5 -0.75) (end -0.75 -1.5)
    (stroke (width 0.1) (type solid)) (layer F.Fab))
  (fp_line (start -2.1 -2.1) (end -2.1 2.1)
    (stroke (width 0.05) (type solid)) (layer F.CrtYd))
  (fp_line (start -2.1 2.1) (end 2.1 2.1)
    (stroke (width 0.05) (type solid)) (layer F.CrtYd))
  (fp_line (start 2.1 2.1) (end 2.1 -2.1)
    (stroke (width 0.05) (type solid)) (layer F.CrtYd))
  (fp_line (start 2.1 -2.1) (end -2.1 -2.1)
    (stroke (width 0.05) (type solid)) (layer F.CrtYd))
  (pad 1 smd roundrect (at -1.4875 -0.8) (size 0.725 0.2) (layers F.Cu F.Mask F.Paste) (roundrect_rratio 0.25))
  (pad 2 smd roundrect (at -1.4875 -0.4) (size 0.725 0.2) (layers F.Cu F.Mask F.Paste) (roundrect_rratio 0.25))
  (pad 3 smd roundrect (at -1.4875 0) (size 0.725 0.2) (layers F.Cu F.Mask F.Paste) (roundrect_rratio 0.25))
  (pad 4 smd roundrect (at -1.4875 0.4) (size 0.725 0.2) (layers F.Cu F.Mask F.Paste) (roundrect_rratio 0.25))
  (pad 5 smd roundrect (at -1.4875 0.8) (size 0.725 0.2) (layers F.Cu F.Mask F.Paste) (roundrect_rratio 0.25))
  (pad 6 smd roundrect (at -0.8 1.4875) (size 0.2 0.725) (layers F.Cu F.Mask F.Paste) (roundrect_rratio 0.25))
  (pad 7 smd roundrect (at -0.4 1.4875) (size 0.2 0.725) (layers F.Cu F.Mask F.Paste) (roundrect_rratio 0.25))
  (pad 8 smd roundrect (at 0 1.4875) (size 0.2 0.725) (layers F.Cu F.Mask F.Paste) (roundrect_rratio 0.25))
  (pad 9 smd roundrect (at 0.4 1.4875) (size 0.2 0.725) (layers F.Cu F.Mask F.Paste) (roundrect_rratio 0.25))
  (pad 10 smd roundrect (at 0.8 1.4875) (size 0.2 0.725) (layers F.Cu F.Mask F.Paste) (roundrect_rratio 0.25))
  (pad 11 smd roundrect (at 1.4875 0.8) (size 0.725 0.2) (layers F.Cu F.Mask F.Paste) (roundrect_rratio 0.25))
  (pad 12 smd roundrect (at 1.4875 0.4) (size 0.725 0.2) (layers F.Cu F.Mask F.Paste) (roundrect_rratio 0.25))
  (pad 13 smd roundrect (at 1.4875 0) (size 0.725 0.2) (layers F.Cu F.Mask F.Paste) (roundrect_rratio 0.25))
  (pad 14 smd roundrect (at 1.4875 -0.4) (size 0.725 0.2) (layers F.Cu F.Mask F.Paste) (roundrect_rratio 0.25))
  (pad 15 smd roundrect (at 1.4875 -0.8) (size 0.725 0.2) (layers F.Cu F.Mask F.Paste) (roundrect_rratio 0.25))
  (pad 16 smd roundrect (at 0.8 -1.4875) (size 0.2 0.725) (layers F.Cu F.Mask F.Paste) (roundrect_rratio 0.25))
  (pad 17 smd roundrect (at 0.4 -1.4875) (size 0.2 0.725) (layers F.Cu F.Mask F.Paste) (roundrect_rratio 0.25))
  (pad 18 smd roundrect (at 0 -1.4875) (size 0.2 0.725) (layers F.Cu F.Mask F.Paste) (roundrect_rratio 0.25))
  (pad 19 smd roundrect (at -0.4 -1.4875) (size 0.2 0.725) (layers F.Cu F.Mask F.Paste) (roundrect_rratio 0.25))
  (pad 20 smd roundrect (at -0.8 -1.4875) (size 0.2 0.725) (layers F.Cu F.Mask F.Paste) (roundrect_rratio 0.25))
  (pad 21 smd rect (at 0 0) (size 1.85 1.85) (property pad_prop_heatsink) (layers F.Cu F.Mask)
    (zone_connect 2))
  (pad 21 thru_hole circle (at -0.675 -0.675) (size 0.5 0.5) (drill 0.2) (property pad_prop_heatsink) (layers *.Cu))
  (pad 21 thru_hole circle (at 0.675 -0.675) (size 0.5 0.5) (drill 0.2) (property pad_prop_heatsink) (layers *.Cu))
  (pad 21 thru_hole circle (at -0.675 0.675) (size 0.5 0.5) (drill 0.2) (property pad_prop_heatsink) (layers *.Cu))
  (pad 21 thru_hole circle (at 0.675 0.675) (size 0.5 0.5) (drill 0.2) (property pad_prop_heatsink) (layers *.Cu))
  (pad 21 smd rect (at 0 0) (size 1.85 1.85) (property pad_prop_heatsink) (layers B.Cu)
    (zone_connect 2))
  (pad "" smd roundrect (at -0.46 -0.46) (size 0.8 0.8) (layers F.Paste) (roundrect_rratio 0.25))
  (pad "" smd roundrect (at -0.46 0.46) (size 0.8 0.8) (layers F.Paste) (roundrect_rratio 0.25))
  (pad "" smd roundrect (at 0.46 -0.46) (size 0.8 0.8) (layers F.Paste) (roundrect_rratio 0.25))
  (pad "" smd roundrect (at 0.46 0.46) (size 0.8 0.8) (layers F.Paste) (roundrect_rratio 0.25))
  (fp_poly (pts (xy -1.61 -1.61) (xy -1.79 -1.862) (xy -1.43 -1.862) (xy -1.61 -1.61))
    (stroke (width 0.12) (type solid)) (fill solid) (layer F.SilkS))
  (fp_text user ${REFERENCE} (at 0 0) (layer F.Fab)
    (effects (font (size 0.75 0.75) (thickness 0.11)))
  )
  (model ${KICAD7_3DMODEL_DIR}/Package_DFN_QFN.3dshapes/UQFN-20-1EP_3x3mm_P0.4mm_EP1.85x1.85mm.wrl
    (offset (xyz 0 0 0))
    (scale (xyz 1 1 1))
    (rotate (xyz 0 0 0))
  )
)
