(footprint VQFN-46-1EP_5x6mm_P0.4mm_EP2.8x3.8mm (version 20221018) (generator kicad-footprint-generator)
  (layer F.Cu)
  (descr "VQFN, 46 Pin (http://www.ti.com/lit/ds/symlink/lp5036.pdf#page=59), generated with kicad-footprint-generator ipc_noLead_generator.py")
  (tags "VQFN NoLead")
  (attr smd)
  (fp_text reference REF** (at 0 -4.33) (layer F.SilkS)
    (effects (font (size 1 1) (thickness 0.15)))
  )
  (fp_text value VQFN-46-1EP_5x6mm_P0.4mm_EP2.8x3.8mm (at 0 4.33) (layer F.Fab)
    (effects (font (size 1 1) (thickness 0.15)))
  )
  (fp_line (start -2.16 -3.11) (end -2.31 -3.11)
    (stroke (width 0.12) (type solid)) (layer F.SilkS))
  (fp_line (start -2.61 -2.76) (end -2.61 -2.87)
    (stroke (width 0.12) (type solid)) (layer F.SilkS))
  (fp_line (start 2.16 -3.11) (end 2.61 -3.11)
    (stroke (width 0.12) (type solid)) (layer F.SilkS))
  (fp_line (start 2.61 -3.11) (end 2.61 -2.76)
    (stroke (width 0.12) (type solid)) (layer F.SilkS))
  (fp_line (start -2.16 3.11) (end -2.61 3.11)
    (stroke (width 0.12) (type solid)) (layer F.SilkS))
  (fp_line (start -2.61 3.11) (end -2.61 2.76)
    (stroke (width 0.12) (type solid)) (layer F.SilkS))
  (fp_line (start 2.16 3.11) (end 2.61 3.11)
    (stroke (width 0.12) (type solid)) (layer F.SilkS))
  (fp_line (start 2.61 3.11) (end 2.61 2.76)
    (stroke (width 0.12) (type solid)) (layer F.SilkS))
  (fp_line (start -1.5 -3) (end 2.5 -3)
    (stroke (width 0.1) (type solid)) (layer F.Fab))
  (fp_line (start 2.5 -3) (end 2.5 3)
    (stroke (width 0.1) (type solid)) (layer F.Fab))
  (fp_line (start 2.5 3) (end -2.5 3)
    (stroke (width 0.1) (type solid)) (layer F.Fab))
  (fp_line (start -2.5 3) (end -2.5 -2)
    (stroke (width 0.1) (type solid)) (layer F.Fab))
  (fp_line (start -2.5 -2) (end -1.5 -3)
    (stroke (width 0.1) (type solid)) (layer F.Fab))
  (fp_line (start -3.13 -3.63) (end -3.13 3.63)
    (stroke (width 0.05) (type solid)) (layer F.CrtYd))
  (fp_line (start -3.13 3.63) (end 3.13 3.63)
    (stroke (width 0.05) (type solid)) (layer F.CrtYd))
  (fp_line (start 3.13 3.63) (end 3.13 -3.63)
    (stroke (width 0.05) (type solid)) (layer F.CrtYd))
  (fp_line (start 3.13 -3.63) (end -3.13 -3.63)
    (stroke (width 0.05) (type solid)) (layer F.CrtYd))
  (pad 1 smd roundrect (at -2.4625 -2.4) (size 0.825 0.2) (layers F.Cu F.Mask F.Paste) (roundrect_rratio 0.25))
  (pad 2 smd roundrect (at -2.4625 -2) (size 0.825 0.2) (layers F.Cu F.Mask F.Paste) (roundrect_rratio 0.25))
  (pad 3 smd roundrect (at -2.4625 -1.6) (size 0.825 0.2) (layers F.Cu F.Mask F.Paste) (roundrect_rratio 0.25))
  (pad 4 smd roundrect (at -2.4625 -1.2) (size 0.825 0.2) (layers F.Cu F.Mask F.Paste) (roundrect_rratio 0.25))
  (pad 5 smd roundrect (at -2.4625 -0.8) (size 0.825 0.2) (layers F.Cu F.Mask F.Paste) (roundrect_rratio 0.25))
  (pad 6 smd roundrect (at -2.4625 -0.4) (size 0.825 0.2) (layers F.Cu F.Mask F.Paste) (roundrect_rratio 0.25))
  (pad 7 smd roundrect (at -2.4625 0) (size 0.825 0.2) (layers F.Cu F.Mask F.Paste) (roundrect_rratio 0.25))
  (pad 8 smd roundrect (at -2.4625 0.4) (size 0.825 0.2) (layers F.Cu F.Mask F.Paste) (roundrect_rratio 0.25))
  (pad 9 smd roundrect (at -2.4625 0.8) (size 0.825 0.2) (layers F.Cu F.Mask F.Paste) (roundrect_rratio 0.25))
  (pad 10 smd roundrect (at -2.4625 1.2) (size 0.825 0.2) (layers F.Cu F.Mask F.Paste) (roundrect_rratio 0.25))
  (pad 11 smd roundrect (at -2.4625 1.6) (size 0.825 0.2) (layers F.Cu F.Mask F.Paste) (roundrect_rratio 0.25))
  (pad 12 smd roundrect (at -2.4625 2) (size 0.825 0.2) (layers F.Cu F.Mask F.Paste) (roundrect_rratio 0.25))
  (pad 13 smd roundrect (at -2.4625 2.4) (size 0.825 0.2) (layers F.Cu F.Mask F.Paste) (roundrect_rratio 0.25))
  (pad 14 smd roundrect (at -1.8 2.9625) (size 0.2 0.825) (layers F.Cu F.Mask F.Paste) (roundrect_rratio 0.25))
  (pad 15 smd roundrect (at -1.4 2.9625) (size 0.2 0.825) (layers F.Cu F.Mask F.Paste) (roundrect_rratio 0.25))
  (pad 16 smd roundrect (at -1 2.9625) (size 0.2 0.825) (layers F.Cu F.Mask F.Paste) (roundrect_rratio 0.25))
  (pad 17 smd roundrect (at -0.6 2.9625) (size 0.2 0.825) (layers F.Cu F.Mask F.Paste) (roundrect_rratio 0.25))
  (pad 18 smd roundrect (at -0.2 2.9625) (size 0.2 0.825) (layers F.Cu F.Mask F.Paste) (roundrect_rratio 0.25))
  (pad 19 smd roundrect (at 0.2 2.9625) (size 0.2 0.825) (layers F.Cu F.Mask F.Paste) (roundrect_rratio 0.25))
  (pad 20 smd roundrect (at 0.6 2.9625) (size 0.2 0.825) (layers F.Cu F.Mask F.Paste) (roundrect_rratio 0.25))
  (pad 21 smd roundrect (at 1 2.9625) (size 0.2 0.825) (layers F.Cu F.Mask F.Paste) (roundrect_rratio 0.25))
  (pad 22 smd roundrect (at 1.4 2.9625) (size 0.2 0.825) (layers F.Cu F.Mask F.Paste) (roundrect_rratio 0.25))
  (pad 23 smd roundrect (at 1.8 2.9625) (size 0.2 0.825) (layers F.Cu F.Mask F.Paste) (roundrect_rratio 0.25))
  (pad 24 smd roundrect (at 2.4625 2.4) (size 0.825 0.2) (layers F.Cu F.Mask F.Paste) (roundrect_rratio 0.25))
  (pad 25 smd roundrect (at 2.4625 2) (size 0.825 0.2) (layers F.Cu F.Mask F.Paste) (roundrect_rratio 0.25))
  (pad 26 smd roundrect (at 2.4625 1.6) (size 0.825 0.2) (layers F.Cu F.Mask F.Paste) (roundrect_rratio 0.25))
  (pad 27 smd roundrect (at 2.4625 1.2) (size 0.825 0.2) (layers F.Cu F.Mask F.Paste) (roundrect_rratio 0.25))
  (pad 28 smd roundrect (at 2.4625 0.8) (size 0.825 0.2) (layers F.Cu F.Mask F.Paste) (roundrect_rratio 0.25))
  (pad 29 smd roundrect (at 2.4625 0.4) (size 0.825 0.2) (layers F.Cu F.Mask F.Paste) (roundrect_rratio 0.25))
  (pad 30 smd roundrect (at 2.4625 0) (size 0.825 0.2) (layers F.Cu F.Mask F.Paste) (roundrect_rratio 0.25))
  (pad 31 smd roundrect (at 2.4625 -0.4) (size 0.825 0.2) (layers F.Cu F.Mask F.Paste) (roundrect_rratio 0.25))
  (pad 32 smd roundrect (at 2.4625 -0.8) (size 0.825 0.2) (layers F.Cu F.Mask F.Paste) (roundrect_rratio 0.25))
  (pad 33 smd roundrect (at 2.4625 -1.2) (size 0.825 0.2) (layers F.Cu F.Mask F.Paste) (roundrect_rratio 0.25))
  (pad 34 smd roundrect (at 2.4625 -1.6) (size 0.825 0.2) (layers F.Cu F.Mask F.Paste) (roundrect_rratio 0.25))
  (pad 35 smd roundrect (at 2.4625 -2) (size 0.825 0.2) (layers F.Cu F.Mask F.Paste) (roundrect_rratio 0.25))
  (pad 36 smd roundrect (at 2.4625 -2.4) (size 0.825 0.2) (layers F.Cu F.Mask F.Paste) (roundrect_rratio 0.25))
  (pad 37 smd roundrect (at 1.8 -2.9625) (size 0.2 0.825) (layers F.Cu F.Mask F.Paste) (roundrect_rratio 0.25))
  (pad 38 smd roundrect (at 1.4 -2.9625) (size 0.2 0.825) (layers F.Cu F.Mask F.Paste) (roundrect_rratio 0.25))
  (pad 39 smd roundrect (at 1 -2.9625) (size 0.2 0.825) (layers F.Cu F.Mask F.Paste) (roundrect_rratio 0.25))
  (pad 40 smd roundrect (at 0.6 -2.9625) (size 0.2 0.825) (layers F.Cu F.Mask F.Paste) (roundrect_rratio 0.25))
  (pad 41 smd roundrect (at 0.2 -2.9625) (size 0.2 0.825) (layers F.Cu F.Mask F.Paste) (roundrect_rratio 0.25))
  (pad 42 smd roundrect (at -0.2 -2.9625) (size 0.2 0.825) (layers F.Cu F.Mask F.Paste) (roundrect_rratio 0.25))
  (pad 43 smd roundrect (at -0.6 -2.9625) (size 0.2 0.825) (layers F.Cu F.Mask F.Paste) (roundrect_rratio 0.25))
  (pad 44 smd roundrect (at -1 -2.9625) (size 0.2 0.825) (layers F.Cu F.Mask F.Paste) (roundrect_rratio 0.25))
  (pad 45 smd roundrect (at -1.4 -2.9625) (size 0.2 0.825) (layers F.Cu F.Mask F.Paste) (roundrect_rratio 0.25))
  (pad 46 smd roundrect (at -1.8 -2.9625) (size 0.2 0.825) (layers F.Cu F.Mask F.Paste) (roundrect_rratio 0.25))
  (pad 47 smd rect (at 0 0) (size 2.8 3.8) (property pad_prop_heatsink) (layers F.Cu F.Mask)
    (zone_connect 2))
  (pad "" smd roundrect (at -0.7 -1.27) (size 1.13 1.02) (layers F.Paste) (roundrect_rratio 0.245098))
  (pad "" smd roundrect (at -0.7 0) (size 1.13 1.02) (layers F.Paste) (roundrect_rratio 0.245098))
  (pad "" smd roundrect (at -0.7 1.27) (size 1.13 1.02) (layers F.Paste) (roundrect_rratio 0.245098))
  (pad "" smd roundrect (at 0.7 -1.27) (size 1.13 1.02) (layers F.Paste) (roundrect_rratio 0.245098))
  (pad "" smd roundrect (at 0.7 0) (size 1.13 1.02) (layers F.Paste) (roundrect_rratio 0.245098))
  (pad "" smd roundrect (at 0.7 1.27) (size 1.13 1.02) (layers F.Paste) (roundrect_rratio 0.245098))
  (fp_poly (pts (xy -2.61 -3.11) (xy -2.79 -3.362) (xy -2.43 -3.362) (xy -2.61 -3.11))
    (stroke (width 0.12) (type solid)) (fill solid) (layer F.SilkS))
  (fp_text user ${REFERENCE} (at 0 0) (layer F.Fab)
    (effects (font (size 1 1) (thickness 0.15)))
  )
  (model ${KICAD7_3DMODEL_DIR}/Package_DFN_QFN.3dshapes/VQFN-46-1EP_5x6mm_P0.4mm_EP2.8x3.8mm.wrl
    (offset (xyz 0 0 0))
    (scale (xyz 1 1 1))
    (rotate (xyz 0 0 0))
  )
)
