(footprint WQFN-14-1EP_2.5x2.5mm_P0.5mm_EP1.45x1.45mm (version 20221018) (generator kicad-footprint-generator)
  (layer F.Cu)
  (descr "WQFN, 14 Pin (https://www.onsemi.com/pub/Collateral/FUSB302B-D.PDF#page=32), generated with kicad-footprint-generator ipc_noLead_generator.py")
  (tags "WQFN NoLead")
  (attr smd)
  (fp_text reference REF** (at 0 -2.55) (layer F.SilkS)
    (effects (font (size 1 1) (thickness 0.15)))
  )
  (fp_text value WQFN-14-1EP_2.5x2.5mm_P0.5mm_EP1.45x1.45mm (at 0 2.55) (layer F.Fab)
    (effects (font (size 1 1) (thickness 0.15)))
  )
  (fp_line (start -1.36 -0.885) (end -1.36 -1.12)
    (stroke (width 0.12) (type solid)) (layer F.SilkS))
  (fp_line (start 1.135 -1.36) (end 1.36 -1.36)
    (stroke (width 0.12) (type solid)) (layer F.SilkS))
  (fp_line (start 1.36 -1.36) (end 1.36 -0.885)
    (stroke (width 0.12) (type solid)) (layer F.SilkS))
  (fp_line (start -1.135 1.36) (end -1.36 1.36)
    (stroke (width 0.12) (type solid)) (layer F.SilkS))
  (fp_line (start -1.36 1.36) (end -1.36 0.885)
    (stroke (width 0.12) (type solid)) (layer F.SilkS))
  (fp_line (start 1.135 1.36) (end 1.36 1.36)
    (stroke (width 0.12) (type solid)) (layer F.SilkS))
  (fp_line (start 1.36 1.36) (end 1.36 0.885)
    (stroke (width 0.12) (type solid)) (layer F.SilkS))
  (fp_line (start -0.625 -1.25) (end 1.25 -1.25)
    (stroke (width 0.1) (type solid)) (layer F.Fab))
  (fp_line (start 1.25 -1.25) (end 1.25 1.25)
    (stroke (width 0.1) (type solid)) (layer F.Fab))
  (fp_line (start 1.25 1.25) (end -1.25 1.25)
    (stroke (width 0.1) (type solid)) (layer F.Fab))
  (fp_line (start -1.25 1.25) (end -1.25 -0.625)
    (stroke (width 0.1) (type solid)) (layer F.Fab))
  (fp_line (start -1.25 -0.625) (end -0.625 -1.25)
    (stroke (width 0.1) (type solid)) (layer F.Fab))
  (fp_line (start -1.85 -1.85) (end -1.85 1.85)
    (stroke (width 0.05) (type solid)) (layer F.CrtYd))
  (fp_line (start -1.85 1.85) (end 1.85 1.85)
    (stroke (width 0.05) (type solid)) (layer F.CrtYd))
  (fp_line (start 1.85 1.85) (end 1.85 -1.85)
    (stroke (width 0.05) (type solid)) (layer F.CrtYd))
  (fp_line (start 1.85 -1.85) (end -1.85 -1.85)
    (stroke (width 0.05) (type solid)) (layer F.CrtYd))
  (pad 1 smd roundrect (at -1.2625 -0.5) (size 0.675 0.25) (layers F.Cu F.Mask F.Paste) (roundrect_rratio 0.25))
  (pad 2 smd roundrect (at -1.2625 0) (size 0.675 0.25) (layers F.Cu F.Mask F.Paste) (roundrect_rratio 0.25))
  (pad 3 smd roundrect (at -1.2625 0.5) (size 0.675 0.25) (layers F.Cu F.Mask F.Paste) (roundrect_rratio 0.25))
  (pad 4 smd roundrect (at -0.75 1.2625) (size 0.25 0.675) (layers F.Cu F.Mask F.Paste) (roundrect_rratio 0.25))
  (pad 5 smd roundrect (at -0.25 1.2625) (size 0.25 0.675) (layers F.Cu F.Mask F.Paste) (roundrect_rratio 0.25))
  (pad 6 smd roundrect (at 0.25 1.2625) (size 0.25 0.675) (layers F.Cu F.Mask F.Paste) (roundrect_rratio 0.25))
  (pad 7 smd roundrect (at 0.75 1.2625) (size 0.25 0.675) (layers F.Cu F.Mask F.Paste) (roundrect_rratio 0.25))
  (pad 8 smd roundrect (at 1.2625 0.5) (size 0.675 0.25) (layers F.Cu F.Mask F.Paste) (roundrect_rratio 0.25))
  (pad 9 smd roundrect (at 1.2625 0) (size 0.675 0.25) (layers F.Cu F.Mask F.Paste) (roundrect_rratio 0.25))
  (pad 10 smd roundrect (at 1.2625 -0.5) (size 0.675 0.25) (layers F.Cu F.Mask F.Paste) (roundrect_rratio 0.25))
  (pad 11 smd roundrect (at 0.75 -1.2625) (size 0.25 0.675) (layers F.Cu F.Mask F.Paste) (roundrect_rratio 0.25))
  (pad 12 smd roundrect (at 0.25 -1.2625) (size 0.25 0.675) (layers F.Cu F.Mask F.Paste) (roundrect_rratio 0.25))
  (pad 13 smd roundrect (at -0.25 -1.2625) (size 0.25 0.675) (layers F.Cu F.Mask F.Paste) (roundrect_rratio 0.25))
  (pad 14 smd roundrect (at -0.75 -1.2625) (size 0.25 0.675) (layers F.Cu F.Mask F.Paste) (roundrect_rratio 0.25))
  (pad 15 smd rect (at 0 0) (size 1.45 1.45) (property pad_prop_heatsink) (layers F.Cu F.Mask)
    (zone_connect 2))
  (pad "" smd roundrect (at -0.36 -0.36) (size 0.58 0.58) (layers F.Paste) (roundrect_rratio 0.25))
  (pad "" smd roundrect (at -0.36 0.36) (size 0.58 0.58) (layers F.Paste) (roundrect_rratio 0.25))
  (pad "" smd roundrect (at 0.36 -0.36) (size 0.58 0.58) (layers F.Paste) (roundrect_rratio 0.25))
  (pad "" smd roundrect (at 0.36 0.36) (size 0.58 0.58) (layers F.Paste) (roundrect_rratio 0.25))
  (fp_poly (pts (xy -1.36 -1.36) (xy -1.54 -1.612) (xy -1.18 -1.612) (xy -1.36 -1.36))
    (stroke (width 0.12) (type solid)) (fill solid) (layer F.SilkS))
  (fp_text user ${REFERENCE} (at 0 0) (layer F.Fab)
    (effects (font (size 0.62 0.62) (thickness 0.09)))
  )
  (model ${KICAD7_3DMODEL_DIR}/Package_DFN_QFN.3dshapes/WQFN-14-1EP_2.5x2.5mm_P0.5mm_EP1.45x1.45mm.wrl
    (offset (xyz 0 0 0))
    (scale (xyz 1 1 1))
    (rotate (xyz 0 0 0))
  )
)
