(footprint WQFN-42-1EP_3.5x9mm_P0.5mm_EP2.05x7.55mm_ThermalVias (version 20221018) (generator kicad-footprint-generator)
  (layer F.Cu)
  (descr "WQFN, 42 Pin (http://www.ti.com/lit/ds/symlink/ts3l501e.pdf#page=23), generated with kicad-footprint-generator ipc_noLead_generator.py")
  (tags "WQFN NoLead")
  (attr smd)
  (fp_text reference REF** (at 0 -5.83) (layer F.SilkS)
    (effects (font (size 1 1) (thickness 0.15)))
  )
  (fp_text value WQFN-42-1EP_3.5x9mm_P0.5mm_EP2.05x7.55mm_ThermalVias (at 0 5.83) (layer F.Fab)
    (effects (font (size 1 1) (thickness 0.15)))
  )
  (fp_line (start -1.135 -4.61) (end -1.56 -4.61)
    (stroke (width 0.12) (type solid)) (layer F.SilkS))
  (fp_line (start 1.135 -4.61) (end 1.86 -4.61)
    (stroke (width 0.12) (type solid)) (layer F.SilkS))
  (fp_line (start 1.86 -4.61) (end 1.86 -4.385)
    (stroke (width 0.12) (type solid)) (layer F.SilkS))
  (fp_line (start -1.135 4.61) (end -1.86 4.61)
    (stroke (width 0.12) (type solid)) (layer F.SilkS))
  (fp_line (start -1.86 4.61) (end -1.86 4.385)
    (stroke (width 0.12) (type solid)) (layer F.SilkS))
  (fp_line (start 1.135 4.61) (end 1.86 4.61)
    (stroke (width 0.12) (type solid)) (layer F.SilkS))
  (fp_line (start 1.86 4.61) (end 1.86 4.385)
    (stroke (width 0.12) (type solid)) (layer F.SilkS))
  (fp_line (start -0.875 -4.5) (end 1.75 -4.5)
    (stroke (width 0.1) (type solid)) (layer F.Fab))
  (fp_line (start 1.75 -4.5) (end 1.75 4.5)
    (stroke (width 0.1) (type solid)) (layer F.Fab))
  (fp_line (start 1.75 4.5) (end -1.75 4.5)
    (stroke (width 0.1) (type solid)) (layer F.Fab))
  (fp_line (start -1.75 4.5) (end -1.75 -3.625)
    (stroke (width 0.1) (type solid)) (layer F.Fab))
  (fp_line (start -1.75 -3.625) (end -0.875 -4.5)
    (stroke (width 0.1) (type solid)) (layer F.Fab))
  (fp_line (start -2.38 -5.13) (end -2.38 5.13)
    (stroke (width 0.05) (type solid)) (layer F.CrtYd))
  (fp_line (start -2.38 5.13) (end 2.38 5.13)
    (stroke (width 0.05) (type solid)) (layer F.CrtYd))
  (fp_line (start 2.38 5.13) (end 2.38 -5.13)
    (stroke (width 0.05) (type solid)) (layer F.CrtYd))
  (fp_line (start 2.38 -5.13) (end -2.38 -5.13)
    (stroke (width 0.05) (type solid)) (layer F.CrtYd))
  (pad 1 smd roundrect (at -1.6875 -4) (size 0.875 0.25) (layers F.Cu F.Mask F.Paste) (roundrect_rratio 0.25))
  (pad 2 smd roundrect (at -1.6875 -3.5) (size 0.875 0.25) (layers F.Cu F.Mask F.Paste) (roundrect_rratio 0.25))
  (pad 3 smd roundrect (at -1.6875 -3) (size 0.875 0.25) (layers F.Cu F.Mask F.Paste) (roundrect_rratio 0.25))
  (pad 4 smd roundrect (at -1.6875 -2.5) (size 0.875 0.25) (layers F.Cu F.Mask F.Paste) (roundrect_rratio 0.25))
  (pad 5 smd roundrect (at -1.6875 -2) (size 0.875 0.25) (layers F.Cu F.Mask F.Paste) (roundrect_rratio 0.25))
  (pad 6 smd roundrect (at -1.6875 -1.5) (size 0.875 0.25) (layers F.Cu F.Mask F.Paste) (roundrect_rratio 0.25))
  (pad 7 smd roundrect (at -1.6875 -1) (size 0.875 0.25) (layers F.Cu F.Mask F.Paste) (roundrect_rratio 0.25))
  (pad 8 smd roundrect (at -1.6875 -0.5) (size 0.875 0.25) (layers F.Cu F.Mask F.Paste) (roundrect_rratio 0.25))
  (pad 9 smd roundrect (at -1.6875 0) (size 0.875 0.25) (layers F.Cu F.Mask F.Paste) (roundrect_rratio 0.25))
  (pad 10 smd roundrect (at -1.6875 0.5) (size 0.875 0.25) (layers F.Cu F.Mask F.Paste) (roundrect_rratio 0.25))
  (pad 11 smd roundrect (at -1.6875 1) (size 0.875 0.25) (layers F.Cu F.Mask F.Paste) (roundrect_rratio 0.25))
  (pad 12 smd roundrect (at -1.6875 1.5) (size 0.875 0.25) (layers F.Cu F.Mask F.Paste) (roundrect_rratio 0.25))
  (pad 13 smd roundrect (at -1.6875 2) (size 0.875 0.25) (layers F.Cu F.Mask F.Paste) (roundrect_rratio 0.25))
  (pad 14 smd roundrect (at -1.6875 2.5) (size 0.875 0.25) (layers F.Cu F.Mask F.Paste) (roundrect_rratio 0.25))
  (pad 15 smd roundrect (at -1.6875 3) (size 0.875 0.25) (layers F.Cu F.Mask F.Paste) (roundrect_rratio 0.25))
  (pad 16 smd roundrect (at -1.6875 3.5) (size 0.875 0.25) (layers F.Cu F.Mask F.Paste) (roundrect_rratio 0.25))
  (pad 17 smd roundrect (at -1.6875 4) (size 0.875 0.25) (layers F.Cu F.Mask F.Paste) (roundrect_rratio 0.25))
  (pad 18 smd roundrect (at -0.75 4.4375) (size 0.25 0.875) (layers F.Cu F.Mask F.Paste) (roundrect_rratio 0.25))
  (pad 19 smd roundrect (at -0.25 4.4375) (size 0.25 0.875) (layers F.Cu F.Mask F.Paste) (roundrect_rratio 0.25))
  (pad 20 smd roundrect (at 0.25 4.4375) (size 0.25 0.875) (layers F.Cu F.Mask F.Paste) (roundrect_rratio 0.25))
  (pad 21 smd roundrect (at 0.75 4.4375) (size 0.25 0.875) (layers F.Cu F.Mask F.Paste) (roundrect_rratio 0.25))
  (pad 22 smd roundrect (at 1.6875 4) (size 0.875 0.25) (layers F.Cu F.Mask F.Paste) (roundrect_rratio 0.25))
  (pad 23 smd roundrect (at 1.6875 3.5) (size 0.875 0.25) (layers F.Cu F.Mask F.Paste) (roundrect_rratio 0.25))
  (pad 24 smd roundrect (at 1.6875 3) (size 0.875 0.25) (layers F.Cu F.Mask F.Paste) (roundrect_rratio 0.25))
  (pad 25 smd roundrect (at 1.6875 2.5) (size 0.875 0.25) (layers F.Cu F.Mask F.Paste) (roundrect_rratio 0.25))
  (pad 26 smd roundrect (at 1.6875 2) (size 0.875 0.25) (layers F.Cu F.Mask F.Paste) (roundrect_rratio 0.25))
  (pad 27 smd roundrect (at 1.6875 1.5) (size 0.875 0.25) (layers F.Cu F.Mask F.Paste) (roundrect_rratio 0.25))
  (pad 28 smd roundrect (at 1.6875 1) (size 0.875 0.25) (layers F.Cu F.Mask F.Paste) (roundrect_rratio 0.25))
  (pad 29 smd roundrect (at 1.6875 0.5) (size 0.875 0.25) (layers F.Cu F.Mask F.Paste) (roundrect_rratio 0.25))
  (pad 30 smd roundrect (at 1.6875 0) (size 0.875 0.25) (layers F.Cu F.Mask F.Paste) (roundrect_rratio 0.25))
  (pad 31 smd roundrect (at 1.6875 -0.5) (size 0.875 0.25) (layers F.Cu F.Mask F.Paste) (roundrect_rratio 0.25))
  (pad 32 smd roundrect (at 1.6875 -1) (size 0.875 0.25) (layers F.Cu F.Mask F.Paste) (roundrect_rratio 0.25))
  (pad 33 smd roundrect (at 1.6875 -1.5) (size 0.875 0.25) (layers F.Cu F.Mask F.Paste) (roundrect_rratio 0.25))
  (pad 34 smd roundrect (at 1.6875 -2) (size 0.875 0.25) (layers F.Cu F.Mask F.Paste) (roundrect_rratio 0.25))
  (pad 35 smd roundrect (at 1.6875 -2.5) (size 0.875 0.25) (layers F.Cu F.Mask F.Paste) (roundrect_rratio 0.25))
  (pad 36 smd roundrect (at 1.6875 -3) (size 0.875 0.25) (layers F.Cu F.Mask F.Paste) (roundrect_rratio 0.25))
  (pad 37 smd roundrect (at 1.6875 -3.5) (size 0.875 0.25) (layers F.Cu F.Mask F.Paste) (roundrect_rratio 0.25))
  (pad 38 smd roundrect (at 1.6875 -4) (size 0.875 0.25) (layers F.Cu F.Mask F.Paste) (roundrect_rratio 0.25))
  (pad 39 smd roundrect (at 0.75 -4.4375) (size 0.25 0.875) (layers F.Cu F.Mask F.Paste) (roundrect_rratio 0.25))
  (pad 40 smd roundrect (at 0.25 -4.4375) (size 0.25 0.875) (layers F.Cu F.Mask F.Paste) (roundrect_rratio 0.25))
  (pad 41 smd roundrect (at -0.25 -4.4375) (size 0.25 0.875) (layers F.Cu F.Mask F.Paste) (roundrect_rratio 0.25))
  (pad 42 smd roundrect (at -0.75 -4.4375) (size 0.25 0.875) (layers F.Cu F.Mask F.Paste) (roundrect_rratio 0.25))
  (pad 43 smd rect (at 0 0) (size 2.05 7.55) (property pad_prop_heatsink) (layers F.Cu F.Mask)
    (zone_connect 2))
  (pad 43 thru_hole circle (at -0.775 -3.525) (size 0.5 0.5) (drill 0.2) (property pad_prop_heatsink) (layers *.Cu))
  (pad 43 thru_hole circle (at 0 -3.525) (size 0.5 0.5) (drill 0.2) (property pad_prop_heatsink) (layers *.Cu))
  (pad 43 thru_hole circle (at 0.775 -3.525) (size 0.5 0.5) (drill 0.2) (property pad_prop_heatsink) (layers *.Cu))
  (pad 43 thru_hole circle (at -0.775 -2.517857) (size 0.5 0.5) (drill 0.2) (property pad_prop_heatsink) (layers *.Cu))
  (pad 43 thru_hole circle (at 0 -2.517857) (size 0.5 0.5) (drill 0.2) (property pad_prop_heatsink) (layers *.Cu))
  (pad 43 thru_hole circle (at 0.775 -2.517857) (size 0.5 0.5) (drill 0.2) (property pad_prop_heatsink) (layers *.Cu))
  (pad 43 thru_hole circle (at -0.775 -1.510714) (size 0.5 0.5) (drill 0.2) (property pad_prop_heatsink) (layers *.Cu))
  (pad 43 thru_hole circle (at 0 -1.510714) (size 0.5 0.5) (drill 0.2) (property pad_prop_heatsink) (layers *.Cu))
  (pad 43 thru_hole circle (at 0.775 -1.510714) (size 0.5 0.5) (drill 0.2) (property pad_prop_heatsink) (layers *.Cu))
  (pad 43 thru_hole circle (at -0.775 -0.503571) (size 0.5 0.5) (drill 0.2) (property pad_prop_heatsink) (layers *.Cu))
  (pad 43 thru_hole circle (at 0 -0.503571) (size 0.5 0.5) (drill 0.2) (property pad_prop_heatsink) (layers *.Cu))
  (pad 43 thru_hole circle (at 0.775 -0.503571) (size 0.5 0.5) (drill 0.2) (property pad_prop_heatsink) (layers *.Cu))
  (pad 43 thru_hole circle (at -0.775 0.503571) (size 0.5 0.5) (drill 0.2) (property pad_prop_heatsink) (layers *.Cu))
  (pad 43 thru_hole circle (at 0 0.503571) (size 0.5 0.5) (drill 0.2) (property pad_prop_heatsink) (layers *.Cu))
  (pad 43 thru_hole circle (at 0.775 0.503571) (size 0.5 0.5) (drill 0.2) (property pad_prop_heatsink) (layers *.Cu))
  (pad 43 thru_hole circle (at -0.775 1.510714) (size 0.5 0.5) (drill 0.2) (property pad_prop_heatsink) (layers *.Cu))
  (pad 43 thru_hole circle (at 0 1.510714) (size 0.5 0.5) (drill 0.2) (property pad_prop_heatsink) (layers *.Cu))
  (pad 43 thru_hole circle (at 0.775 1.510714) (size 0.5 0.5) (drill 0.2) (property pad_prop_heatsink) (layers *.Cu))
  (pad 43 thru_hole circle (at -0.775 2.517857) (size 0.5 0.5) (drill 0.2) (property pad_prop_heatsink) (layers *.Cu))
  (pad 43 thru_hole circle (at 0 2.517857) (size 0.5 0.5) (drill 0.2) (property pad_prop_heatsink) (layers *.Cu))
  (pad 43 thru_hole circle (at 0.775 2.517857) (size 0.5 0.5) (drill 0.2) (property pad_prop_heatsink) (layers *.Cu))
  (pad 43 thru_hole circle (at -0.775 3.525) (size 0.5 0.5) (drill 0.2) (property pad_prop_heatsink) (layers *.Cu))
  (pad 43 thru_hole circle (at 0 3.525) (size 0.5 0.5) (drill 0.2) (property pad_prop_heatsink) (layers *.Cu))
  (pad 43 thru_hole circle (at 0.775 3.525) (size 0.5 0.5) (drill 0.2) (property pad_prop_heatsink) (layers *.Cu))
  (pad 43 smd rect (at 0 0) (size 2.05 7.55) (property pad_prop_heatsink) (layers B.Cu)
    (zone_connect 2))
  (pad "" smd roundrect (at -0.51 -3.24) (size 0.83 0.87) (layers F.Paste) (roundrect_rratio 0.25))
  (pad "" smd roundrect (at -0.51 -2.16) (size 0.83 0.87) (layers F.Paste) (roundrect_rratio 0.25))
  (pad "" smd roundrect (at -0.51 -1.08) (size 0.83 0.87) (layers F.Paste) (roundrect_rratio 0.25))
  (pad "" smd roundrect (at -0.51 0) (size 0.83 0.87) (layers F.Paste) (roundrect_rratio 0.25))
  (pad "" smd roundrect (at -0.51 1.08) (size 0.83 0.87) (layers F.Paste) (roundrect_rratio 0.25))
  (pad "" smd roundrect (at -0.51 2.16) (size 0.83 0.87) (layers F.Paste) (roundrect_rratio 0.25))
  (pad "" smd roundrect (at -0.51 3.24) (size 0.83 0.87) (layers F.Paste) (roundrect_rratio 0.25))
  (pad "" smd roundrect (at 0.51 -3.24) (size 0.83 0.87) (layers F.Paste) (roundrect_rratio 0.25))
  (pad "" smd roundrect (at 0.51 -2.16) (size 0.83 0.87) (layers F.Paste) (roundrect_rratio 0.25))
  (pad "" smd roundrect (at 0.51 -1.08) (size 0.83 0.87) (layers F.Paste) (roundrect_rratio 0.25))
  (pad "" smd roundrect (at 0.51 0) (size 0.83 0.87) (layers F.Paste) (roundrect_rratio 0.25))
  (pad "" smd roundrect (at 0.51 1.08) (size 0.83 0.87) (layers F.Paste) (roundrect_rratio 0.25))
  (pad "" smd roundrect (at 0.51 2.16) (size 0.83 0.87) (layers F.Paste) (roundrect_rratio 0.25))
  (pad "" smd roundrect (at 0.51 3.24) (size 0.83 0.87) (layers F.Paste) (roundrect_rratio 0.25))
  (fp_poly (pts (xy -1.86 -4.61) (xy -2.04 -4.862) (xy -1.68 -4.862) (xy -1.86 -4.61))
    (stroke (width 0.12) (type solid)) (fill solid) (layer F.SilkS))
  (fp_text user ${REFERENCE} (at 0 0 90) (layer F.Fab)
    (effects (font (size 1 1) (thickness 0.15)))
  )
  (model ${KICAD7_3DMODEL_DIR}/Package_DFN_QFN.3dshapes/WQFN-42-1EP_3.5x9mm_P0.5mm_EP2.05x7.55mm.wrl
    (offset (xyz 0 0 0))
    (scale (xyz 1 1 1))
    (rotate (xyz 0 0 0))
  )
)
