(footprint LFCSP-72-1EP_10x10mm_P0.5mm_EP5.3x5.3mm_ThermalVias (version 20221018) (generator kicad-footprint-generator)
  (layer F.Cu)
  (descr "LFCSP, 72 Pin (http://www.analog.com/media/en/technical-documentation/data-sheets/ADAU1452_1451_1450.pdf), generated with kicad-footprint-generator ipc_noLead_generator.py")
  (tags "LFCSP NoLead")
  (attr smd)
  (fp_text reference REF** (at 0 -6.33) (layer F.SilkS)
    (effects (font (size 1 1) (thickness 0.15)))
  )
  (fp_text value LFCSP-72-1EP_10x10mm_P0.5mm_EP5.3x5.3mm_ThermalVias (at 0 6.33) (layer F.Fab)
    (effects (font (size 1 1) (thickness 0.15)))
  )
  (fp_line (start -4.635 -5.11) (end -4.81 -5.11)
    (stroke (width 0.12) (type solid)) (layer F.SilkS))
  (fp_line (start -5.11 -4.635) (end -5.11 -4.87)
    (stroke (width 0.12) (type solid)) (layer F.SilkS))
  (fp_line (start 4.635 -5.11) (end 5.11 -5.11)
    (stroke (width 0.12) (type solid)) (layer F.SilkS))
  (fp_line (start 5.11 -5.11) (end 5.11 -4.635)
    (stroke (width 0.12) (type solid)) (layer F.SilkS))
  (fp_line (start -4.635 5.11) (end -5.11 5.11)
    (stroke (width 0.12) (type solid)) (layer F.SilkS))
  (fp_line (start -5.11 5.11) (end -5.11 4.635)
    (stroke (width 0.12) (type solid)) (layer F.SilkS))
  (fp_line (start 4.635 5.11) (end 5.11 5.11)
    (stroke (width 0.12) (type solid)) (layer F.SilkS))
  (fp_line (start 5.11 5.11) (end 5.11 4.635)
    (stroke (width 0.12) (type solid)) (layer F.SilkS))
  (fp_line (start -4 -5) (end 5 -5)
    (stroke (width 0.1) (type solid)) (layer F.Fab))
  (fp_line (start 5 -5) (end 5 5)
    (stroke (width 0.1) (type solid)) (layer F.Fab))
  (fp_line (start 5 5) (end -5 5)
    (stroke (width 0.1) (type solid)) (layer F.Fab))
  (fp_line (start -5 5) (end -5 -4)
    (stroke (width 0.1) (type solid)) (layer F.Fab))
  (fp_line (start -5 -4) (end -4 -5)
    (stroke (width 0.1) (type solid)) (layer F.Fab))
  (fp_line (start -5.63 -5.63) (end -5.63 5.63)
    (stroke (width 0.05) (type solid)) (layer F.CrtYd))
  (fp_line (start -5.63 5.63) (end 5.63 5.63)
    (stroke (width 0.05) (type solid)) (layer F.CrtYd))
  (fp_line (start 5.63 5.63) (end 5.63 -5.63)
    (stroke (width 0.05) (type solid)) (layer F.CrtYd))
  (fp_line (start 5.63 -5.63) (end -5.63 -5.63)
    (stroke (width 0.05) (type solid)) (layer F.CrtYd))
  (pad 1 smd roundrect (at -4.9375 -4.25) (size 0.875 0.25) (layers F.Cu F.Mask F.Paste) (roundrect_rratio 0.25))
  (pad 2 smd roundrect (at -4.9375 -3.75) (size 0.875 0.25) (layers F.Cu F.Mask F.Paste) (roundrect_rratio 0.25))
  (pad 3 smd roundrect (at -4.9375 -3.25) (size 0.875 0.25) (layers F.Cu F.Mask F.Paste) (roundrect_rratio 0.25))
  (pad 4 smd roundrect (at -4.9375 -2.75) (size 0.875 0.25) (layers F.Cu F.Mask F.Paste) (roundrect_rratio 0.25))
  (pad 5 smd roundrect (at -4.9375 -2.25) (size 0.875 0.25) (layers F.Cu F.Mask F.Paste) (roundrect_rratio 0.25))
  (pad 6 smd roundrect (at -4.9375 -1.75) (size 0.875 0.25) (layers F.Cu F.Mask F.Paste) (roundrect_rratio 0.25))
  (pad 7 smd roundrect (at -4.9375 -1.25) (size 0.875 0.25) (layers F.Cu F.Mask F.Paste) (roundrect_rratio 0.25))
  (pad 8 smd roundrect (at -4.9375 -0.75) (size 0.875 0.25) (layers F.Cu F.Mask F.Paste) (roundrect_rratio 0.25))
  (pad 9 smd roundrect (at -4.9375 -0.25) (size 0.875 0.25) (layers F.Cu F.Mask F.Paste) (roundrect_rratio 0.25))
  (pad 10 smd roundrect (at -4.9375 0.25) (size 0.875 0.25) (layers F.Cu F.Mask F.Paste) (roundrect_rratio 0.25))
  (pad 11 smd roundrect (at -4.9375 0.75) (size 0.875 0.25) (layers F.Cu F.Mask F.Paste) (roundrect_rratio 0.25))
  (pad 12 smd roundrect (at -4.9375 1.25) (size 0.875 0.25) (layers F.Cu F.Mask F.Paste) (roundrect_rratio 0.25))
  (pad 13 smd roundrect (at -4.9375 1.75) (size 0.875 0.25) (layers F.Cu F.Mask F.Paste) (roundrect_rratio 0.25))
  (pad 14 smd roundrect (at -4.9375 2.25) (size 0.875 0.25) (layers F.Cu F.Mask F.Paste) (roundrect_rratio 0.25))
  (pad 15 smd roundrect (at -4.9375 2.75) (size 0.875 0.25) (layers F.Cu F.Mask F.Paste) (roundrect_rratio 0.25))
  (pad 16 smd roundrect (at -4.9375 3.25) (size 0.875 0.25) (layers F.Cu F.Mask F.Paste) (roundrect_rratio 0.25))
  (pad 17 smd roundrect (at -4.9375 3.75) (size 0.875 0.25) (layers F.Cu F.Mask F.Paste) (roundrect_rratio 0.25))
  (pad 18 smd roundrect (at -4.9375 4.25) (size 0.875 0.25) (layers F.Cu F.Mask F.Paste) (roundrect_rratio 0.25))
  (pad 19 smd roundrect (at -4.25 4.9375) (size 0.25 0.875) (layers F.Cu F.Mask F.Paste) (roundrect_rratio 0.25))
  (pad 20 smd roundrect (at -3.75 4.9375) (size 0.25 0.875) (layers F.Cu F.Mask F.Paste) (roundrect_rratio 0.25))
  (pad 21 smd roundrect (at -3.25 4.9375) (size 0.25 0.875) (layers F.Cu F.Mask F.Paste) (roundrect_rratio 0.25))
  (pad 22 smd roundrect (at -2.75 4.9375) (size 0.25 0.875) (layers F.Cu F.Mask F.Paste) (roundrect_rratio 0.25))
  (pad 23 smd roundrect (at -2.25 4.9375) (size 0.25 0.875) (layers F.Cu F.Mask F.Paste) (roundrect_rratio 0.25))
  (pad 24 smd roundrect (at -1.75 4.9375) (size 0.25 0.875) (layers F.Cu F.Mask F.Paste) (roundrect_rratio 0.25))
  (pad 25 smd roundrect (at -1.25 4.9375) (size 0.25 0.875) (layers F.Cu F.Mask F.Paste) (roundrect_rratio 0.25))
  (pad 26 smd roundrect (at -0.75 4.9375) (size 0.25 0.875) (layers F.Cu F.Mask F.Paste) (roundrect_rratio 0.25))
  (pad 27 smd roundrect (at -0.25 4.9375) (size 0.25 0.875) (layers F.Cu F.Mask F.Paste) (roundrect_rratio 0.25))
  (pad 28 smd roundrect (at 0.25 4.9375) (size 0.25 0.875) (layers F.Cu F.Mask F.Paste) (roundrect_rratio 0.25))
  (pad 29 smd roundrect (at 0.75 4.9375) (size 0.25 0.875) (layers F.Cu F.Mask F.Paste) (roundrect_rratio 0.25))
  (pad 30 smd roundrect (at 1.25 4.9375) (size 0.25 0.875) (layers F.Cu F.Mask F.Paste) (roundrect_rratio 0.25))
  (pad 31 smd roundrect (at 1.75 4.9375) (size 0.25 0.875) (layers F.Cu F.Mask F.Paste) (roundrect_rratio 0.25))
  (pad 32 smd roundrect (at 2.25 4.9375) (size 0.25 0.875) (layers F.Cu F.Mask F.Paste) (roundrect_rratio 0.25))
  (pad 33 smd roundrect (at 2.75 4.9375) (size 0.25 0.875) (layers F.Cu F.Mask F.Paste) (roundrect_rratio 0.25))
  (pad 34 smd roundrect (at 3.25 4.9375) (size 0.25 0.875) (layers F.Cu F.Mask F.Paste) (roundrect_rratio 0.25))
  (pad 35 smd roundrect (at 3.75 4.9375) (size 0.25 0.875) (layers F.Cu F.Mask F.Paste) (roundrect_rratio 0.25))
  (pad 36 smd roundrect (at 4.25 4.9375) (size 0.25 0.875) (layers F.Cu F.Mask F.Paste) (roundrect_rratio 0.25))
  (pad 37 smd roundrect (at 4.9375 4.25) (size 0.875 0.25) (layers F.Cu F.Mask F.Paste) (roundrect_rratio 0.25))
  (pad 38 smd roundrect (at 4.9375 3.75) (size 0.875 0.25) (layers F.Cu F.Mask F.Paste) (roundrect_rratio 0.25))
  (pad 39 smd roundrect (at 4.9375 3.25) (size 0.875 0.25) (layers F.Cu F.Mask F.Paste) (roundrect_rratio 0.25))
  (pad 40 smd roundrect (at 4.9375 2.75) (size 0.875 0.25) (layers F.Cu F.Mask F.Paste) (roundrect_rratio 0.25))
  (pad 41 smd roundrect (at 4.9375 2.25) (size 0.875 0.25) (layers F.Cu F.Mask F.Paste) (roundrect_rratio 0.25))
  (pad 42 smd roundrect (at 4.9375 1.75) (size 0.875 0.25) (layers F.Cu F.Mask F.Paste) (roundrect_rratio 0.25))
  (pad 43 smd roundrect (at 4.9375 1.25) (size 0.875 0.25) (layers F.Cu F.Mask F.Paste) (roundrect_rratio 0.25))
  (pad 44 smd roundrect (at 4.9375 0.75) (size 0.875 0.25) (layers F.Cu F.Mask F.Paste) (roundrect_rratio 0.25))
  (pad 45 smd roundrect (at 4.9375 0.25) (size 0.875 0.25) (layers F.Cu F.Mask F.Paste) (roundrect_rratio 0.25))
  (pad 46 smd roundrect (at 4.9375 -0.25) (size 0.875 0.25) (layers F.Cu F.Mask F.Paste) (roundrect_rratio 0.25))
  (pad 47 smd roundrect (at 4.9375 -0.75) (size 0.875 0.25) (layers F.Cu F.Mask F.Paste) (roundrect_rratio 0.25))
  (pad 48 smd roundrect (at 4.9375 -1.25) (size 0.875 0.25) (layers F.Cu F.Mask F.Paste) (roundrect_rratio 0.25))
  (pad 49 smd roundrect (at 4.9375 -1.75) (size 0.875 0.25) (layers F.Cu F.Mask F.Paste) (roundrect_rratio 0.25))
  (pad 50 smd roundrect (at 4.9375 -2.25) (size 0.875 0.25) (layers F.Cu F.Mask F.Paste) (roundrect_rratio 0.25))
  (pad 51 smd roundrect (at 4.9375 -2.75) (size 0.875 0.25) (layers F.Cu F.Mask F.Paste) (roundrect_rratio 0.25))
  (pad 52 smd roundrect (at 4.9375 -3.25) (size 0.875 0.25) (layers F.Cu F.Mask F.Paste) (roundrect_rratio 0.25))
  (pad 53 smd roundrect (at 4.9375 -3.75) (size 0.875 0.25) (layers F.Cu F.Mask F.Paste) (roundrect_rratio 0.25))
  (pad 54 smd roundrect (at 4.9375 -4.25) (size 0.875 0.25) (layers F.Cu F.Mask F.Paste) (roundrect_rratio 0.25))
  (pad 55 smd roundrect (at 4.25 -4.9375) (size 0.25 0.875) (layers F.Cu F.Mask F.Paste) (roundrect_rratio 0.25))
  (pad 56 smd roundrect (at 3.75 -4.9375) (size 0.25 0.875) (layers F.Cu F.Mask F.Paste) (roundrect_rratio 0.25))
  (pad 57 smd roundrect (at 3.25 -4.9375) (size 0.25 0.875) (layers F.Cu F.Mask F.Paste) (roundrect_rratio 0.25))
  (pad 58 smd roundrect (at 2.75 -4.9375) (size 0.25 0.875) (layers F.Cu F.Mask F.Paste) (roundrect_rratio 0.25))
  (pad 59 smd roundrect (at 2.25 -4.9375) (size 0.25 0.875) (layers F.Cu F.Mask F.Paste) (roundrect_rratio 0.25))
  (pad 60 smd roundrect (at 1.75 -4.9375) (size 0.25 0.875) (layers F.Cu F.Mask F.Paste) (roundrect_rratio 0.25))
  (pad 61 smd roundrect (at 1.25 -4.9375) (size 0.25 0.875) (layers F.Cu F.Mask F.Paste) (roundrect_rratio 0.25))
  (pad 62 smd roundrect (at 0.75 -4.9375) (size 0.25 0.875) (layers F.Cu F.Mask F.Paste) (roundrect_rratio 0.25))
  (pad 63 smd roundrect (at 0.25 -4.9375) (size 0.25 0.875) (layers F.Cu F.Mask F.Paste) (roundrect_rratio 0.25))
  (pad 64 smd roundrect (at -0.25 -4.9375) (size 0.25 0.875) (layers F.Cu F.Mask F.Paste) (roundrect_rratio 0.25))
  (pad 65 smd roundrect (at -0.75 -4.9375) (size 0.25 0.875) (layers F.Cu F.Mask F.Paste) (roundrect_rratio 0.25))
  (pad 66 smd roundrect (at -1.25 -4.9375) (size 0.25 0.875) (layers F.Cu F.Mask F.Paste) (roundrect_rratio 0.25))
  (pad 67 smd roundrect (at -1.75 -4.9375) (size 0.25 0.875) (layers F.Cu F.Mask F.Paste) (roundrect_rratio 0.25))
  (pad 68 smd roundrect (at -2.25 -4.9375) (size 0.25 0.875) (layers F.Cu F.Mask F.Paste) (roundrect_rratio 0.25))
  (pad 69 smd roundrect (at -2.75 -4.9375) (size 0.25 0.875) (layers F.Cu F.Mask F.Paste) (roundrect_rratio 0.25))
  (pad 70 smd roundrect (at -3.25 -4.9375) (size 0.25 0.875) (layers F.Cu F.Mask F.Paste) (roundrect_rratio 0.25))
  (pad 71 smd roundrect (at -3.75 -4.9375) (size 0.25 0.875) (layers F.Cu F.Mask F.Paste) (roundrect_rratio 0.25))
  (pad 72 smd roundrect (at -4.25 -4.9375) (size 0.25 0.875) (layers F.Cu F.Mask F.Paste) (roundrect_rratio 0.25))
  (pad 73 smd rect (at 0 0) (size 5.3 5.3) (property pad_prop_heatsink) (layers F.Cu F.Mask)
    (zone_connect 2))
  (pad 73 thru_hole circle (at -2.35 -2.35) (size 0.6 0.6) (drill 0.3) (property pad_prop_heatsink) (layers *.Cu))
  (pad 73 thru_hole circle (at -0.783333 -2.35) (size 0.6 0.6) (drill 0.3) (property pad_prop_heatsink) (layers *.Cu))
  (pad 73 thru_hole circle (at 0.783333 -2.35) (size 0.6 0.6) (drill 0.3) (property pad_prop_heatsink) (layers *.Cu))
  (pad 73 thru_hole circle (at 2.35 -2.35) (size 0.6 0.6) (drill 0.3) (property pad_prop_heatsink) (layers *.Cu))
  (pad 73 thru_hole circle (at -2.35 -0.783333) (size 0.6 0.6) (drill 0.3) (property pad_prop_heatsink) (layers *.Cu))
  (pad 73 thru_hole circle (at -0.783333 -0.783333) (size 0.6 0.6) (drill 0.3) (property pad_prop_heatsink) (layers *.Cu))
  (pad 73 thru_hole circle (at 0.783333 -0.783333) (size 0.6 0.6) (drill 0.3) (property pad_prop_heatsink) (layers *.Cu))
  (pad 73 thru_hole circle (at 2.35 -0.783333) (size 0.6 0.6) (drill 0.3) (property pad_prop_heatsink) (layers *.Cu))
  (pad 73 thru_hole circle (at -2.35 0.783333) (size 0.6 0.6) (drill 0.3) (property pad_prop_heatsink) (layers *.Cu))
  (pad 73 thru_hole circle (at -0.783333 0.783333) (size 0.6 0.6) (drill 0.3) (property pad_prop_heatsink) (layers *.Cu))
  (pad 73 thru_hole circle (at 0.783333 0.783333) (size 0.6 0.6) (drill 0.3) (property pad_prop_heatsink) (layers *.Cu))
  (pad 73 thru_hole circle (at 2.35 0.783333) (size 0.6 0.6) (drill 0.3) (property pad_prop_heatsink) (layers *.Cu))
  (pad 73 thru_hole circle (at -2.35 2.35) (size 0.6 0.6) (drill 0.3) (property pad_prop_heatsink) (layers *.Cu))
  (pad 73 thru_hole circle (at -0.783333 2.35) (size 0.6 0.6) (drill 0.3) (property pad_prop_heatsink) (layers *.Cu))
  (pad 73 thru_hole circle (at 0.783333 2.35) (size 0.6 0.6) (drill 0.3) (property pad_prop_heatsink) (layers *.Cu))
  (pad 73 thru_hole circle (at 2.35 2.35) (size 0.6 0.6) (drill 0.3) (property pad_prop_heatsink) (layers *.Cu))
  (pad 73 smd rect (at 0 0) (size 5.3 5.3) (property pad_prop_heatsink) (layers B.Cu)
    (zone_connect 2))
  (pad "" smd custom (at -1.566667 -1.566667) (size 1.274978 1.274978) (layers F.Paste)
    (options (clearance outline) (anchor circle))
    (primitives
      (gr_poly (pts
         (xy -0.562812 -0.439083) (xy -0.439083 -0.562812) (xy 0.439083 -0.562812) (xy 0.562812 -0.439083)
         (xy 0.562812 0.439083) (xy 0.439083 0.562812) (xy -0.439083 0.562812) (xy -0.562812 0.439083)) (width 0.298709))
    ))
  (pad "" smd custom (at -1.566667 0) (size 1.274978 1.274978) (layers F.Paste)
    (options (clearance outline) (anchor circle))
    (primitives
      (gr_poly (pts
         (xy -0.562812 -0.439083) (xy -0.439083 -0.562812) (xy 0.439083 -0.562812) (xy 0.562812 -0.439083)
         (xy 0.562812 0.439083) (xy 0.439083 0.562812) (xy -0.439083 0.562812) (xy -0.562812 0.439083)) (width 0.298709))
    ))
  (pad "" smd custom (at -1.566667 1.566667) (size 1.274978 1.274978) (layers F.Paste)
    (options (clearance outline) (anchor circle))
    (primitives
      (gr_poly (pts
         (xy -0.562812 -0.439083) (xy -0.439083 -0.562812) (xy 0.439083 -0.562812) (xy 0.562812 -0.439083)
         (xy 0.562812 0.439083) (xy 0.439083 0.562812) (xy -0.439083 0.562812) (xy -0.562812 0.439083)) (width 0.298709))
    ))
  (pad "" smd custom (at 0 -1.566667) (size 1.274978 1.274978) (layers F.Paste)
    (options (clearance outline) (anchor circle))
    (primitives
      (gr_poly (pts
         (xy -0.562812 -0.439083) (xy -0.439083 -0.562812) (xy 0.439083 -0.562812) (xy 0.562812 -0.439083)
         (xy 0.562812 0.439083) (xy 0.439083 0.562812) (xy -0.439083 0.562812) (xy -0.562812 0.439083)) (width 0.298709))
    ))
  (pad "" smd custom (at 0 0) (size 1.274978 1.274978) (layers F.Paste)
    (options (clearance outline) (anchor circle))
    (primitives
      (gr_poly (pts
         (xy -0.562812 -0.439083) (xy -0.439083 -0.562812) (xy 0.439083 -0.562812) (xy 0.562812 -0.439083)
         (xy 0.562812 0.439083) (xy 0.439083 0.562812) (xy -0.439083 0.562812) (xy -0.562812 0.439083)) (width 0.298709))
    ))
  (pad "" smd custom (at 0 1.566667) (size 1.274978 1.274978) (layers F.Paste)
    (options (clearance outline) (anchor circle))
    (primitives
      (gr_poly (pts
         (xy -0.562812 -0.439083) (xy -0.439083 -0.562812) (xy 0.439083 -0.562812) (xy 0.562812 -0.439083)
         (xy 0.562812 0.439083) (xy 0.439083 0.562812) (xy -0.439083 0.562812) (xy -0.562812 0.439083)) (width 0.298709))
    ))
  (pad "" smd custom (at 1.566667 -1.566667) (size 1.274978 1.274978) (layers F.Paste)
    (options (clearance outline) (anchor circle))
    (primitives
      (gr_poly (pts
         (xy -0.562812 -0.439083) (xy -0.439083 -0.562812) (xy 0.439083 -0.562812) (xy 0.562812 -0.439083)
         (xy 0.562812 0.439083) (xy 0.439083 0.562812) (xy -0.439083 0.562812) (xy -0.562812 0.439083)) (width 0.298709))
    ))
  (pad "" smd custom (at 1.566667 0) (size 1.274978 1.274978) (layers F.Paste)
    (options (clearance outline) (anchor circle))
    (primitives
      (gr_poly (pts
         (xy -0.562812 -0.439083) (xy -0.439083 -0.562812) (xy 0.439083 -0.562812) (xy 0.562812 -0.439083)
         (xy 0.562812 0.439083) (xy 0.439083 0.562812) (xy -0.439083 0.562812) (xy -0.562812 0.439083)) (width 0.298709))
    ))
  (pad "" smd custom (at 1.566667 1.566667) (size 1.274978 1.274978) (layers F.Paste)
    (options (clearance outline) (anchor circle))
    (primitives
      (gr_poly (pts
         (xy -0.562812 -0.439083) (xy -0.439083 -0.562812) (xy 0.439083 -0.562812) (xy 0.562812 -0.439083)
         (xy 0.562812 0.439083) (xy 0.439083 0.562812) (xy -0.439083 0.562812) (xy -0.562812 0.439083)) (width 0.298709))
    ))
  (fp_poly (pts (xy -5.11 -5.11) (xy -5.29 -5.362) (xy -4.93 -5.362) (xy -5.11 -5.11))
    (stroke (width 0.12) (type solid)) (fill solid) (layer F.SilkS))
  (fp_text user ${REFERENCE} (at 0 0) (layer F.Fab)
    (effects (font (size 1 1) (thickness 0.15)))
  )
  (model ${KICAD7_3DMODEL_DIR}/Package_CSP.3dshapes/LFCSP-72-1EP_10x10mm_P0.5mm_EP5.3x5.3mm.wrl
    (offset (xyz 0 0 0))
    (scale (xyz 1 1 1))
    (rotate (xyz 0 0 0))
  )
)
