(footprint Sensirion_SCD4x-1EP_10.1x10.1mm_P1.25mm_EP4.8x4.8mm (version 20221018) (generator kicad-footprint-generator)
  (layer F.Cu)
  (descr "Sensirion SCD4x QFN, 20 Pin (https://sensirion.com/media/documents/C4B87CE6/627C2DCD/CD_DS_SCD40_SCD41_Datasheet_D1.pdf), generated with kicad-footprint-generator ipc_noLead_generator.py")
  (tags "Sensirion QFN NoLead")
  (attr smd)
  (fp_text reference REF** (at 0 -6.05) (layer F.SilkS)
    (effects (font (size 1 1) (thickness 0.15)))
  )
  (fp_text value Sensirion_SCD4x-1EP_10.1x10.1mm_P1.25mm_EP4.8x4.8mm (at 0 6.05) (layer F.Fab)
    (effects (font (size 1 1) (thickness 0.15)))
  )
  (fp_line (start -3.185 -5.16) (end -4.86 -5.16)
    (stroke (width 0.12) (type solid)) (layer F.SilkS))
  (fp_line (start -5.16 -3.185) (end -5.16 -4.92)
    (stroke (width 0.12) (type solid)) (layer F.SilkS))
  (fp_line (start 3.185 -5.16) (end 5.16 -5.16)
    (stroke (width 0.12) (type solid)) (layer F.SilkS))
  (fp_line (start 5.16 -5.16) (end 5.16 -3.185)
    (stroke (width 0.12) (type solid)) (layer F.SilkS))
  (fp_line (start -3.185 5.16) (end -5.16 5.16)
    (stroke (width 0.12) (type solid)) (layer F.SilkS))
  (fp_line (start -5.16 5.16) (end -5.16 3.185)
    (stroke (width 0.12) (type solid)) (layer F.SilkS))
  (fp_line (start 3.185 5.16) (end 5.16 5.16)
    (stroke (width 0.12) (type solid)) (layer F.SilkS))
  (fp_line (start 5.16 5.16) (end 5.16 3.185)
    (stroke (width 0.12) (type solid)) (layer F.SilkS))
  (fp_line (start -4.05 -5.05) (end 5.05 -5.05)
    (stroke (width 0.1) (type solid)) (layer F.Fab))
  (fp_line (start 5.05 -5.05) (end 5.05 5.05)
    (stroke (width 0.1) (type solid)) (layer F.Fab))
  (fp_line (start 5.05 5.05) (end -5.05 5.05)
    (stroke (width 0.1) (type solid)) (layer F.Fab))
  (fp_line (start -5.05 5.05) (end -5.05 -4.05)
    (stroke (width 0.1) (type solid)) (layer F.Fab))
  (fp_line (start -5.05 -4.05) (end -4.05 -5.05)
    (stroke (width 0.1) (type solid)) (layer F.Fab))
  (fp_line (start -5.35 -5.35) (end -5.35 5.35)
    (stroke (width 0.05) (type solid)) (layer F.CrtYd))
  (fp_line (start -5.35 5.35) (end 5.35 5.35)
    (stroke (width 0.05) (type solid)) (layer F.CrtYd))
  (fp_line (start 5.35 5.35) (end 5.35 -5.35)
    (stroke (width 0.05) (type solid)) (layer F.CrtYd))
  (fp_line (start 5.35 -5.35) (end -5.35 -5.35)
    (stroke (width 0.05) (type solid)) (layer F.CrtYd))
  (pad 1 smd roundrect (at -4.15 -2.5) (size 1.9 0.85) (layers F.Cu F.Mask F.Paste) (roundrect_rratio 0.25))
  (pad 2 smd roundrect (at -4.15 -1.25) (size 1.9 0.85) (layers F.Cu F.Mask F.Paste) (roundrect_rratio 0.25))
  (pad 3 smd roundrect (at -4.15 0) (size 1.9 0.85) (layers F.Cu F.Mask F.Paste) (roundrect_rratio 0.25))
  (pad 4 smd roundrect (at -4.15 1.25) (size 1.9 0.85) (layers F.Cu F.Mask F.Paste) (roundrect_rratio 0.25))
  (pad 5 smd roundrect (at -4.15 2.5) (size 1.9 0.85) (layers F.Cu F.Mask F.Paste) (roundrect_rratio 0.25))
  (pad 6 smd roundrect (at -2.5 4.15) (size 0.85 1.9) (layers F.Cu F.Mask F.Paste) (roundrect_rratio 0.25))
  (pad 7 smd roundrect (at -1.25 4.15) (size 0.85 1.9) (layers F.Cu F.Mask F.Paste) (roundrect_rratio 0.25))
  (pad 8 smd roundrect (at 0 4.15) (size 0.85 1.9) (layers F.Cu F.Mask F.Paste) (roundrect_rratio 0.25))
  (pad 9 smd roundrect (at 1.25 4.15) (size 0.85 1.9) (layers F.Cu F.Mask F.Paste) (roundrect_rratio 0.25))
  (pad 10 smd roundrect (at 2.5 4.15) (size 0.85 1.9) (layers F.Cu F.Mask F.Paste) (roundrect_rratio 0.25))
  (pad 11 smd roundrect (at 4.15 2.5) (size 1.9 0.85) (layers F.Cu F.Mask F.Paste) (roundrect_rratio 0.25))
  (pad 12 smd roundrect (at 4.15 1.25) (size 1.9 0.85) (layers F.Cu F.Mask F.Paste) (roundrect_rratio 0.25))
  (pad 13 smd roundrect (at 4.15 0) (size 1.9 0.85) (layers F.Cu F.Mask F.Paste) (roundrect_rratio 0.25))
  (pad 14 smd roundrect (at 4.15 -1.25) (size 1.9 0.85) (layers F.Cu F.Mask F.Paste) (roundrect_rratio 0.25))
  (pad 15 smd roundrect (at 4.15 -2.5) (size 1.9 0.85) (layers F.Cu F.Mask F.Paste) (roundrect_rratio 0.25))
  (pad 16 smd roundrect (at 2.5 -4.15) (size 0.85 1.9) (layers F.Cu F.Mask F.Paste) (roundrect_rratio 0.25))
  (pad 17 smd roundrect (at 1.25 -4.15) (size 0.85 1.9) (layers F.Cu F.Mask F.Paste) (roundrect_rratio 0.25))
  (pad 18 smd roundrect (at 0 -4.15) (size 0.85 1.9) (layers F.Cu F.Mask F.Paste) (roundrect_rratio 0.25))
  (pad 19 smd roundrect (at -1.25 -4.15) (size 0.85 1.9) (layers F.Cu F.Mask F.Paste) (roundrect_rratio 0.25))
  (pad 20 smd roundrect (at -2.5 -4.15) (size 0.85 1.9) (layers F.Cu F.Mask F.Paste) (roundrect_rratio 0.25))
  (pad 21 smd rect (at 0 0) (size 4.8 4.8) (property pad_prop_heatsink) (layers F.Cu F.Mask)
    (zone_connect 2))
  (pad "" smd roundrect (at -1.2 -1.2) (size 1.93 1.93) (layers F.Paste) (roundrect_rratio 0.129534))
  (pad "" smd roundrect (at -1.2 1.2) (size 1.93 1.93) (layers F.Paste) (roundrect_rratio 0.129534))
  (pad "" smd roundrect (at 1.2 -1.2) (size 1.93 1.93) (layers F.Paste) (roundrect_rratio 0.129534))
  (pad "" smd roundrect (at 1.2 1.2) (size 1.93 1.93) (layers F.Paste) (roundrect_rratio 0.129534))
  (fp_poly (pts (xy -5.16 -5.16) (xy -5.4725 -5.5975) (xy -4.8475 -5.5975) (xy -5.16 -5.16))
    (stroke (width 0.12) (type solid)) (fill solid) (layer F.SilkS))
  (fp_text user ${REFERENCE} (at 0 0) (layer F.Fab)
    (effects (font (size 1 1) (thickness 0.15)))
  )
  (model ${KICAD7_3DMODEL_DIR}/Sensor.3dshapes/Sensirion_SCD4x-1EP_10.1x10.1mm_P1.25mm_EP4.8x4.8mm.wrl
    (offset (xyz 0 0 0))
    (scale (xyz 1 1 1))
    (rotate (xyz 0 0 0))
  )
)
